PCBNEW-LibModule-V1  
# encoding utf-8
Units mm
$INDEX
SOIC127P1031X265-8N
$EndINDEX
$MODULE SOIC127P1031X265-8N
Po 0 0 0 15 00000000 00000000 ~~
Li SOIC127P1031X265-8N
Cd 
Sc 00000000
At SMD
Op 0 0 0
.SolderMask 0
.SolderPaste 0
T0 -2.81 -3.837 1 1 0 0.05 N V 21 "SOIC127P1031X265-8N"
T1 -2.175 3.837 1 1 0 0.05 N V 21 "VAL**"
DC -6.39 -2.505 -6.29 -2.505 0.2 21
DC -6.39 -2.505 -6.29 -2.505 0.2 27
DS -3.8 -3.025 3.8 -3.025 0.127 27
DS -3.8 3.025 3.8 3.025 0.127 27
DS -3.8 -3.025 3.8 -3.025 0.127 21
DS -3.8 3.025 3.8 3.025 0.127 21
DS -3.8 -3.025 -3.8 3.025 0.127 27
DS 3.8 -3.025 3.8 3.025 0.127 27
DS -5.865 -3.275 5.865 -3.275 0.05 26
DS -5.865 3.275 5.865 3.275 0.05 26
DS -5.865 -3.275 -5.865 3.275 0.05 26
DS 5.865 -3.275 5.865 3.275 0.05 26
$PAD
Sh "1" R 1.55 0.6 0 0 0
At SMD N 00888000
.SolderMask 0
.SolderPaste 0
Ne 0 ""
Po -4.84 -1.905
$EndPAD
$PAD
Sh "2" R 1.55 0.6 0 0 0
At SMD N 00888000
.SolderMask 0
.SolderPaste 0
Ne 0 ""
Po -4.84 -0.635
$EndPAD
$PAD
Sh "3" R 1.55 0.6 0 0 0
At SMD N 00888000
.SolderMask 0
.SolderPaste 0
Ne 0 ""
Po -4.84 0.635
$EndPAD
$PAD
Sh "4" R 1.55 0.6 0 0 0
At SMD N 00888000
.SolderMask 0
.SolderPaste 0
Ne 0 ""
Po -4.84 1.905
$EndPAD
$PAD
Sh "5" R 1.55 0.6 0 0 0
At SMD N 00888000
.SolderMask 0
.SolderPaste 0
Ne 0 ""
Po 4.84 1.905
$EndPAD
$PAD
Sh "6" R 1.55 0.6 0 0 0
At SMD N 00888000
.SolderMask 0
.SolderPaste 0
Ne 0 ""
Po 4.84 0.635
$EndPAD
$PAD
Sh "7" R 1.55 0.6 0 0 0
At SMD N 00888000
.SolderMask 0
.SolderPaste 0
Ne 0 ""
Po 4.84 -0.635
$EndPAD
$PAD
Sh "8" R 1.55 0.6 0 0 0
At SMD N 00888000
.SolderMask 0
.SolderPaste 0
Ne 0 ""
Po 4.84 -1.905
$EndPAD
$EndMODULE SOIC127P1031X265-8N
