PCBNEW-LibModule-V1  
# encoding utf-8
Units mm
$INDEX
FL_744231091
$EndINDEX
$MODULE FL_744231091
Po 0 0 0 15 00000000 00000000 ~~
Li FL_744231091
Cd 
Sc 00000000
At SMD
Op 0 0 0
.SolderMask 0
.SolderPaste 0
T0 -0.46025 -2.63642 1.00054 1.00054 0 0.05 N V 21 "FL_744231091"
T1 0.175095 2.63647 1.00056 1.00056 0 0.05 N V 21 "VAL**"
DS -1 -0.6 1 -0.6 0.127 27
DS 1 -0.6 1 0.6 0.127 27
DS 1 0.6 -1 0.6 0.127 27
DS -1 0.6 -1 -0.6 0.127 27
DS -1.5 -0.8 1.5 -0.8 0.127 21
DS 1.5 -0.8 1.5 0.8 0.127 21
DS 1.5 0.8 -1.5 0.8 0.127 21
DS -1.5 0.8 -1.5 -0.8 0.127 21
DC -1.789 -0.411 -1.739 -0.411 0.12 21
DS -1.55 -0.85 1.55 -0.85 0.05 26
DS 1.55 -0.85 1.55 0.85 0.05 26
DS 1.55 0.85 -1.55 0.85 0.05 26
DS -1.55 0.85 -1.55 -0.85 0.05 26
DC -0.646 -0.284 -0.596 -0.284 0.12 27
$PAD
Sh "1" R 0.9 0.4 0 0 0
At SMD N 00888000
.SolderMask 0
.SolderPaste 0
Ne 0 ""
Po -0.85 -0.4
$EndPAD
$PAD
Sh "2" R 0.9 0.4 0 0 0
At SMD N 00888000
.SolderMask 0
.SolderPaste 0
Ne 0 ""
Po 0.85 -0.4
$EndPAD
$PAD
Sh "3" R 0.9 0.4 0 0 0
At SMD N 00888000
.SolderMask 0
.SolderPaste 0
Ne 0 ""
Po 0.85 0.4
$EndPAD
$PAD
Sh "4" R 0.9 0.4 0 0 0
At SMD N 00888000
.SolderMask 0
.SolderPaste 0
Ne 0 ""
Po -0.85 0.4
$EndPAD
$EndMODULE FL_744231091
