PCBNEW-LibModule-V1  
# encoding utf-8
Units mm
$INDEX
XTAL_ECS-80-18-30-JGN-TR
$EndINDEX
$MODULE XTAL_ECS-80-18-30-JGN-TR
Po 0 0 0 15 00000000 00000000 ~~
Li XTAL_ECS-80-18-30-JGN-TR
Cd 
Sc 00000000
At SMD
Op 0 0 0
.SolderMask 0
.SolderPaste 0
T0 -1.16442 -2.751 1.00585 1.00585 0 0.05 N V 21 "XTAL_ECS-80-18-30-JGN-TR"
T1 -0.526855 2.82496 1.00354 1.00354 0 0.05 N V 21 "VAL**"
DS 2.5 1.6 2.5 -1.6 0.127 27
DS -2.5 -1.6 -2.5 1.6 0.127 27
DS 3.25 -1.85 -3.25 -1.85 0.05 26
DS -3.25 -1.85 -3.25 1.85 0.05 26
DS -3.25 1.85 3.25 1.85 0.05 26
DS 3.25 1.85 3.25 -1.85 0.05 26
DS -2.5 1.6 2.5 1.6 0.127 21
DS 2.5 -1.6 -2.5 -1.6 0.127 21
DS 2.5 -1.6 -2.5 -1.6 0.127 27
DS -2.5 1.6 2.5 1.6 0.127 27
DC -4 0 -3.85858 0 0.3 21
DC -4 0 -3.85858 0 0.3 27
$PAD
Sh "1" R 1.9 2.4 0 0 0
At SMD N 00888000
.SolderMask 0
.SolderPaste 0
Ne 0 ""
Po -2.05 0
$EndPAD
$PAD
Sh "2" R 1.9 2.4 0 0 0
At SMD N 00888000
.SolderMask 0
.SolderPaste 0
Ne 0 ""
Po 2.05 0
$EndPAD
$EndMODULE XTAL_ECS-80-18-30-JGN-TR
