EESchema Schematic File Version 4
LIBS:midi-biodata-esp32_rev4-iso-sensor-cache
EELAYER 30 0
EELAYER END
$Descr A4 11693 8268
encoding utf-8
Sheet 1 1
Title ""
Date ""
Rev ""
Comp ""
Comment1 ""
Comment2 ""
Comment3 ""
Comment4 ""
$EndDescr
$Comp
L Timer:LM555 U3
U 1 1 5D79E40E
P 6800 2800
F 0 "U3" H 6500 2450 50  0000 C CNN
F 1 "LM555" H 6800 2800 50  0000 C CNN
F 2 "Package_SO:VSSOP-8_3.0x3.0mm_P0.65mm" H 6800 2800 50  0001 C CNN
F 3 "http://www.ti.com/lit/ds/symlink/lm555.pdf" H 6800 2800 50  0001 C CNN
	1    6800 2800
	1    0    0    -1  
$EndComp
Text GLabel 7300 2600 2    50   Input ~ 0
555
Wire Wire Line
	6300 2600 6150 2600
$Comp
L Device:R R3
U 1 1 5D8133D8
P 7950 2500
F 0 "R3" H 8000 2500 50  0000 L CNN
F 1 "100K" V 7950 2400 50  0000 L CNN
F 2 "Resistor_SMD:R_0603_1608Metric" V 7880 2500 50  0001 C CNN
F 3 "~" H 7950 2500 50  0001 C CNN
	1    7950 2500
	1    0    0    -1  
$EndComp
$Comp
L Device:C C4
U 1 1 5D818A22
P 6150 2450
F 0 "C4" H 6350 2450 50  0000 R CNN
F 1 "4200pF" H 6400 2550 50  0000 R CNN
F 2 "Capacitor_SMD:C_0603_1608Metric" H 6188 2300 50  0001 C CNN
F 3 "~" H 6150 2450 50  0001 C CNN
	1    6150 2450
	-1   0    0    1   
$EndComp
Connection ~ 6150 2600
Connection ~ 6800 2300
Wire Wire Line
	6800 2300 6800 2400
$Comp
L Device:C C5
U 1 1 5D8D3C07
P 6650 2200
F 0 "C5" V 6700 2150 50  0000 R CNN
F 1 "0.1uF" V 6750 2300 50  0000 R CNN
F 2 "Capacitor_SMD:C_0603_1608Metric" H 6688 2050 50  0001 C CNN
F 3 "~" H 6650 2200 50  0001 C CNN
	1    6650 2200
	0    1    1    0   
$EndComp
Wire Wire Line
	6800 2200 6800 2300
Connection ~ 6800 2200
NoConn ~ 6300 2800
Wire Wire Line
	7300 3000 7350 3000
Wire Wire Line
	7350 3000 7350 3450
Wire Wire Line
	7350 3450 6150 3450
Wire Wire Line
	6150 3450 6150 2600
Connection ~ 7350 3000
Wire Notes Line
	8950 1700 8950 3700
Wire Notes Line
	5800 3700 5800 1700
Wire Notes Line
	5800 1700 8950 1700
Wire Notes Line
	5800 3700 8950 3700
Text Notes 8400 3600 0    90   ~ 18
LM555
NoConn ~ 8150 2900
Text GLabel 3850 2200 0    50   Input ~ 0
555
Text GLabel 4950 2000 2    50   Input ~ 0
ISO_555
$Comp
L ADUM5028-5BRIZ:ADUM5028-5BRIZ U1
U 1 1 5E4F91F2
P 3850 3100
F 0 "U1" H 3850 3565 50  0000 C CNN
F 1 "ADUM5028-5BRIZ" H 3850 3474 50  0000 C CNN
F 2 "ADUM5028-5BRIZ:SOIC127P1031X265-8N" H 3850 3100 50  0001 L BNN
F 3 "DC DC Converter 3KV 300MW" H 3850 3100 50  0001 L BNN
F 4 "ADUM5028-5BRIZ-ND" H 3850 3100 50  0001 L BNN "Feld4"
F 5 "Analog Devices" H 3850 3100 50  0001 L BNN "Feld5"
F 6 "https://www.digikey.com/product-detail/en/analog-devices-inc/ADUM5028-5BRIZ/ADUM5028-5BRIZ-ND/9485493?utm_source=snapeda&utm_medium=aggregator&utm_campaign=symbol" H 3850 3100 50  0001 L BNN "Feld6"
F 7 "ADUM5028-5BRIZ" H 3850 3100 50  0001 L BNN "Feld7"
F 8 "SOIC-8 Analog Devices" H 3850 3100 50  0001 L BNN "Feld8"
	1    3850 3100
	1    0    0    -1  
$EndComp
$Comp
L Device:Ferrite_Bead FB1
U 1 1 5E529420
P 4850 2900
F 0 "FB1" V 4750 2800 50  0000 C CNN
F 1 "BLM15HD182SN1" V 4667 2900 50  0000 C CNN
F 2 "Diode_SMD:D_0402_1005Metric" V 4780 2900 50  0001 C CNN
F 3 "~" H 4850 2900 50  0001 C CNN
	1    4850 2900
	0    1    1    0   
$EndComp
$Comp
L Device:Ferrite_Bead FB2
U 1 1 5E52BFAA
P 4850 3300
F 0 "FB2" V 5000 3200 50  0000 C CNN
F 1 "BLM15HD182SN1" V 5100 3450 50  0000 C CNN
F 2 "Diode_SMD:D_0402_1005Metric" V 4780 3300 50  0001 C CNN
F 3 "~" H 4850 3300 50  0001 C CNN
	1    4850 3300
	0    1    1    0   
$EndComp
$Comp
L Device:C C2
U 1 1 5E52C500
P 3150 2750
F 0 "C2" H 3300 2650 50  0000 R CNN
F 1 "0.1uF" H 3300 2850 50  0000 R CNN
F 2 "Capacitor_SMD:C_0603_1608Metric" H 3188 2600 50  0001 C CNN
F 3 "~" H 3150 2750 50  0001 C CNN
	1    3150 2750
	1    0    0    -1  
$EndComp
$Comp
L Device:C C1
U 1 1 5E52D834
P 2900 2750
F 0 "C1" H 3050 2650 50  0000 R CNN
F 1 "10uF" H 3000 2850 50  0000 R CNN
F 2 "Capacitor_SMD:C_0603_1608Metric" H 2938 2600 50  0001 C CNN
F 3 "~" H 2900 2750 50  0001 C CNN
	1    2900 2750
	1    0    0    -1  
$EndComp
Wire Wire Line
	2900 2900 3150 2900
$Comp
L power:GND #PWR0101
U 1 1 5E55547D
P 4550 3400
F 0 "#PWR0101" H 4550 3150 50  0001 C CNN
F 1 "GND" H 4555 3227 50  0000 C CNN
F 2 "" H 4550 3400 50  0001 C CNN
F 3 "" H 4550 3400 50  0001 C CNN
	1    4550 3400
	1    0    0    -1  
$EndComp
$Comp
L power:+3.3V #PWR0102
U 1 1 5E555BA0
P 2900 2900
F 0 "#PWR0102" H 2900 2750 50  0001 C CNN
F 1 "+3.3V" H 2915 3073 50  0000 C CNN
F 2 "" H 2900 2900 50  0001 C CNN
F 3 "" H 2900 2900 50  0001 C CNN
	1    2900 2900
	-1   0    0    1   
$EndComp
Wire Wire Line
	2900 2600 3000 2600
$Comp
L power:GND #PWR0103
U 1 1 5E55615E
P 3000 2600
F 0 "#PWR0103" H 3000 2350 50  0001 C CNN
F 1 "GND" H 3005 2427 50  0000 C CNN
F 2 "" H 3000 2600 50  0001 C CNN
F 3 "" H 3000 2600 50  0001 C CNN
	1    3000 2600
	-1   0    0    1   
$EndComp
Connection ~ 3000 2600
Wire Wire Line
	3000 2600 3150 2600
$Comp
L Device:C C3
U 1 1 5E563B0F
P 4700 3100
F 0 "C3" H 4850 3000 50  0000 R CNN
F 1 "0.1uF" H 4650 3000 50  0000 R CNN
F 2 "Capacitor_SMD:C_0603_1608Metric" H 4738 2950 50  0001 C CNN
F 3 "~" H 4700 3100 50  0001 C CNN
	1    4700 3100
	1    0    0    -1  
$EndComp
$Comp
L power:+3.3VA #PWR0104
U 1 1 5E57F346
P 5000 2900
F 0 "#PWR0104" H 5000 2750 50  0001 C CNN
F 1 "+3.3VA" V 4950 2800 50  0000 L CNN
F 2 "" H 5000 2900 50  0001 C CNN
F 3 "" H 5000 2900 50  0001 C CNN
	1    5000 2900
	0    1    1    0   
$EndComp
$Comp
L power:GNDA #PWR0105
U 1 1 5E57FE1C
P 5000 3300
F 0 "#PWR0105" H 5000 3050 50  0001 C CNN
F 1 "GNDA" V 4900 3400 50  0000 R CNN
F 2 "" H 5000 3300 50  0001 C CNN
F 3 "" H 5000 3300 50  0001 C CNN
	1    5000 3300
	0    -1   -1   0   
$EndComp
Wire Wire Line
	4550 2900 4700 2900
Wire Wire Line
	4700 2900 4700 2950
Connection ~ 4700 2900
Wire Wire Line
	4550 3300 4700 3300
Wire Wire Line
	4700 3300 4700 3250
Connection ~ 4700 3300
$Comp
L power:GND #PWR0106
U 1 1 5E5EC687
P 3150 3100
F 0 "#PWR0106" H 3150 2850 50  0001 C CNN
F 1 "GND" H 3155 2927 50  0000 C CNN
F 2 "" H 3150 3100 50  0001 C CNN
F 3 "" H 3150 3100 50  0001 C CNN
	1    3150 3100
	1    0    0    -1  
$EndComp
Wire Wire Line
	4550 3100 4550 3300
$Comp
L power:+3.3V #PWR0107
U 1 1 5E61E3C7
P 4850 1700
F 0 "#PWR0107" H 4850 1550 50  0001 C CNN
F 1 "+3.3V" H 5000 1750 50  0000 C CNN
F 2 "" H 4850 1700 50  0001 C CNN
F 3 "" H 4850 1700 50  0001 C CNN
	1    4850 1700
	1    0    0    -1  
$EndComp
$Comp
L power:GND #PWR0108
U 1 1 5E61F15E
P 4900 2200
F 0 "#PWR0108" H 4900 1950 50  0001 C CNN
F 1 "GND" H 4905 2027 50  0000 C CNN
F 2 "" H 4900 2200 50  0001 C CNN
F 3 "" H 4900 2200 50  0001 C CNN
	1    4900 2200
	0    -1   -1   0   
$EndComp
Connection ~ 2900 2900
Wire Notes Line
	2750 3700 5350 3700
Wire Notes Line
	5350 3700 5350 1550
Text Notes 2800 3650 0    90   ~ 18
Power Isolation
Wire Notes Line
	3150 1550 3150 1900
Wire Notes Line
	3150 1900 2750 1900
Wire Notes Line
	2750 1900 2750 3700
Wire Notes Line
	3150 1550 5350 1550
Wire Wire Line
	6500 2200 6150 2200
Wire Wire Line
	6150 2200 6150 2300
Wire Wire Line
	7950 2300 7950 2350
Wire Wire Line
	7950 2650 7950 2800
Connection ~ 7950 2800
Wire Wire Line
	7300 2800 7950 2800
Wire Wire Line
	6800 2300 7950 2300
Wire Wire Line
	7350 3000 8150 3000
Wire Wire Line
	7950 2800 8150 2800
$Comp
L power:+3.3VA #PWR0109
U 1 1 5DECEDA4
P 3850 2000
F 0 "#PWR0109" H 3850 1850 50  0001 C CNN
F 1 "+3.3VA" V 3850 2150 50  0000 L CNN
F 2 "" H 3850 2000 50  0001 C CNN
F 3 "" H 3850 2000 50  0001 C CNN
	1    3850 2000
	0    -1   -1   0   
$EndComp
$Comp
L Device:R R1
U 1 1 5DED04AE
P 4000 2000
F 0 "R1" H 4050 2000 50  0000 L CNN
F 1 "3,3K" V 4000 1900 50  0000 L CNN
F 2 "Resistor_SMD:R_0603_1608Metric" V 3930 2000 50  0001 C CNN
F 3 "~" H 4000 2000 50  0001 C CNN
	1    4000 2000
	0    -1   -1   0   
$EndComp
Wire Wire Line
	3850 2200 4150 2200
$Comp
L Device:R R2
U 1 1 5DED2908
P 4850 1850
F 0 "R2" H 4900 1850 50  0000 L CNN
F 1 "100R" V 4850 1750 50  0000 L CNN
F 2 "Resistor_SMD:R_0603_1608Metric" V 4780 1850 50  0001 C CNN
F 3 "~" H 4850 1850 50  0001 C CNN
	1    4850 1850
	1    0    0    -1  
$EndComp
$Comp
L Isolator:LTV-355T U2
U 1 1 5DED4335
P 4450 2100
F 0 "U2" H 4450 2425 50  0000 C CNN
F 1 "LTV-355T" H 4450 2334 50  0000 C CNN
F 2 "Package_SO:SO-4_4.4x3.6mm_P2.54mm" H 4250 1900 50  0001 L CIN
F 3 "http://optoelectronics.liteon.com/upload/download/DS70-2001-006/S_110_LTV-355T%2020140520.pdf" H 4450 2100 50  0001 L CNN
	1    4450 2100
	1    0    0    -1  
$EndComp
Wire Wire Line
	4750 2000 4850 2000
Wire Wire Line
	4750 2200 4900 2200
Connection ~ 4850 2000
Wire Wire Line
	4850 2000 4950 2000
$Comp
L power:GNDA #PWR0111
U 1 1 5DED84A6
P 6150 2200
F 0 "#PWR0111" H 6150 1950 50  0001 C CNN
F 1 "GNDA" V 6150 2100 50  0000 R CNN
F 2 "" H 6150 2200 50  0001 C CNN
F 3 "" H 6150 2200 50  0001 C CNN
	1    6150 2200
	0    1    1    0   
$EndComp
$Comp
L power:GNDA #PWR0112
U 1 1 5DED94A8
P 6800 3200
F 0 "#PWR0112" H 6800 2950 50  0001 C CNN
F 1 "GNDA" V 6700 3300 50  0000 R CNN
F 2 "" H 6800 3200 50  0001 C CNN
F 3 "" H 6800 3200 50  0001 C CNN
	1    6800 3200
	1    0    0    -1  
$EndComp
$Comp
L power:+3.3VA #PWR0113
U 1 1 5DED9AD7
P 6300 3000
F 0 "#PWR0113" H 6300 2850 50  0001 C CNN
F 1 "+3.3VA" V 6350 2900 50  0000 L CNN
F 2 "" H 6300 3000 50  0001 C CNN
F 3 "" H 6300 3000 50  0001 C CNN
	1    6300 3000
	0    -1   -1   0   
$EndComp
$Comp
L power:GNDA #PWR0114
U 1 1 5DEDA265
P 7100 2200
F 0 "#PWR0114" H 7100 1950 50  0001 C CNN
F 1 "GNDA" V 7100 2100 50  0000 R CNN
F 2 "" H 7100 2200 50  0001 C CNN
F 3 "" H 7100 2200 50  0001 C CNN
	1    7100 2200
	0    -1   -1   0   
$EndComp
Wire Wire Line
	6800 1950 6800 2000
Connection ~ 6150 2200
$Comp
L power:+3.3V #PWR0115
U 1 1 5DEDF3F9
P 5250 850
F 0 "#PWR0115" H 5250 700 50  0001 C CNN
F 1 "+3.3V" V 5250 1100 50  0000 C CNN
F 2 "" H 5250 850 50  0001 C CNN
F 3 "" H 5250 850 50  0001 C CNN
	1    5250 850 
	0    -1   -1   0   
$EndComp
Text GLabel 5350 1300 0    50   Input ~ 0
ISO_555
$Comp
L power:GND #PWR0116
U 1 1 5DEDFEDE
P 5250 1050
F 0 "#PWR0116" H 5250 800 50  0001 C CNN
F 1 "GND" V 5250 850 50  0000 C CNN
F 2 "" H 5250 1050 50  0001 C CNN
F 3 "" H 5250 1050 50  0001 C CNN
	1    5250 1050
	0    1    1    0   
$EndComp
$Comp
L Connector:Conn_01x03_Male J2
U 1 1 5DEE2404
P 5850 1050
F 0 "J2" H 5822 982 50  0000 R CNN
F 1 "Conn_01x03_Male" H 5822 1073 50  0000 R CNN
F 2 "Connector_PinHeader_2.54mm:PinHeader_1x03_P2.54mm_Vertical" H 5850 1050 50  0001 C CNN
F 3 "~" H 5850 1050 50  0001 C CNN
	1    5850 1050
	-1   0    0    1   
$EndComp
$Comp
L Mechanical:MountingHole H3
U 1 1 5DF0DB95
P 2950 1100
F 0 "H3" H 3050 1146 50  0000 L CNN
F 1 "MountingHole" H 3050 1055 50  0000 L CNN
F 2 "MountingHole:MountingHole_3mm" H 2950 1100 50  0001 C CNN
F 3 "~" H 2950 1100 50  0001 C CNN
	1    2950 1100
	1    0    0    -1  
$EndComp
$Comp
L Mechanical:MountingHole H1
U 1 1 5DF0E2B8
P 2450 1100
F 0 "H1" H 2550 1146 50  0000 L CNN
F 1 "MountingHole" H 2550 1055 50  0000 L CNN
F 2 "MountingHole:MountingHole_3mm" H 2450 1100 50  0001 C CNN
F 3 "~" H 2450 1100 50  0001 C CNN
	1    2450 1100
	1    0    0    -1  
$EndComp
$Comp
L Mechanical:MountingHole H2
U 1 1 5DF0E997
P 2700 1350
F 0 "H2" H 2800 1396 50  0000 L CNN
F 1 "MountingHole" H 2800 1305 50  0000 L CNN
F 2 "MountingHole:MountingHole_3mm" H 2700 1350 50  0001 C CNN
F 3 "~" H 2700 1350 50  0001 C CNN
	1    2700 1350
	1    0    0    -1  
$EndComp
$Comp
L MJ-2523-SMT:MJ-2523-SMT J1
U 1 1 5DF79431
P 8550 2900
F 0 "J1" H 8220 2854 50  0000 R CNN
F 1 "MJ-2523-SMT" H 8220 2945 50  0000 R CNN
F 2 "MJ-2523-SMT:CUI_MJ-2523-SMT" H 8550 2900 50  0001 L BNN
F 3 "2.5 mm, Mono, Right Angle, Surface Mount _SMT_, Audio Jack Connector" H 8550 2900 50  0001 L BNN
F 4 "Unavailable" H 8550 2900 50  0001 L BNN "Feld4"
F 5 "MJ-2523-SMT-TR" H 8550 2900 50  0001 L BNN "Feld5"
F 6 "None" H 8550 2900 50  0001 L BNN "Feld6"
F 7 "CUI Inc." H 8550 2900 50  0001 L BNN "Feld7"
F 8 "None" H 8550 2900 50  0001 L BNN "Feld8"
F 9 "https://www.cui.com/product/interconnect/connectors/audio-connectors/jacks/mj-2523-smt-tr?utm_source=snapeda.com&utm_medium=referral&utm_campaign=snapedaBOM" H 8550 2900 50  0001 L BNN "Feld9"
	1    8550 2900
	-1   0    0    1   
$EndComp
$Comp
L Device:Ferrite_Bead FB3
U 1 1 5E388943
P 5400 850
F 0 "FB3" V 5300 750 50  0000 C CNN
F 1 "BLM15HD182SN1" V 5217 850 50  0000 C CNN
F 2 "Diode_SMD:D_0402_1005Metric" V 5330 850 50  0001 C CNN
F 3 "~" H 5400 850 50  0001 C CNN
	1    5400 850 
	0    1    1    0   
$EndComp
$Comp
L Device:Ferrite_Bead FB4
U 1 1 5E3890D7
P 5400 1050
F 0 "FB4" V 5300 950 50  0000 C CNN
F 1 "BLM15HD182SN1" V 5217 1050 50  0000 C CNN
F 2 "Diode_SMD:D_0402_1005Metric" V 5330 1050 50  0001 C CNN
F 3 "~" H 5400 1050 50  0001 C CNN
	1    5400 1050
	0    1    1    0   
$EndComp
Wire Wire Line
	5550 1050 5650 1050
Wire Wire Line
	5550 850  5550 950 
Wire Wire Line
	5550 950  5650 950 
Wire Wire Line
	5350 1300 5650 1300
Wire Wire Line
	5650 1300 5650 1150
$Comp
L Device:C C7
U 1 1 5E393E38
P 6950 2000
F 0 "C7" V 7000 1950 50  0000 R CNN
F 1 "22uF" V 7000 1800 50  0000 R CNN
F 2 "Capacitor_SMD:C_0805_2012Metric" H 6988 1850 50  0001 C CNN
F 3 "~" H 6950 2000 50  0001 C CNN
	1    6950 2000
	0    -1   -1   0   
$EndComp
$Comp
L Device:C C6
U 1 1 5D8E7EFB
P 6950 2200
F 0 "C6" V 6900 2150 50  0000 R CNN
F 1 "10uF" V 6850 2300 50  0000 R CNN
F 2 "Capacitor_SMD:C_0805_2012Metric" H 6988 2050 50  0001 C CNN
F 3 "~" H 6950 2200 50  0001 C CNN
	1    6950 2200
	0    -1   -1   0   
$EndComp
$Comp
L Device:C C8
U 1 1 5E397AE4
P 6650 2000
F 0 "C8" V 6600 1950 50  0000 R CNN
F 1 "0.1uF" V 6500 2100 50  0000 R CNN
F 2 "Capacitor_SMD:C_0603_1608Metric" H 6688 1850 50  0001 C CNN
F 3 "~" H 6650 2000 50  0001 C CNN
	1    6650 2000
	0    1    1    0   
$EndComp
Connection ~ 6800 2000
Wire Wire Line
	6500 2000 6500 2200
Wire Wire Line
	6800 2000 6800 2200
Connection ~ 6500 2200
Wire Wire Line
	7100 2000 7100 2200
Connection ~ 7100 2200
$Comp
L power:+3.3VA #PWR0110
U 1 1 5DED7E16
P 6800 1950
F 0 "#PWR0110" H 6800 1800 50  0001 C CNN
F 1 "+3.3VA" H 6800 2050 50  0000 L CNN
F 2 "" H 6800 1950 50  0001 C CNN
F 3 "" H 6800 1950 50  0001 C CNN
	1    6800 1950
	1    0    0    -1  
$EndComp
$EndSCHEMATC
