(export (version D)
  (design
    (source C:\Users\Manuel\Nextcloud\Projekte\kicad\midi-biodata-esp32\midi-biodata-esp32_rev6\midi-biodata-esp32_rev4-iso-sensor\midi-biodata-esp32_rev4-iso-sensor.sch)
    (date "03.02.2020 21:33:04")
    (tool "Eeschema (5.1.4)-1")
    (sheet (number 1) (name /) (tstamps /)
      (title_block
        (title)
        (company)
        (rev)
        (date)
        (source midi-biodata-esp32_rev4-iso-sensor.sch)
        (comment (number 1) (value ""))
        (comment (number 2) (value ""))
        (comment (number 3) (value ""))
        (comment (number 4) (value "")))))
  (components
    (comp (ref U3)
      (value LM555)
      (footprint Package_SO:VSSOP-8_3.0x3.0mm_P0.65mm)
      (datasheet http://www.ti.com/lit/ds/symlink/lm555.pdf)
      (libsource (lib Timer) (part LM555) (description "Timer, DIP-8/SOIC-8/SSOP-8"))
      (sheetpath (names /) (tstamps /))
      (tstamp 5D79E40E))
    (comp (ref R3)
      (value 100K)
      (footprint Resistor_SMD:R_0603_1608Metric)
      (datasheet ~)
      (libsource (lib Device) (part R) (description Resistor))
      (sheetpath (names /) (tstamps /))
      (tstamp 5D8133D8))
    (comp (ref C4)
      (value 4200pF)
      (footprint Capacitor_SMD:C_0603_1608Metric)
      (datasheet ~)
      (libsource (lib Device) (part C) (description "Unpolarized capacitor"))
      (sheetpath (names /) (tstamps /))
      (tstamp 5D818A22))
    (comp (ref C5)
      (value 0.1uF)
      (footprint Capacitor_SMD:C_0603_1608Metric)
      (datasheet ~)
      (libsource (lib Device) (part C) (description "Unpolarized capacitor"))
      (sheetpath (names /) (tstamps /))
      (tstamp 5D8D3C07))
    (comp (ref U1)
      (value ADUM5028-5BRIZ)
      (footprint ADUM5028-5BRIZ:SOIC127P1031X265-8N)
      (datasheet "DC DC Converter 3KV 300MW")
      (fields
        (field (name Feld4) ADUM5028-5BRIZ-ND)
        (field (name Feld5) "Analog Devices")
        (field (name Feld6) https://www.digikey.com/product-detail/en/analog-devices-inc/ADUM5028-5BRIZ/ADUM5028-5BRIZ-ND/9485493?utm_source=snapeda&utm_medium=aggregator&utm_campaign=symbol)
        (field (name Feld7) ADUM5028-5BRIZ)
        (field (name Feld8) "SOIC-8 Analog Devices"))
      (libsource (lib ADUM5028-5BRIZ) (part ADUM5028-5BRIZ) (description ""))
      (sheetpath (names /) (tstamps /))
      (tstamp 5E4F91F2))
    (comp (ref FB1)
      (value BLM15HD182SN1)
      (footprint Diode_SMD:D_0402_1005Metric)
      (datasheet ~)
      (libsource (lib Device) (part Ferrite_Bead) (description "Ferrite bead"))
      (sheetpath (names /) (tstamps /))
      (tstamp 5E529420))
    (comp (ref FB2)
      (value BLM15HD182SN1)
      (footprint Diode_SMD:D_0402_1005Metric)
      (datasheet ~)
      (libsource (lib Device) (part Ferrite_Bead) (description "Ferrite bead"))
      (sheetpath (names /) (tstamps /))
      (tstamp 5E52BFAA))
    (comp (ref C2)
      (value 0.1uF)
      (footprint Capacitor_SMD:C_0603_1608Metric)
      (datasheet ~)
      (libsource (lib Device) (part C) (description "Unpolarized capacitor"))
      (sheetpath (names /) (tstamps /))
      (tstamp 5E52C500))
    (comp (ref C1)
      (value 10uF)
      (footprint Capacitor_SMD:C_0603_1608Metric)
      (datasheet ~)
      (libsource (lib Device) (part C) (description "Unpolarized capacitor"))
      (sheetpath (names /) (tstamps /))
      (tstamp 5E52D834))
    (comp (ref C3)
      (value 0.1uF)
      (footprint Capacitor_SMD:C_0603_1608Metric)
      (datasheet ~)
      (libsource (lib Device) (part C) (description "Unpolarized capacitor"))
      (sheetpath (names /) (tstamps /))
      (tstamp 5E563B0F))
    (comp (ref R1)
      (value 3,3K)
      (footprint Resistor_SMD:R_0603_1608Metric)
      (datasheet ~)
      (libsource (lib Device) (part R) (description Resistor))
      (sheetpath (names /) (tstamps /))
      (tstamp 5DED04AE))
    (comp (ref R2)
      (value 100R)
      (footprint Resistor_SMD:R_0603_1608Metric)
      (datasheet ~)
      (libsource (lib Device) (part R) (description Resistor))
      (sheetpath (names /) (tstamps /))
      (tstamp 5DED2908))
    (comp (ref U2)
      (value LTV-355T)
      (footprint Package_SO:SO-4_4.4x3.6mm_P2.54mm)
      (datasheet http://optoelectronics.liteon.com/upload/download/DS70-2001-006/S_110_LTV-355T%2020140520.pdf)
      (libsource (lib Isolator) (part LTV-355T) (description "DC Darlington Optocoupler, Vce 35V, CTR 600%, SO-4"))
      (sheetpath (names /) (tstamps /))
      (tstamp 5DED4335))
    (comp (ref J2)
      (value Conn_01x03_Male)
      (footprint Connector_PinHeader_2.54mm:PinHeader_1x03_P2.54mm_Vertical)
      (datasheet ~)
      (libsource (lib Connector) (part Conn_01x03_Male) (description "Generic connector, single row, 01x03, script generated (kicad-library-utils/schlib/autogen/connector/)"))
      (sheetpath (names /) (tstamps /))
      (tstamp 5DEE2404))
    (comp (ref H3)
      (value MountingHole)
      (footprint MountingHole:MountingHole_3mm)
      (datasheet ~)
      (libsource (lib Mechanical) (part MountingHole) (description "Mounting Hole without connection"))
      (sheetpath (names /) (tstamps /))
      (tstamp 5DF0DB95))
    (comp (ref H1)
      (value MountingHole)
      (footprint MountingHole:MountingHole_3mm)
      (datasheet ~)
      (libsource (lib Mechanical) (part MountingHole) (description "Mounting Hole without connection"))
      (sheetpath (names /) (tstamps /))
      (tstamp 5DF0E2B8))
    (comp (ref H2)
      (value MountingHole)
      (footprint MountingHole:MountingHole_3mm)
      (datasheet ~)
      (libsource (lib Mechanical) (part MountingHole) (description "Mounting Hole without connection"))
      (sheetpath (names /) (tstamps /))
      (tstamp 5DF0E997))
    (comp (ref J1)
      (value MJ-2523-SMT)
      (footprint MJ-2523-SMT:CUI_MJ-2523-SMT)
      (datasheet "2.5 mm, Mono, Right Angle, Surface Mount _SMT_, Audio Jack Connector")
      (fields
        (field (name Feld4) Unavailable)
        (field (name Feld5) MJ-2523-SMT-TR)
        (field (name Feld6) None)
        (field (name Feld7) "CUI Inc.")
        (field (name Feld8) None)
        (field (name Feld9) https://www.cui.com/product/interconnect/connectors/audio-connectors/jacks/mj-2523-smt-tr?utm_source=snapeda.com&utm_medium=referral&utm_campaign=snapedaBOM))
      (libsource (lib MJ-2523-SMT) (part MJ-2523-SMT) (description ""))
      (sheetpath (names /) (tstamps /))
      (tstamp 5DF79431))
    (comp (ref FB3)
      (value BLM15HD182SN1)
      (footprint Diode_SMD:D_0402_1005Metric)
      (datasheet ~)
      (libsource (lib Device) (part Ferrite_Bead) (description "Ferrite bead"))
      (sheetpath (names /) (tstamps /))
      (tstamp 5E388943))
    (comp (ref FB4)
      (value BLM15HD182SN1)
      (footprint Diode_SMD:D_0402_1005Metric)
      (datasheet ~)
      (libsource (lib Device) (part Ferrite_Bead) (description "Ferrite bead"))
      (sheetpath (names /) (tstamps /))
      (tstamp 5E3890D7))
    (comp (ref C7)
      (value 22uF)
      (footprint Capacitor_SMD:C_0805_2012Metric)
      (datasheet ~)
      (libsource (lib Device) (part C) (description "Unpolarized capacitor"))
      (sheetpath (names /) (tstamps /))
      (tstamp 5E393E38))
    (comp (ref C6)
      (value 10uF)
      (footprint Capacitor_SMD:C_0805_2012Metric)
      (datasheet ~)
      (libsource (lib Device) (part C) (description "Unpolarized capacitor"))
      (sheetpath (names /) (tstamps /))
      (tstamp 5D8E7EFB))
    (comp (ref C8)
      (value 0.1uF)
      (footprint Capacitor_SMD:C_0603_1608Metric)
      (datasheet ~)
      (libsource (lib Device) (part C) (description "Unpolarized capacitor"))
      (sheetpath (names /) (tstamps /))
      (tstamp 5E397AE4)))
  (libparts
    (libpart (lib ADUM5028-5BRIZ) (part ADUM5028-5BRIZ)
      (fields
        (field (name Reference) U)
        (field (name Value) ADUM5028-5BRIZ)
        (field (name Footprint) SOIC127P1031X265-8N)
        (field (name Datasheet) "DC DC Converter 3KV 300MW")
        (field (name Feld4) ADUM5028-5BRIZ-ND)
        (field (name Feld5) "Analog Devices")
        (field (name Feld6) https://www.digikey.com/product-detail/en/analog-devices-inc/ADUM5028-5BRIZ/ADUM5028-5BRIZ-ND/9485493?utm_source=snapeda&utm_medium=aggregator&utm_campaign=symbol)
        (field (name Feld7) ADUM5028-5BRIZ)
        (field (name Feld8) "SOIC-8 Analog Devices"))
      (pins
        (pin (num 1) (name PDIS) (type input))
        (pin (num 2) (name GND_1) (type power_in))
        (pin (num 3) (name V_DDP) (type input))
        (pin (num 4) (name GND_1) (type power_in))
        (pin (num 5) (name GND_ISO) (type power_in))
        (pin (num 6) (name V_ISO) (type output))
        (pin (num 7) (name GND_ISO) (type power_in))
        (pin (num 8) (name V_SEL) (type input))))
    (libpart (lib Connector) (part Conn_01x03_Male)
      (description "Generic connector, single row, 01x03, script generated (kicad-library-utils/schlib/autogen/connector/)")
      (docs ~)
      (footprints
        (fp Connector*:*_1x??_*))
      (fields
        (field (name Reference) J)
        (field (name Value) Conn_01x03_Male))
      (pins
        (pin (num 1) (name Pin_1) (type passive))
        (pin (num 2) (name Pin_2) (type passive))
        (pin (num 3) (name Pin_3) (type passive))))
    (libpart (lib Device) (part C)
      (description "Unpolarized capacitor")
      (docs ~)
      (footprints
        (fp C_*))
      (fields
        (field (name Reference) C)
        (field (name Value) C))
      (pins
        (pin (num 1) (name ~) (type passive))
        (pin (num 2) (name ~) (type passive))))
    (libpart (lib Device) (part Ferrite_Bead)
      (description "Ferrite bead")
      (docs ~)
      (footprints
        (fp Inductor_*)
        (fp L_*)
        (fp *Ferrite*))
      (fields
        (field (name Reference) FB)
        (field (name Value) Ferrite_Bead))
      (pins
        (pin (num 1) (name ~) (type passive))
        (pin (num 2) (name ~) (type passive))))
    (libpart (lib Device) (part R)
      (description Resistor)
      (docs ~)
      (footprints
        (fp R_*))
      (fields
        (field (name Reference) R)
        (field (name Value) R))
      (pins
        (pin (num 1) (name ~) (type passive))
        (pin (num 2) (name ~) (type passive))))
    (libpart (lib Isolator) (part LTV-355T)
      (description "DC Darlington Optocoupler, Vce 35V, CTR 600%, SO-4")
      (docs http://optoelectronics.liteon.com/upload/download/DS70-2001-006/S_110_LTV-355T%2020140520.pdf)
      (footprints
        (fp SO*4.4x3.6mm*P2.54mm*))
      (fields
        (field (name Reference) U)
        (field (name Value) LTV-355T)
        (field (name Footprint) Package_SO:SO-4_4.4x3.6mm_P2.54mm))
      (pins
        (pin (num 1) (name ~) (type passive))
        (pin (num 2) (name ~) (type passive))
        (pin (num 3) (name ~) (type passive))
        (pin (num 4) (name ~) (type passive))))
    (libpart (lib MJ-2523-SMT) (part MJ-2523-SMT)
      (fields
        (field (name Reference) J)
        (field (name Value) MJ-2523-SMT)
        (field (name Footprint) CUI_MJ-2523-SMT)
        (field (name Datasheet) "2.5 mm, Mono, Right Angle, Surface Mount _SMT_, Audio Jack Connector")
        (field (name Feld4) Unavailable)
        (field (name Feld5) MJ-2523-SMT-TR)
        (field (name Feld6) None)
        (field (name Feld7) "CUI Inc.")
        (field (name Feld8) None)
        (field (name Feld9) https://www.cui.com/product/interconnect/connectors/audio-connectors/jacks/mj-2523-smt-tr?utm_source=snapeda.com&utm_medium=referral&utm_campaign=snapedaBOM))
      (pins
        (pin (num 1) (name SLEEVE) (type passive))
        (pin (num 2) (name TIP) (type passive))
        (pin (num 4) (name TIP_SWITCH) (type passive))))
    (libpart (lib Mechanical) (part MountingHole)
      (description "Mounting Hole without connection")
      (docs ~)
      (footprints
        (fp MountingHole*))
      (fields
        (field (name Reference) H)
        (field (name Value) MountingHole)))
    (libpart (lib Timer) (part LM555)
      (aliases
        (alias ICM7555)
        (alias LMC555xM)
        (alias LMC555xMM)
        (alias LMC555xN)
        (alias MC1455)
        (alias TLC555CD)
        (alias TLC555CP)
        (alias TLC555CPS)
        (alias NA555)
        (alias NE555)
        (alias SE555)
        (alias SA555))
      (description "Timer, DIP-8/SOIC-8/SSOP-8")
      (docs http://www.ti.com/lit/ds/symlink/lm555.pdf)
      (footprints
        (fp SOIC*3.9x4.9mm*P1.27mm*)
        (fp DIP*W7.62mm*)
        (fp TSSOP*3x3mm*P0.65mm*))
      (fields
        (field (name Reference) U)
        (field (name Value) LM555))
      (pins
        (pin (num 1) (name GND) (type power_in))
        (pin (num 2) (name TR) (type input))
        (pin (num 3) (name Q) (type output))
        (pin (num 4) (name R) (type input))
        (pin (num 5) (name CV) (type input))
        (pin (num 6) (name THR) (type input))
        (pin (num 7) (name DIS) (type input))
        (pin (num 8) (name VCC) (type power_in)))))
  (libraries
    (library (logical ADUM5028-5BRIZ)
      (uri C:/Users/Manuel/Nextcloud/Projekte/kicad/midi-biodata-esp32/midi-biodata-esp32_rev4/libs/ADUM5028-5BRIZ/ADUM5028-5BRIZ.lib))
    (library (logical Connector)
      (uri "C:\\Program Files\\KiCad\\share\\kicad\\library/Connector.lib"))
    (library (logical Device)
      (uri "C:\\Program Files\\KiCad\\share\\kicad\\library/Device.lib"))
    (library (logical Isolator)
      (uri "C:\\Program Files\\KiCad\\share\\kicad\\library/Isolator.lib"))
    (library (logical MJ-2523-SMT)
      (uri C:/Users/Manuel/Nextcloud/Projekte/kicad/midi-biodata-esp32/midi-biodata-esp32_rev4/libs/MJ-2523-SMT/MJ-2523-SMT.lib))
    (library (logical Mechanical)
      (uri "C:\\Program Files\\KiCad\\share\\kicad\\library/Mechanical.lib"))
    (library (logical Timer)
      (uri "C:\\Program Files\\KiCad\\share\\kicad\\library/Timer.lib")))
  (nets
    (net (code 1) (name "Net-(R1-Pad2)")
      (node (ref R1) (pin 2))
      (node (ref U2) (pin 1)))
    (net (code 2) (name 555)
      (node (ref U3) (pin 3))
      (node (ref U2) (pin 2)))
    (net (code 3) (name GND)
      (node (ref FB4) (pin 2))
      (node (ref C1) (pin 1))
      (node (ref C2) (pin 1))
      (node (ref U1) (pin 1))
      (node (ref U1) (pin 2))
      (node (ref U1) (pin 4))
      (node (ref U2) (pin 3)))
    (net (code 4) (name +3.3VA)
      (node (ref R3) (pin 1))
      (node (ref FB1) (pin 1))
      (node (ref C8) (pin 1))
      (node (ref C5) (pin 1))
      (node (ref U3) (pin 8))
      (node (ref U3) (pin 4))
      (node (ref C6) (pin 1))
      (node (ref C7) (pin 1))
      (node (ref R1) (pin 1)))
    (net (code 5) (name "Net-(J1-Pad2)")
      (node (ref R3) (pin 2))
      (node (ref J1) (pin 2))
      (node (ref U3) (pin 7)))
    (net (code 6) (name "Net-(C4-Pad1)")
      (node (ref J1) (pin 1))
      (node (ref U3) (pin 2))
      (node (ref U3) (pin 6))
      (node (ref C4) (pin 1)))
    (net (code 7) (name GNDA)
      (node (ref C6) (pin 2))
      (node (ref C7) (pin 2))
      (node (ref C4) (pin 2))
      (node (ref C8) (pin 2))
      (node (ref C5) (pin 2))
      (node (ref U3) (pin 1))
      (node (ref FB2) (pin 1)))
    (net (code 8) (name "Net-(FB3-Pad1)")
      (node (ref FB3) (pin 1))
      (node (ref J2) (pin 3)))
    (net (code 9) (name ISO_555)
      (node (ref R2) (pin 2))
      (node (ref J2) (pin 1))
      (node (ref U2) (pin 4)))
    (net (code 10) (name +3V3)
      (node (ref C1) (pin 2))
      (node (ref C2) (pin 2))
      (node (ref FB3) (pin 2))
      (node (ref R2) (pin 1))
      (node (ref U1) (pin 3)))
    (net (code 11) (name "Net-(J1-Pad4)")
      (node (ref J1) (pin 4)))
    (net (code 12) (name "Net-(FB4-Pad1)")
      (node (ref J2) (pin 2))
      (node (ref FB4) (pin 1)))
    (net (code 13) (name "Net-(U3-Pad5)")
      (node (ref U3) (pin 5)))
    (net (code 14) (name "Net-(C3-Pad2)")
      (node (ref U1) (pin 8))
      (node (ref U1) (pin 7))
      (node (ref FB2) (pin 2))
      (node (ref U1) (pin 5))
      (node (ref C3) (pin 2)))
    (net (code 15) (name "Net-(C3-Pad1)")
      (node (ref C3) (pin 1))
      (node (ref FB1) (pin 2))
      (node (ref U1) (pin 6)))))