PCBNEW-LibModule-V1  
# encoding utf-8
Units mm
$INDEX
WE-TVS_SOT23-6L
$EndINDEX
$MODULE WE-TVS_SOT23-6L
Po 0 0 0 15 00000000 00000000 ~~
Li WE-TVS_SOT23-6L
Cd TVS Diode Array WE-TVS
Sc 00000000
At SMD
Op 0 0 0
.SolderMask 0
.SolderPaste 0
T0 -2.45686 0.35581 0.480012 0.480012 900 0.05 N V 21 "WE-TVS_SOT23-6L"
T1 2.29738 0.321025 0.480036 0.480036 900 0.05 N V 21 "VAL**"
DS -1.45 0.8 1.45 0.8 0.127 27
DS 1.45 -0.8 -1.45 -0.8 0.127 27
DC -1.21 0.57 -1.19 0.57 0.127 21
DP 0 0 0 0 4 0 27
Dl -1.20154 -1.5
Dl -0.7 -1.5
Dl -0.7 -0.851091
Dl -1.20154 -0.851091
DP 0 0 0 0 4 0 27
Dl 0.705815 -1.5
Dl 1.205 -1.5
Dl 1.205 -0.850983
Dl 0.705815 -0.850983
DP 0 0 0 0 4 0 27
Dl -0.260399 -1.4873
Dl 0.2398 -1.4873
Dl 0.2398 -0.837941
Dl -0.260399 -0.837941
DP 0 0 0 0 4 0 27
Dl -0.247613 0.8368
Dl 0.2525 0.8368
Dl 0.2525 1.48748
Dl -0.247613 1.48748
DP 0 0 0 0 4 0 27
Dl 0.705072 0.8241
Dl 1.205 0.8241
Dl 1.205 1.47425
Dl 0.705072 1.47425
DP 0 0 0 0 4 0 27
Dl -1.20116 0.8368
Dl -0.7 0.8368
Dl -0.7 1.48824
Dl -1.20116 1.48824
DP 0 0 0 0 4 0 27
Dl 0.70579 0.8368
Dl 1.205 0.8368
Dl 1.205 1.48847
Dl 0.70579 1.48847
DS -1.75 -2.25 1.75 -2.25 0.127 26
DS 1.75 -2.25 1.75 2.25 0.127 26
DS 1.75 2.25 -1.75 2.25 0.127 26
DS -1.75 2.25 -1.75 -2.25 0.127 26
T2 1.491260 1.641390 1 1 0 .05 N V 48 "3"
T2 1.492900 -1.202340 1 1 0 .05 N V 48 "4"
T2 -1.862380 -1.131450 1 1 0 .05 N V 48 "6"
$PAD
Sh "6" R 0.6 1.1 0 0 0
At SMD N 00888000
.SolderMask 0
.SolderPaste 0
Ne 0 ""
Po -0.95 -1.25
$EndPAD
$PAD
Sh "5" R 0.6 1.1 0 0 0
At SMD N 00888000
.SolderMask 0
.SolderPaste 0
Ne 0 ""
Po 0 -1.25
$EndPAD
$PAD
Sh "4" R 0.6 1.1 0 0 0
At SMD N 00888000
.SolderMask 0
.SolderPaste 0
Ne 0 ""
Po 0.95 -1.25
$EndPAD
$PAD
Sh "3" R 0.6 1.1 0 0 0
At SMD N 00888000
.SolderMask 0
.SolderPaste 0
Ne 0 ""
Po 0.95 1.25
$EndPAD
$PAD
Sh "1" R 0.6 1.1 0 0 0
At SMD N 00888000
.SolderMask 0
.SolderPaste 0
Ne 0 ""
Po -0.95 1.25
$EndPAD
$PAD
Sh "2" R 0.6 1.1 0 0 0
At SMD N 00888000
.SolderMask 0
.SolderPaste 0
Ne 0 ""
Po 0 1.25
$EndPAD
$EndMODULE WE-TVS_SOT23-6L
