PCBNEW-LibModule-V1  
# encoding utf-8
Units mm
$INDEX
SOP50P490X110-10N
$EndINDEX
$MODULE SOP50P490X110-10N
Po 0 0 0 15 00000000 00000000 ~~
Li SOP50P490X110-10N
Cd 
Sc 00000000
At SMD
Op 0 0 0
.SolderMask 0
.SolderPaste 0
T0 -0.40687 -3.02608 1.64189 1.64189 0 0.05 N V 21 "SOP50P490X110-10N"
T1 -0.534005 2.94978 1.64188 1.64188 0 0.05 N V 21 "VAL**"
DS -1.4986 -0.8382 -1.4986 -1.143 0.1524 27
DS -1.4986 -1.143 -2.4384 -1.143 0.1524 27
DS -2.4384 -1.143 -2.4384 -0.8382 0.1524 27
DS -2.4384 -0.8382 -1.4986 -0.8382 0.1524 27
DS -1.4986 -0.3556 -1.4986 -0.6604 0.1524 27
DS -1.4986 -0.6604 -2.4384 -0.6604 0.1524 27
DS -2.4384 -0.6604 -2.4384 -0.3556 0.1524 27
DS -2.4384 -0.3556 -1.4986 -0.3556 0.1524 27
DS -1.4986 0.1524 -1.4986 -0.1524 0.1524 27
DS -1.4986 -0.1524 -2.4384 -0.1524 0.1524 27
DS -2.4384 -0.1524 -2.4384 0.1524 0.1524 27
DS -2.4384 0.1524 -1.4986 0.1524 0.1524 27
DS -1.4986 0.6604 -1.4986 0.3556 0.1524 27
DS -1.4986 0.3556 -2.4384 0.3556 0.1524 27
DS -2.4384 0.3556 -2.4384 0.6604 0.1524 27
DS -2.4384 0.6604 -1.4986 0.6604 0.1524 27
DS -1.4986 1.143 -1.4986 0.8382 0.1524 27
DS -1.4986 0.8382 -2.4384 0.8382 0.1524 27
DS -2.4384 0.8382 -2.4384 1.143 0.1524 27
DS -2.4384 1.143 -1.4986 1.143 0.1524 27
DS 1.4986 0.8382 1.4986 1.143 0.1524 27
DS 1.4986 1.143 2.4384 1.143 0.1524 27
DS 2.4384 1.143 2.4384 0.8382 0.1524 27
DS 2.4384 0.8382 1.4986 0.8382 0.1524 27
DS 1.4986 0.3556 1.4986 0.6604 0.1524 27
DS 1.4986 0.6604 2.4384 0.6604 0.1524 27
DS 2.4384 0.6604 2.4384 0.3556 0.1524 27
DS 2.4384 0.3556 1.4986 0.3556 0.1524 27
DS 1.4986 -0.1524 1.4986 0.1524 0.1524 27
DS 1.4986 0.1524 2.4384 0.1524 0.1524 27
DS 2.4384 0.1524 2.4384 -0.1524 0.1524 27
DS 2.4384 -0.1524 1.4986 -0.1524 0.1524 27
DS 1.4986 -0.6604 1.4986 -0.3556 0.1524 27
DS 1.4986 -0.3556 2.4384 -0.3556 0.1524 27
DS 2.4384 -0.3556 2.4384 -0.6604 0.1524 27
DS 2.4384 -0.6604 1.4986 -0.6604 0.1524 27
DS 1.4986 -1.143 1.4986 -0.8382 0.1524 27
DS 1.4986 -0.8382 2.4384 -0.8382 0.1524 27
DS 2.4384 -0.8382 2.4384 -1.143 0.1524 27
DS 2.4384 -1.143 1.4986 -1.143 0.1524 27
DS -1.4986 1.4986 1.4986 1.4986 0.1524 27
DS 1.4986 1.4986 1.4986 -1.4986 0.1524 27
DS 1.4986 -1.4986 0.3048 -1.4986 0.1524 27
DS 0.3048 -1.4986 -0.3048 -1.4986 0.1524 27
DS -0.3048 -1.4986 -1.4986 -1.4986 0.1524 27
DS -1.4986 -1.4986 -1.4986 1.4986 0.1524 27
DA 0 -1.4986 -0.3048 -1.4986 -1800 0 27
T2 -2.873080 -1.169570 1 1 0 .05 N V 51 "*"
DS -1.4986 1.4986 1.4986 1.4986 0.1524 21
DS 1.4986 -1.4986 0.3048 -1.4986 0.1524 21
DS 0.3048 -1.4986 -0.3048 -1.4986 0.1524 21
DS -0.3048 -1.4986 -1.4986 -1.4986 0.1524 21
DA 0 -1.4986 -0.3048 -1.4986 -1800 0 21
DS 3.302 -1.1938 3.302 -0.8128 0.1524 21
DS 3.302 -0.8128 3.048 -0.8128 0.1524 21
DS 3.048 -0.8128 3.048 -1.1938 0.1524 21
T2 -2.875930 -1.170730 1 1 0 .05 N V 21 "*"
$PAD
Sh "1" R 1.4986 0.3048 0 0 0
At SMD N 00888000
.SolderMask 0
.SolderPaste 0
Ne 0 ""
Po -2.0574 -0.9906
$EndPAD
$PAD
Sh "2" R 1.4986 0.3048 0 0 0
At SMD N 00888000
.SolderMask 0
.SolderPaste 0
Ne 0 ""
Po -2.0574 -0.508
$EndPAD
$PAD
Sh "3" R 1.4986 0.3048 0 0 0
At SMD N 00888000
.SolderMask 0
.SolderPaste 0
Ne 0 ""
Po -2.0574 0
$EndPAD
$PAD
Sh "4" R 1.4986 0.3048 0 0 0
At SMD N 00888000
.SolderMask 0
.SolderPaste 0
Ne 0 ""
Po -2.0574 0.508
$EndPAD
$PAD
Sh "5" R 1.4986 0.3048 0 0 0
At SMD N 00888000
.SolderMask 0
.SolderPaste 0
Ne 0 ""
Po -2.0574 0.9906
$EndPAD
$PAD
Sh "6" R 1.4986 0.3048 0 0 0
At SMD N 00888000
.SolderMask 0
.SolderPaste 0
Ne 0 ""
Po 2.0574 0.9906
$EndPAD
$PAD
Sh "7" R 1.4986 0.3048 0 0 0
At SMD N 00888000
.SolderMask 0
.SolderPaste 0
Ne 0 ""
Po 2.0574 0.508
$EndPAD
$PAD
Sh "8" R 1.4986 0.3048 0 0 0
At SMD N 00888000
.SolderMask 0
.SolderPaste 0
Ne 0 ""
Po 2.0574 0
$EndPAD
$PAD
Sh "9" R 1.4986 0.3048 0 0 0
At SMD N 00888000
.SolderMask 0
.SolderPaste 0
Ne 0 ""
Po 2.0574 -0.508
$EndPAD
$PAD
Sh "10" R 1.4986 0.3048 0 0 0
At SMD N 00888000
.SolderMask 0
.SolderPaste 0
Ne 0 ""
Po 2.0574 -0.9906
$EndPAD
$EndMODULE SOP50P490X110-10N
