PCBNEW-LibModule-V1  
# encoding utf-8
Units mm
$INDEX
CUI_SJ-3523-SMT
$EndINDEX
$MODULE CUI_SJ-3523-SMT
Po 0 0 0 15 00000000 00000000 ~~
Li CUI_SJ-3523-SMT
Cd 
Sc 00000000
At SMD
Op 0 0 0
.SolderMask 0
.SolderPaste 0
T0 -0.56026 -5.93768 1.00045 1.00045 0 0.05 N V 21 "CUI_SJ-3523-SMT"
T1 -0.02503 5.974 1.00151 1.00151 0 0.05 N V 21 "VAL**"
DS -3.5 3 -3.5 2.5 0.127 21
DS -3.5 2.5 -3.5 -2.5 0.127 21
DS -3.5 -2.5 -3.5 -3 0.127 21
DS -3.5 3 -3.5 -3 0.127 27
DS -3.5 -3 11 -3 0.127 27
DS 11 -3 11 3 0.127 27
DS 11 3 -3.5 3 0.127 27
DS -3.5 -3 -0.4 -3 0.127 21
DS 2.2 -3 11 -3 0.127 21
DS 11 -3 11 3 0.127 21
DS -3.5 3 -2.4 3 0.127 21
DS 0.2 3 6.7 3 0.127 21
DS -3.75 -5.35 11.25 -5.35 0.05 26
DS 11.25 -5.35 11.25 5.35 0.05 26
DS 11.25 5.35 -3.75 5.35 0.05 26
DC -4.3 3.3 -4.2 3.3 0.2 21
DC -4.3 3.3 -4.2 3.3 0.2 27
DS 9.9 3 11 3 0.127 21
DS -3.5 -2.5 -6 -2.5 0.127 21
DS -6 -2.5 -6 2.5 0.127 21
DS -6 2.5 -3.5 2.5 0.127 21
DS -3.5 -2.5 -6 -2.5 0.127 27
DS -6 -2.5 -6 2.5 0.127 27
DS -6 2.5 -3.5 2.5 0.127 27
DS -3.75 -5.35 -3.75 -2.75 0.05 26
DS -3.75 -2.75 -6.25 -2.75 0.05 26
DS -6.25 -2.75 -6.25 2.75 0.05 26
DS -6.25 2.75 -3.75 2.75 0.05 26
DS -3.75 2.75 -3.75 5.35 0.05 26
$PAD
Sh "Hole" C 1.7 1.7 0 0 0
Dr 1.7 0 0
At HOLE N 00E0FFFF
Po 0 0
$EndPAD
$PAD
Sh "3" R 2.2 2.8 0 0 0
At SMD N 00888000
.SolderMask 0
.SolderPaste 0
Ne 0 ""
Po 0.9 -3.7
$EndPAD
$PAD
Sh "1" R 2.2 2.8 0 0 0
At SMD N 00888000
.SolderMask 0
.SolderPaste 0
Ne 0 ""
Po -1.1 3.7
$EndPAD
$PAD
Sh "2" R 2.8 2.8 0 0 0
At SMD N 00888000
.SolderMask 0
.SolderPaste 0
Ne 0 ""
Po 8.3 3.7
$EndPAD
$PAD
Sh "Hole" C 1.7 1.7 0 0 0
Dr 1.7 0 0
At HOLE N 00E0FFFF
Po 7 0
$EndPAD
$EndMODULE CUI_SJ-3523-SMT
