PCBNEW-LibModule-V1  
# encoding utf-8
Units mm
$INDEX
CUI_SJ-2523-SMT
$EndINDEX
$MODULE CUI_SJ-2523-SMT
Po 0 0 0 15 00000000 00000000 ~~
Li CUI_SJ-2523-SMT
Cd 
Sc 00000000
At SMD
Op 0 0 0
.SolderMask 0
.SolderPaste 0
T0 -0.56033 -5.83832 1.00057 1.00057 0 0.05 N V 21 "CUI_SJ-2523-SMT"
T1 -0.025035 5.77187 1.00119 1.00119 0 0.05 N V 21 "VAL**"
DS -3 2.5 -3 2 0.127 21
DS -3 2 -3 -2 0.127 21
DS -3 -2 -3 -2.5 0.127 21
DS -3 2.5 -3 -2.5 0.127 27
DS -3 -2.5 9 -2.5 0.127 27
DS 9 -2.5 9 2.5 0.127 27
DS 9 2.5 -3 2.5 0.127 27
DS -3 -2.5 0 -2.5 0.127 21
DS 2.8 -2.5 9 -2.5 0.127 21
DS 9 -2.5 9 2 0.127 21
DS -3 2.5 -2.7 2.5 0.127 21
DS 0.1 2.5 7 2.5 0.127 21
DS 9.85 -2.75 9.85 4.95 0.05 26
DS 9.85 4.95 -3.25 4.95 0.05 26
DC -3.7 3.2 -3.6 3.2 0.2 21
DC -3.7 3.2 -3.6 3.2 0.2 27
DS -3 -2 -4.5 -2 0.127 21
DS -4.5 -2 -4.5 2 0.127 21
DS -4.5 2 -3 2 0.127 21
DS -3 -2 -4.5 -2 0.127 27
DS -4.5 -2 -4.5 2 0.127 27
DS -4.5 2 -3 2 0.127 27
DS -3.25 -2.75 -3.25 -2.25 0.05 26
DS -3.25 -2.25 -4.75 -2.25 0.05 26
DS -4.75 -2.25 -4.75 2.25 0.05 26
DS -4.75 2.25 -3.25 2.25 0.05 26
DS -3.25 2.25 -3.25 4.95 0.05 26
DS -3.25 -2.75 -0.05 -2.75 0.05 26
DS -0.05 -2.75 -0.05 -4.95 0.05 26
DS -0.05 -4.95 2.85 -4.95 0.05 26
DS 2.85 -4.95 2.85 -2.75 0.05 26
DS 2.85 -2.75 9.85 -2.75 0.05 26
$PAD
Sh "Hole" C 1 1 0 0 0
Dr 1 0 0
At HOLE N 00E0FFFF
Po 0 0
$EndPAD
$PAD
Sh "3" R 2.4 2.8 0 0 0
At SMD N 00888000
.SolderMask 0
.SolderPaste 0
Ne 0 ""
Po 1.4 -3.3
$EndPAD
$PAD
Sh "1" R 2.4 2.8 0 0 0
At SMD N 00888000
.SolderMask 0
.SolderPaste 0
Ne 0 ""
Po -1.3 3.3
$EndPAD
$PAD
Sh "2" R 2.4 2.5 0 0 0
At SMD N 00888000
.SolderMask 0
.SolderPaste 0
Ne 0 ""
Po 8.4 3.45
$EndPAD
$PAD
Sh "Hole" C 1 1 0 0 0
Dr 1 0 0
At HOLE N 00E0FFFF
Po 6 0
$EndPAD
$EndMODULE CUI_SJ-2523-SMT
