PCBNEW-LibModule-V1  
# encoding utf-8
Units mm
$INDEX
CUI_MJ-3523-SMT
$EndINDEX
$MODULE CUI_MJ-3523-SMT
Po 0 0 0 15 00000000 00000000 ~~
Li CUI_MJ-3523-SMT
Cd 
Sc 00000000
At SMD
Op 0 0 0
.SolderMask 0
.SolderPaste 0
T0 -4.46841 -6.39703 1.00188 1.00188 0 0.05 N V 21 "CUI_MJ-3523-SMT"
T1 -3.79738 4.23764 1.00062 1.00062 0 0.05 N V 21 "VAL**"
DS 7.25 -3 7.25 -2.5 0.127 27
DS 7.25 -2.5 7.25 2.5 0.127 27
DS 7.25 2.5 7.25 3 0.127 27
DS 7.25 3 -7.25 3 0.127 27
DS -7.25 3 -7.25 -3 0.127 27
DS -7.25 -3 7.25 -3 0.127 27
DS 7.25 -2.5 9.75 -2.5 0.127 27
DS 9.75 -2.5 9.75 2.5 0.127 27
DS 9.75 2.5 7.25 2.5 0.127 27
DS -6.25 -3 -7.25 -3 0.127 21
DS -7.25 -3 -7.25 -1.05 0.127 21
DS -7.25 2.5 -7.25 3 0.127 21
DS -7.25 3 7.25 3 0.127 21
DS 7.25 3 7.25 2.5 0.127 21
DS 7.25 2.5 7.25 -2.5 0.127 21
DS 7.25 -2.5 7.25 -3 0.127 21
DS 7.25 -3 6.25 -3 0.127 21
DS 3.4 -3 -2.75 -3 0.127 21
DS 7.25 -2.5 9.75 -2.5 0.127 21
DS 9.75 -2.5 9.75 2.5 0.127 21
DS 9.75 2.5 7.25 2.5 0.127 21
DS -7.5 -3.25 -6.25 -3.25 0.05 26
DS -6.25 -3.25 -6.25 -5.35 0.05 26
DS -6.25 -5.35 -2.9 -5.35 0.05 26
DS -2.9 -5.35 -2.9 -3.25 0.05 26
DS -2.9 -3.25 3.5 -3.25 0.05 26
DS 3.5 -3.25 3.5 -5.35 0.05 26
DS 3.5 -5.35 6.25 -5.35 0.05 26
DS 6.25 -5.35 6.25 -3.25 0.05 26
DS 6.25 -3.25 7.5 -3.25 0.05 26
DS 7.5 -3.25 7.5 -2.75 0.05 26
DS 7.5 -2.75 10 -2.75 0.05 26
DS 10 -2.75 10 2.75 0.05 26
DS 10 2.75 7.5 2.75 0.05 26
DS 7.5 2.75 7.5 3.25 0.05 26
DS 7.5 3.25 -7.5 3.25 0.05 26
DS -7.5 3.25 -7.5 2.4 0.05 26
DS -7.5 2.4 -10.25 2.4 0.05 26
DS -10.25 2.4 -10.25 -0.9 0.05 26
DS -10.25 -0.9 -7.5 -0.9 0.05 26
DS -7.5 -0.9 -7.5 -3.25 0.05 26
DC 3 -4 3.2 -4 0.4 21
DC 4.75 -4.25 4.95 -4.25 0.4 27
$PAD
Sh "1" R 2.8 2.2 0 0 900
At SMD N 00888000
.SolderMask 0
.SolderPaste 0
Ne 0 ""
Po 4.85 -3.7
$EndPAD
$PAD
Sh "2" R 2.8 2.8 0 0 900
At SMD N 00888000
.SolderMask 0
.SolderPaste 0
Ne 0 ""
Po -4.55 -3.7
$EndPAD
$PAD
Sh "10" R 2.8 2.8 0 0 900
At SMD N 00888000
.SolderMask 0
.SolderPaste 0
Ne 0 ""
Po -8.65 0.75
$EndPAD
$PAD
Sh "Hole" C 1.7 1.7 0 0 0
Dr 1.7 0 0
At HOLE N 00E0FFFF
Po 3.75 0
$EndPAD
$PAD
Sh "Hole" C 1.7 1.7 0 0 0
Dr 1.7 0 0
At HOLE N 00E0FFFF
Po -3.25 0
$EndPAD
$EndMODULE CUI_MJ-3523-SMT
