"Source:","C:\Users\Manuel\Nextcloud\Projekte\kicad\midi-biodata-esp32\midi-biodata-esp32\midi-biodata-esp32.sch"
"Date:","16.09.2019 17:04:32"
"Tool:","Eeschema (5.1.4)-1"
"Generator:","C:\Program Files\KiCad\bin\scripting\plugins/bom_csv_grouped_by_value.py"
"Component Count:","73"

"Individual Components:"

"Item","Qty","Reference(s)","Value","LibPart","Footprint","Datasheet"
"","","C1","10uF","Device:C","Capacitor_SMD:C_0805_2012Metric","~"
"","","C2","0.1uF","Device:C","Capacitor_SMD:C_0805_2012Metric","~"
"","","C3","22pF","Device:C","Capacitor_SMD:C_0603_1608Metric","~"
"","","C4","22pF","Device:C","Capacitor_SMD:C_0603_1608Metric","~"
"","","C5","1uF","Device:C","Capacitor_SMD:C_0603_1608Metric","~"
"","","C6","10uF","Device:C","Capacitor_SMD:C_0805_2012Metric","~"
"","","C7","0.1uF","Device:C","Capacitor_SMD:C_0603_1608Metric","~"
"","","C8","0.1uF","Device:C","Capacitor_SMD:C_0603_1608Metric","~"
"","","C9","10uF","Device:C","Capacitor_SMD:C_0805_2012Metric","~"
"","","C10","10uF","Device:C","Capacitor_SMD:C_0805_2012Metric","~"
"","","C11","1uF","Device:C","Capacitor_SMD:C_0603_1608Metric","~"
"","","C12","100nF","Device:C","Capacitor_SMD:C_0603_1608Metric","~"
"","","C13","4200pF","Device:C","Capacitor_SMD:C_0603_1608Metric","~"
"","","C14","47uF","Device:C","Capacitor_SMD:CP_Elec_6.3x5.4_Nichicon","~"
"","","C15","0.1uF","Device:C","Capacitor_SMD:C_0603_1608Metric","~"
"","","D1","MBR120","Diode:MBR0520","Diode_SMD:D_SOD-123","http://www.mccsemi.com/up_pdf/MBR0520~MBR0580(SOD123).pdf"
"","","D2","1N4148","Diode:1N4148","Diode_SMD:D_SOD-123","https://assets.nexperia.com/documents/data-sheet/1N4148_1N4448.pdf"
"","","D3","1N4148","Diode:1N4148","Diode_SMD:D_SOD-123","https://assets.nexperia.com/documents/data-sheet/1N4148_1N4448.pdf"
"","","D4","LED_ALT","Device:LED_ALT","Diode_SMD:D_1206_3216Metric","~"
"","","D5","LED_ALT","Device:LED_ALT","Diode_SMD:D_1206_3216Metric","~"
"","","D6","LED_ALT","Device:LED_ALT","Diode_SMD:D_1206_3216Metric","~"
"","","D7","LED_ALT","Device:LED_ALT","Diode_SMD:D_1206_3216Metric","~"
"","","D8","LED_ALT","Device:LED_ALT","Diode_SMD:D_1206_3216Metric","~"
"","","D9","LED_ALT","Device:LED_ALT","Diode_SMD:D_1206_3216Metric","~"
"","","D10","LED_ALT","Device:LED_ALT","Diode_SMD:D_1206_3216Metric","~"
"","","D11","LED_ALT","Device:LED_ALT","Diode_SMD:D_1206_3216Metric","~"
"","","D12","LED_ALT","Device:LED_ALT","Diode_SMD:D_1206_3216Metric","~"
"","","J1","USB_B_Micro","Connector:USB_B_Micro","Connector_USB:USB_Micro-B_Molex_47346-0001","~"
"","","J2","AVR-ISP-6","Connector:AVR-ISP-6","Connector_PinHeader_2.54mm:PinHeader_2x03_P2.54mm_Vertical"," ~"
"","","J3","AudioJack2","Connector:AudioJack2","MJ-3523-SMT:CUI_MJ-3523-SMT","~"
"","","JP1","Jumper","Jumper:Jumper_2_Open","Jumper:SolderJumper-2_P1.3mm_Open_Pad1.0x1.5mm","~"
"","","P1","USB_C_Plug_USB2.0","Connector:USB_C_Plug_USB2.0","Connector_USB:USB_C_Receptacle_Amphenol_12401610E4-2A","https://www.usb.org/sites/default/files/documents/usb_type-c.zip"
"","","Q1","DMP2045","Transistor_FET:IRLML6402","Package_TO_SOT_SMD:SOT-23","https://www.infineon.com/dgdl/irlml6402pbf.pdf?fileId=5546d462533600a401535668d5c2263c"
"","","Q3","DMP2045","Transistor_FET:IRLML6402","Package_TO_SOT_SMD:SOT-23","https://www.infineon.com/dgdl/irlml6402pbf.pdf?fileId=5546d462533600a401535668d5c2263c"
"","","Q4","S8050","Transistor_BJT:S8050","Package_TO_SOT_SMD:SOT-23","http://www.unisonic.com.tw/datasheet/S8050.pdf"
"","","Q5","S8050","Transistor_BJT:S8050","Package_TO_SOT_SMD:SOT-23","http://www.unisonic.com.tw/datasheet/S8050.pdf"
"","","R1","100K","Device:R","Resistor_SMD:R_0603_1608Metric","~"
"","","R2","100K","Device:R","Resistor_SMD:R_0603_1608Metric","~"
"","","R3","22R","Device:R_Small","Resistor_SMD:R_0603_1608Metric","~"
"","","R4","22R","Device:R_Small","Resistor_SMD:R_0603_1608Metric","~"
"","","R5","10K","Device:R","Resistor_SMD:R_0603_1608Metric","~"
"","","R6","10K","Device:R","Resistor_SMD:R_0603_1608Metric","~"
"","","R7","1K","Device:R_Small","Resistor_SMD:R_0603_1608Metric","~"
"","","R8","1K","Device:R_Small","Resistor_SMD:R_0603_1608Metric","~"
"","","R9","100K","Device:R","Resistor_SMD:R_0603_1608Metric","~"
"","","R10","10K","Device:R","Resistor_SMD:R_0603_1608Metric","~"
"","","R11","10K","Device:R","Resistor_SMD:R_0603_1608Metric","~"
"","","R12","1.2K","Device:R","Resistor_SMD:R_0603_1608Metric","~"
"","","R13","1.2K","Device:R","Resistor_SMD:R_0603_1608Metric","~"
"","","R14","1.2K","Device:R","Resistor_SMD:R_0603_1608Metric","~"
"","","R21","10R","Device:R","Resistor_SMD:R_0603_1608Metric","~"
"","","R22","12K","Device:R","Resistor_SMD:R_0603_1608Metric","~"
"","","R23","470R","Device:R","Resistor_SMD:R_0603_1608Metric","~"
"","","R24","100K","Device:R","Resistor_SMD:R_0603_1608Metric","~"
"","","R25","12K","Device:R","Resistor_SMD:R_0603_1608Metric","~"
"","","R26","12K","Device:R","Resistor_SMD:R_0603_1608Metric","~"
"","","R27","100R","Device:R","Resistor_SMD:R_0603_1608Metric","~"
"","","R28","12K","Device:R","Resistor_SMD:R_0603_1608Metric","~"
"","","R29","470R","Device:R","Resistor_SMD:R_0603_1608Metric","~"
"","","RN1","R_Pack04","Device:R_Pack04","Resistor_SMD:R_Array_Concave_4x0603","~"
"","","RN2","R_Pack04","Device:R_Pack04","Resistor_SMD:R_Array_Concave_4x0603","~"
"","","RV1","10K","Device:R_POT","pkl_misc:Potentiometer_Bourns_3352T_Horizontal","~"
"","","SW1","SW_Push","Switch:SW_Push","Button_Switch_THT:SW_Tactile_SPST_Angled_PTS645Vx39-2LFS","~"
"","","SW2","SW_Push","Switch:SW_Push","Button_Switch_SMD:SW_Push_1P1T_NO_6x6mm_H9.5mm",""
"","","SW3","SW_Push","Switch:SW_Push","Button_Switch_SMD:SW_Push_1P1T_NO_6x6mm_H9.5mm",""
"","","U1","AP2112K-3.3","Regulator_Linear:AP2112K-3.3","Package_TO_SOT_SMD:SOT-23-5","https://www.diodes.com/assets/Datasheets/AP2112.pdf"
"","","U2","AP7361C-33E","Regulator_Linear:AP7361C-33E","Package_DFN_QFN:DFN-8-1EP_3x3mm_P0.65mm_EP1.7x2.05mm","https://www.diodes.com/assets/Datasheets/AP7361C.pdf"
"","","U3","ATmega16U2-MU","MCU_Microchip_ATmega:ATmega16U2-MU","Package_DFN_QFN:QFN-32-1EP_5x5mm_P0.5mm_EP3.1x3.1mm","http://ww1.microchip.com/downloads/en/DeviceDoc/doc7799.pdf"
"","","U4","TP4056","tp4056:TP4056","Package_SO:SOIC-8-1EP_3.9x4.9mm_P1.27mm_EP2.29x3mm_ThermalVias",""
"","","U5","ESP32-WROOM-32","RF_Module:ESP32-WROOM-32","RF_Module:ESP32-WROOM-32","https://www.espressif.com/sites/default/files/documentation/esp32-wroom-32_datasheet_en.pdf"
"","","U6","LM555","Timer:LM555","Package_SO:SOIC-8_3.9x4.9mm_P1.27mm","http://www.ti.com/lit/ds/symlink/lm555.pdf"
"","","Y1","Crystal","Device:Crystal","Crystal:Crystal_HC49-U_Vertical","~"
"","","Y2","Resonator","Device:Resonator","Crystal:Resonator_SMD_muRata_CSTxExxV-3Pin_3.0x1.1mm","~"



"Collated Components:"

"Item","Qty","Reference(s)","Value","LibPart","Footprint","Datasheet"
"1","4","C1, C6, C9, C10","10uF","Device:C","Capacitor_SMD:C_0805_2012Metric","~"
"2","1","C2","0.1uF","Device:C","Capacitor_SMD:C_0805_2012Metric","~"
"3","2","C3, C4","22pF","Device:C","Capacitor_SMD:C_0603_1608Metric","~"
"4","2","C5, C11","1uF","Device:C","Capacitor_SMD:C_0603_1608Metric","~"
"5","3","C7, C8, C15","0.1uF","Device:C","Capacitor_SMD:C_0603_1608Metric","~"
"6","1","C12","100nF","Device:C","Capacitor_SMD:C_0603_1608Metric","~"
"7","1","C13","4200pF","Device:C","Capacitor_SMD:C_0603_1608Metric","~"
"8","1","C14","47uF","Device:C","Capacitor_SMD:CP_Elec_6.3x5.4_Nichicon","~"
"9","1","D1","MBR120","Diode:MBR0520","Diode_SMD:D_SOD-123","http://www.mccsemi.com/up_pdf/MBR0520~MBR0580(SOD123).pdf"
"10","2","D2, D3","1N4148","Diode:1N4148","Diode_SMD:D_SOD-123","https://assets.nexperia.com/documents/data-sheet/1N4148_1N4448.pdf"
"11","9","D4, D5, D6, D7, D8, D9, D10, D11, D12","LED_ALT","Device:LED_ALT","Diode_SMD:D_1206_3216Metric","~"
"12","1","J1","USB_B_Micro","Connector:USB_B_Micro","Connector_USB:USB_Micro-B_Molex_47346-0001","~"
"13","1","J2","AVR-ISP-6","Connector:AVR-ISP-6","Connector_PinHeader_2.54mm:PinHeader_2x03_P2.54mm_Vertical"," ~"
"14","1","J3","AudioJack2","Connector:AudioJack2","MJ-3523-SMT:CUI_MJ-3523-SMT","~"
"15","1","JP1","Jumper","Jumper:Jumper_2_Open","Jumper:SolderJumper-2_P1.3mm_Open_Pad1.0x1.5mm","~"
"16","1","P1","USB_C_Plug_USB2.0","Connector:USB_C_Plug_USB2.0","Connector_USB:USB_C_Receptacle_Amphenol_12401610E4-2A","https://www.usb.org/sites/default/files/documents/usb_type-c.zip"
"17","2","Q1, Q3","DMP2045","Transistor_FET:IRLML6402","Package_TO_SOT_SMD:SOT-23","https://www.infineon.com/dgdl/irlml6402pbf.pdf?fileId=5546d462533600a401535668d5c2263c"
"18","2","Q4, Q5","S8050","Transistor_BJT:S8050","Package_TO_SOT_SMD:SOT-23","http://www.unisonic.com.tw/datasheet/S8050.pdf"
"19","4","R1, R2, R9, R24","100K","Device:R","Resistor_SMD:R_0603_1608Metric","~"
"20","2","R3, R4","22R","Device:R_Small","Resistor_SMD:R_0603_1608Metric","~"
"21","4","R5, R6, R10, R11","10K","Device:R","Resistor_SMD:R_0603_1608Metric","~"
"22","2","R7, R8","1K","Device:R_Small","Resistor_SMD:R_0603_1608Metric","~"
"23","3","R12, R13, R14","1.2K","Device:R","Resistor_SMD:R_0603_1608Metric","~"
"24","1","R21","10R","Device:R","Resistor_SMD:R_0603_1608Metric","~"
"25","4","R22, R25, R26, R28","12K","Device:R","Resistor_SMD:R_0603_1608Metric","~"
"26","2","R23, R29","470R","Device:R","Resistor_SMD:R_0603_1608Metric","~"
"27","1","R27","100R","Device:R","Resistor_SMD:R_0603_1608Metric","~"
"28","2","RN1, RN2","R_Pack04","Device:R_Pack04","Resistor_SMD:R_Array_Concave_4x0603","~"
"29","1","RV1","10K","Device:R_POT","pkl_misc:Potentiometer_Bourns_3352T_Horizontal","~"
"30","1","SW1","SW_Push","Switch:SW_Push","Button_Switch_THT:SW_Tactile_SPST_Angled_PTS645Vx39-2LFS","~"
"31","2","SW2, SW3","SW_Push","Switch:SW_Push","Button_Switch_SMD:SW_Push_1P1T_NO_6x6mm_H9.5mm",""
"32","1","U1","AP2112K-3.3","Regulator_Linear:AP2112K-3.3","Package_TO_SOT_SMD:SOT-23-5","https://www.diodes.com/assets/Datasheets/AP2112.pdf"
"33","1","U2","AP7361C-33E","Regulator_Linear:AP7361C-33E","Package_DFN_QFN:DFN-8-1EP_3x3mm_P0.65mm_EP1.7x2.05mm","https://www.diodes.com/assets/Datasheets/AP7361C.pdf"
"34","1","U3","ATmega16U2-MU","MCU_Microchip_ATmega:ATmega16U2-MU","Package_DFN_QFN:QFN-32-1EP_5x5mm_P0.5mm_EP3.1x3.1mm","http://ww1.microchip.com/downloads/en/DeviceDoc/doc7799.pdf"
"35","1","U4","TP4056","tp4056:TP4056","Package_SO:SOIC-8-1EP_3.9x4.9mm_P1.27mm_EP2.29x3mm_ThermalVias",""
"36","1","U5","ESP32-WROOM-32","RF_Module:ESP32-WROOM-32","RF_Module:ESP32-WROOM-32","https://www.espressif.com/sites/default/files/documentation/esp32-wroom-32_datasheet_en.pdf"
"37","1","U6","LM555","Timer:LM555","Package_SO:SOIC-8_3.9x4.9mm_P1.27mm","http://www.ti.com/lit/ds/symlink/lm555.pdf"
"38","1","Y1","Crystal","Device:Crystal","Crystal:Crystal_HC49-U_Vertical","~"
"39","1","Y2","Resonator","Device:Resonator","Crystal:Resonator_SMD_muRata_CSTxExxV-3Pin_3.0x1.1mm","~"
