EESchema Schematic File Version 4
EELAYER 30 0
EELAYER END
$Descr A4 11693 8268
encoding utf-8
Sheet 1 1
Title "PlantWave"
Date "2019-10-02"
Rev "6"
Comp "13-37.org electronics"
Comment1 ""
Comment2 ""
Comment3 ""
Comment4 ""
$EndDescr
$Comp
L power:GND #PWR030
U 1 1 5D7810EE
P 5350 6450
F 0 "#PWR030" H 5350 6200 50  0001 C CNN
F 1 "GND" H 5355 6277 50  0000 C CNN
F 2 "" H 5350 6450 50  0001 C CNN
F 3 "" H 5350 6450 50  0001 C CNN
	1    5350 6450
	1    0    0    -1  
$EndComp
$Comp
L Device:C C14
U 1 1 5D7821DB
P 5900 6350
F 0 "C14" H 5800 6450 50  0000 L CNN
F 1 "10uF" H 5700 6250 50  0000 L CNN
F 2 "Capacitor_SMD:C_0805_2012Metric" H 5938 6200 50  0001 C CNN
F 3 "~" H 5900 6350 50  0001 C CNN
	1    5900 6350
	0    1    1    0   
$EndComp
$Comp
L Device:C C15
U 1 1 5D782780
P 5900 6600
F 0 "C15" H 5800 6700 50  0000 L CNN
F 1 "0.1uF" H 5900 6500 50  0000 L CNN
F 2 "Capacitor_SMD:C_0603_1608Metric" H 5938 6450 50  0001 C CNN
F 3 "~" H 5900 6600 50  0001 C CNN
	1    5900 6600
	0    1    1    0   
$EndComp
$Comp
L power:GND #PWR034
U 1 1 5D78AD2F
P 6050 6600
F 0 "#PWR034" H 6050 6350 50  0001 C CNN
F 1 "GND" H 6055 6427 50  0000 C CNN
F 2 "" H 6050 6600 50  0001 C CNN
F 3 "" H 6050 6600 50  0001 C CNN
	1    6050 6600
	0    -1   -1   0   
$EndComp
$Comp
L power:GND #PWR033
U 1 1 5D78B1D3
P 6050 6350
F 0 "#PWR033" H 6050 6100 50  0001 C CNN
F 1 "GND" H 6055 6177 50  0000 C CNN
F 2 "" H 6050 6350 50  0001 C CNN
F 3 "" H 6050 6350 50  0001 C CNN
	1    6050 6350
	0    -1   -1   0   
$EndComp
Connection ~ 5750 6350
Wire Wire Line
	5750 6350 5750 6600
$Comp
L power:+3.3V #PWR031
U 1 1 5D78B873
P 5750 6750
F 0 "#PWR031" H 5750 6600 50  0001 C CNN
F 1 "+3.3V" V 5765 6878 50  0000 L CNN
F 2 "" H 5750 6750 50  0001 C CNN
F 3 "" H 5750 6750 50  0001 C CNN
	1    5750 6750
	-1   0    0    1   
$EndComp
$Comp
L Diode:1N4148 D7
U 1 1 5D78E4D4
P 4550 6550
F 0 "D7" H 4550 6450 50  0000 C CNN
F 1 "1N4148" H 4550 6650 50  0000 C CNN
F 2 "Diode_SMD:D_SOD-523" H 4550 6375 50  0001 C CNN
F 3 "https://assets.nexperia.com/documents/data-sheet/1N4148_1N4448.pdf" H 4550 6550 50  0001 C CNN
	1    4550 6550
	-1   0    0    1   
$EndComp
Connection ~ 5750 6600
Wire Wire Line
	5750 6600 5750 6750
Wire Wire Line
	4700 6550 4700 6300
$Comp
L Diode:1N4148 D8
U 1 1 5D793CA5
P 5200 6900
F 0 "D8" H 5300 6950 50  0000 C CNN
F 1 "1N4148" H 5000 6900 50  0000 C CNN
F 2 "Diode_SMD:D_SOD-523" H 5200 6725 50  0001 C CNN
F 3 "https://assets.nexperia.com/documents/data-sheet/1N4148_1N4448.pdf" H 5200 6900 50  0001 C CNN
	1    5200 6900
	1    0    0    -1  
$EndComp
Wire Wire Line
	5050 6550 5050 6900
Text GLabel 5350 6900 2    50   Input ~ 0
LATCH
$Comp
L Device:R R14
U 1 1 5D79545A
P 5150 7300
F 0 "R14" V 5250 7300 50  0000 C CNN
F 1 "10K" V 5150 7300 50  0000 C CNN
F 2 "Resistor_SMD:R_0603_1608Metric" V 5080 7300 50  0001 C CNN
F 3 "~" H 5150 7300 50  0001 C CNN
	1    5150 7300
	0    1    1    0   
$EndComp
Text GLabel 5350 7300 2    50   Input ~ 0
SENSE
Wire Wire Line
	5050 6550 4700 6550
Text Label 4700 6400 0    50   ~ 0
EN_PWR
$Comp
L Transistor_BJT:S8050 Q2
U 1 1 5D81EE68
P 5200 4500
F 0 "Q2" H 5391 4546 50  0000 L CNN
F 1 "S8050" H 5391 4455 50  0000 L CNN
F 2 "midi-biodata-esp32_rev2:SOT-23-S8050" H 5400 4425 50  0001 L CIN
F 3 "http://www.unisonic.com.tw/datasheet/S8050.pdf" H 5200 4500 50  0001 L CNN
	1    5200 4500
	1    0    0    1   
$EndComp
$Comp
L Transistor_BJT:S8050 Q1
U 1 1 5D8386F6
P 5200 3900
F 0 "Q1" H 5391 3854 50  0000 L CNN
F 1 "S8050" H 5391 3945 50  0000 L CNN
F 2 "midi-biodata-esp32_rev2:SOT-23-S8050" H 5400 3825 50  0001 L CIN
F 3 "http://www.unisonic.com.tw/datasheet/S8050.pdf" H 5200 3900 50  0001 L CNN
	1    5200 3900
	1    0    0    -1  
$EndComp
Text GLabel 5300 4900 2    50   Input ~ 0
EN_ESP32
Text GLabel 5300 3600 2    50   Input ~ 0
IO0
$Comp
L Device:R R12
U 1 1 5D852021
P 4850 4500
F 0 "R12" V 4643 4500 50  0000 C CNN
F 1 "12K" V 4734 4500 50  0000 C CNN
F 2 "Resistor_SMD:R_0603_1608Metric" V 4780 4500 50  0001 C CNN
F 3 "~" H 4850 4500 50  0001 C CNN
	1    4850 4500
	0    -1   -1   0   
$EndComp
$Comp
L Device:R R11
U 1 1 5D852185
P 4850 3900
F 0 "R11" V 4643 3900 50  0000 C CNN
F 1 "12K" V 4734 3900 50  0000 C CNN
F 2 "Resistor_SMD:R_0603_1608Metric" V 4780 3900 50  0001 C CNN
F 3 "~" H 4850 3900 50  0001 C CNN
	1    4850 3900
	0    -1   -1   0   
$EndComp
Text GLabel 4700 4500 0    50   Input ~ 0
DTR
Text GLabel 4700 3900 0    50   Input ~ 0
RTS
Wire Wire Line
	4700 3900 4700 4050
Wire Wire Line
	4700 4050 5050 4050
Wire Wire Line
	5050 4050 5050 4300
Wire Wire Line
	5050 4300 5300 4300
Wire Wire Line
	5300 4100 5200 4100
Wire Wire Line
	5200 4100 5200 4200
Wire Wire Line
	5200 4200 4700 4200
Wire Wire Line
	4700 4200 4700 4500
$Comp
L power:+3V3 #PWR026
U 1 1 5D862F02
P 4700 3600
F 0 "#PWR026" H 4700 3450 50  0001 C CNN
F 1 "+3V3" H 4715 3773 50  0000 C CNN
F 2 "" H 4700 3600 50  0001 C CNN
F 3 "" H 4700 3600 50  0001 C CNN
	1    4700 3600
	0    -1   -1   0   
$EndComp
$Comp
L Device:R R10
U 1 1 5D8630E4
P 4850 3600
F 0 "R10" H 4920 3646 50  0000 L CNN
F 1 "12K" H 4920 3555 50  0000 L CNN
F 2 "Resistor_SMD:R_0603_1608Metric" V 4780 3600 50  0001 C CNN
F 3 "~" H 4850 3600 50  0001 C CNN
	1    4850 3600
	0    1    1    0   
$EndComp
$Comp
L Device:R R13
U 1 1 5D8632CF
P 4850 4900
F 0 "R13" H 4920 4946 50  0000 L CNN
F 1 "12K" H 4920 4855 50  0000 L CNN
F 2 "Resistor_SMD:R_0603_1608Metric" V 4780 4900 50  0001 C CNN
F 3 "~" H 4850 4900 50  0001 C CNN
	1    4850 4900
	0    -1   -1   0   
$EndComp
$Comp
L Connector:Conn_01x02_Male J4
U 1 1 5E12EF4F
P 7550 900
F 0 "J4" H 7658 1081 50  0000 C CNN
F 1 "Conn_01x02_Male" H 7658 990 50  0000 C CNN
F 2 "Connector_JST:JST_PH_S2B-PH-K_1x02_P2.00mm_Horizontal" H 7550 900 50  0001 C CNN
F 3 "~" H 7550 900 50  0001 C CNN
	1    7550 900 
	1    0    0    -1  
$EndComp
$Comp
L power:+BATT #PWR039
U 1 1 5E12FECE
P 7750 900
F 0 "#PWR039" H 7750 750 50  0001 C CNN
F 1 "+BATT" V 7765 1028 50  0000 L CNN
F 2 "" H 7750 900 50  0001 C CNN
F 3 "" H 7750 900 50  0001 C CNN
	1    7750 900 
	0    1    1    0   
$EndComp
$Comp
L power:GND #PWR040
U 1 1 5E130C47
P 7750 1000
F 0 "#PWR040" H 7750 750 50  0001 C CNN
F 1 "GND" V 7755 872 50  0000 R CNN
F 2 "" H 7750 1000 50  0001 C CNN
F 3 "" H 7750 1000 50  0001 C CNN
	1    7750 1000
	0    -1   -1   0   
$EndComp
Wire Wire Line
	5000 7300 4350 7300
Wire Wire Line
	5750 6150 5750 6350
Wire Notes Line
	4350 600  4350 3100
Wire Notes Line
	8450 600  4500 600 
Wire Notes Line
	8450 3100 8450 600 
Wire Notes Line
	4500 3100 8450 3100
Wire Wire Line
	7000 2100 7150 2100
Wire Wire Line
	7150 2000 7200 2000
Wire Wire Line
	7150 2100 7150 2000
Wire Wire Line
	7150 1800 7200 1800
Wire Wire Line
	7150 1700 7150 1800
Text Label 7200 2000 0    50   ~ 0
TVSD-
$Comp
L 744231091:744231091 FL1
U 1 1 5DAFFEE8
P 7500 1900
F 0 "FL1" H 7500 2181 50  0000 C CNN
F 1 "744231091" H 7500 2090 50  0000 C CNN
F 2 "744231091:FL_744231091" H 7500 1900 50  0001 L BNN
F 3 "Unavailable" H 7500 1900 50  0001 L BNN
F 4 "None" H 7500 1900 50  0001 L BNN "Feld4"
F 5 "744231091" H 7500 1900 50  0001 L BNN "Feld5"
F 6 "Ferrite SMD [Würth Elektronik] 744231091 Ferrite SMD" H 7500 1900 50  0001 L BNN "Feld6"
F 7 "Wurth Electronics" H 7500 1900 50  0001 L BNN "Feld7"
F 8 "Horizontal-4 Würth Elektronik" H 7500 1900 50  0001 L BNN "Feld8"
	1    7500 1900
	1    0    0    1   
$EndComp
Wire Wire Line
	7000 1700 7150 1700
Text Label 6300 2050 0    50   ~ 0
UD-
Text Label 6300 1750 0    50   ~ 0
UD+
Text Label 7200 1800 0    50   ~ 0
TVSD+
Text Label 7800 1800 0    50   ~ 0
FLD+
Text Label 7800 2000 0    50   ~ 0
FLD-
Text GLabel 6500 1900 0    50   Input ~ 0
VBUS
Text GLabel 6000 1250 1    50   Input ~ 0
VBUS
Connection ~ 6100 1750
Wire Wire Line
	6500 1750 6500 1700
Wire Wire Line
	6100 1750 6500 1750
Connection ~ 6200 2050
Wire Wire Line
	6500 2050 6500 2100
Wire Wire Line
	6200 2050 6500 2050
Wire Wire Line
	6200 1850 6200 2050
$Comp
L power:GND #PWR036
U 1 1 5DACE7F8
P 7000 1900
F 0 "#PWR036" H 7000 1650 50  0001 C CNN
F 1 "GND" H 7005 1727 50  0000 C CNN
F 2 "" H 7000 1900 50  0001 C CNN
F 3 "" H 7000 1900 50  0001 C CNN
	1    7000 1900
	0    -1   -1   0   
$EndComp
$Comp
L WE-TVS_82400102:WE-TVS_82400102 D9
U 1 1 5DA96F70
P 6800 1900
F 0 "D9" V 6400 1950 50  0000 C CNN
F 1 "WE-TVS_82400102" V 6500 1950 50  0000 C CNN
F 2 "WE-TVS_82400102:WE-TVS_SOT23-6L" H 6800 1900 50  0001 L BNN
F 3 "Unavailable" H 6800 1900 50  0001 L BNN
F 4 "None" H 6800 1900 50  0001 L BNN "Feld4"
F 5 "82400102" H 6800 1900 50  0001 L BNN "Feld5"
F 6 "TVS Diode Array WE-TVS 2-Ch+VDD 5V SOT23" H 6800 1900 50  0001 L BNN "Feld6"
F 7 "Wurth Electronics" H 6800 1900 50  0001 L BNN "Feld7"
F 8 "SOT-23 Würth Elektronik" H 6800 1900 50  0001 L BNN "Feld8"
	1    6800 1900
	0    -1   -1   0   
$EndComp
$Comp
L power:+5V #PWR035
U 1 1 5DA8F9BB
P 6300 1250
F 0 "#PWR035" H 6300 1100 50  0001 C CNN
F 1 "+5V" H 6315 1423 50  0000 C CNN
F 2 "" H 6300 1250 50  0001 C CNN
F 3 "" H 6300 1250 50  0001 C CNN
	1    6300 1250
	0    1    1    0   
$EndComp
$Comp
L Device:Ferrite_Bead FB1
U 1 1 5DA8EC71
P 6150 1250
F 0 "FB1" H 6287 1296 50  0000 L CNN
F 1 "Ferrite_Bead" H 6287 1205 50  0000 L CNN
F 2 "Diode_SMD:D_0603_1608Metric" V 6080 1250 50  0001 C CNN
F 3 "~" H 6150 1250 50  0001 C CNN
	1    6150 1250
	0    1    1    0   
$EndComp
Wire Wire Line
	6100 1950 6100 1750
Wire Wire Line
	6000 1950 6100 1950
Wire Wire Line
	6000 1850 6200 1850
Wire Wire Line
	6000 1750 6100 1750
NoConn ~ 4600 2450
NoConn ~ 4600 2350
NoConn ~ 4600 2250
NoConn ~ 4600 2150
NoConn ~ 4600 2050
NoConn ~ 4600 1950
NoConn ~ 4600 1450
NoConn ~ 4600 1550
$Comp
L power:GND #PWR032
U 1 1 5D991DF8
P 6000 2350
F 0 "#PWR032" H 6000 2100 50  0001 C CNN
F 1 "GND" H 6005 2177 50  0000 C CNN
F 2 "" H 6000 2350 50  0001 C CNN
F 3 "" H 6000 2350 50  0001 C CNN
	1    6000 2350
	0    -1   -1   0   
$EndComp
Connection ~ 6000 2350
Wire Wire Line
	6000 2250 6000 2350
Text GLabel 8100 2000 2    50   Input ~ 0
D-
Text GLabel 8100 1800 2    50   Input ~ 0
D+
$Comp
L Device:C C21
U 1 1 5D94D4E9
P 10150 3850
F 0 "C21" V 10200 3750 50  0000 C CNN
F 1 "10uF" H 10150 3850 50  0000 C CNN
F 2 "Capacitor_SMD:C_0805_2012Metric" H 10188 3700 50  0001 C CNN
F 3 "~" H 10150 3850 50  0001 C CNN
	1    10150 3850
	-1   0    0    1   
$EndComp
$Comp
L Device:R_Small R17
U 1 1 5D7E0921
P 7900 1800
F 0 "R17" V 7850 1900 50  0000 C CNN
F 1 "22R" V 7900 1800 50  0000 C CNN
F 2 "Resistor_SMD:R_0603_1608Metric" H 7900 1800 50  0001 C CNN
F 3 "~" H 7900 1800 50  0001 C CNN
	1    7900 1800
	0    1    1    0   
$EndComp
$Comp
L Device:R_Small R18
U 1 1 5D7DFDD4
P 7900 2000
F 0 "R18" V 7850 2100 50  0000 C CNN
F 1 "22R" V 7900 2000 50  0000 C CNN
F 2 "Resistor_SMD:R_0603_1608Metric" H 7900 2000 50  0001 C CNN
F 3 "~" H 7900 2000 50  0001 C CNN
	1    7900 2000
	0    1    1    0   
$EndComp
Wire Notes Line
	4050 500  4050 4200
Wire Wire Line
	1100 5500 1250 5500
Connection ~ 1100 5500
Wire Wire Line
	1100 5200 1250 5200
Connection ~ 1100 5200
Wire Notes Line
	8600 500  8600 2050
Wire Notes Line
	11150 500  8600 500 
Wire Notes Line
	11150 2050 11150 500 
Wire Notes Line
	8600 1700 11150 1700
$Comp
L power:GND #PWR09
U 1 1 5DCAF5E0
P 1550 4600
F 0 "#PWR09" H 1550 4350 50  0001 C CNN
F 1 "GND" H 1555 4427 50  0000 C CNN
F 2 "" H 1550 4600 50  0001 C CNN
F 3 "" H 1550 4600 50  0001 C CNN
	1    1550 4600
	0    1    1    0   
$EndComp
$Comp
L Device:C C7
U 1 1 5DCAEE9D
P 1700 4600
F 0 "C7" H 1585 4554 50  0000 R CNN
F 1 "0.1uF" H 1800 4600 50  0000 R CNN
F 2 "Capacitor_SMD:C_0603_1608Metric" H 1738 4450 50  0001 C CNN
F 3 "~" H 1700 4600 50  0001 C CNN
	1    1700 4600
	0    -1   -1   0   
$EndComp
Text GLabel 8950 1450 0    50   Input ~ 0
TX0
Connection ~ 9800 750 
$Comp
L power:GND #PWR052
U 1 1 5DDA3109
P 9650 1100
F 0 "#PWR052" H 9650 850 50  0001 C CNN
F 1 "GND" H 9655 927 50  0000 C CNN
F 2 "" H 9650 1100 50  0001 C CNN
F 3 "" H 9650 1100 50  0001 C CNN
	1    9650 1100
	0    1    1    0   
$EndComp
$Comp
L Device:D_TVS_x2_AAC D10
U 1 1 5DD88053
P 9800 1100
F 0 "D10" V 9800 1316 50  0000 C CNN
F 1 "D_TVS_x2_AAC" H 9800 1225 50  0000 C CNN
F 2 "Package_TO_SOT_SMD:SOT-23" H 9650 1100 50  0001 C CNN
F 3 "~" H 9650 1100 50  0001 C CNN
	1    9800 1100
	0    1    1    0   
$EndComp
$Comp
L power:+3.3V #PWR049
U 1 1 5DD6C644
P 9000 750
F 0 "#PWR049" H 9000 600 50  0001 C CNN
F 1 "+3.3V" V 9000 1000 50  0000 C CNN
F 2 "" H 9000 750 50  0001 C CNN
F 3 "" H 9000 750 50  0001 C CNN
	1    9000 750 
	0    -1   -1   0   
$EndComp
$Comp
L Device:Ferrite_Bead FB2
U 1 1 5DD6B825
P 9400 1450
F 0 "FB2" H 9537 1496 50  0000 L CNN
F 1 "Ferrite_Bead" H 9537 1405 50  0000 L CNN
F 2 "Diode_SMD:D_0603_1608Metric" V 9330 1450 50  0001 C CNN
F 3 "~" H 9400 1450 50  0001 C CNN
	1    9400 1450
	0    -1   -1   0   
$EndComp
$Comp
L Device:Ferrite_Bead FB3
U 1 1 5DD6A72F
P 9650 750
F 0 "FB3" H 9787 796 50  0000 L CNN
F 1 "Ferrite_Bead" H 9787 705 50  0000 L CNN
F 2 "Diode_SMD:D_0603_1608Metric" V 9580 750 50  0001 C CNN
F 3 "~" H 9650 750 50  0001 C CNN
	1    9650 750 
	0    1    1    0   
$EndComp
$Comp
L Device:R R21
U 1 1 5DD68DEC
P 9100 1450
F 0 "R21" H 9170 1496 50  0000 L CNN
F 1 "10R" H 9170 1405 50  0000 L CNN
F 2 "Resistor_SMD:R_0603_1608Metric" V 9030 1450 50  0001 C CNN
F 3 "~" H 9100 1450 50  0001 C CNN
	1    9100 1450
	0    1    1    0   
$EndComp
$Comp
L Device:R R22
U 1 1 5DD66583
P 9350 750
F 0 "R22" H 9420 796 50  0000 L CNN
F 1 "33R" H 9420 705 50  0000 L CNN
F 2 "Resistor_SMD:R_0603_1608Metric" V 9280 750 50  0001 C CNN
F 3 "~" H 9350 750 50  0001 C CNN
	1    9350 750 
	0    1    1    0   
$EndComp
Wire Wire Line
	1000 1500 1100 1500
Wire Wire Line
	1000 2000 1000 1500
Wire Wire Line
	900  2000 1000 2000
Wire Wire Line
	900  1600 900  1700
Wire Wire Line
	3100 2500 3350 2500
NoConn ~ 2300 1700
$Comp
L power:GND #PWR05
U 1 1 5D9C1111
P 1100 1000
F 0 "#PWR05" H 1100 750 50  0001 C CNN
F 1 "GND" H 1105 827 50  0000 C CNN
F 2 "" H 1100 1000 50  0001 C CNN
F 3 "" H 1100 1000 50  0001 C CNN
	1    1100 1000
	-1   0    0    1   
$EndComp
$Comp
L Device:C C4
U 1 1 5D9C0962
P 1100 1150
F 0 "C4" H 1000 1250 50  0000 L CNN
F 1 "0.1uF" H 1000 1150 50  0000 L CNN
F 2 "Capacitor_SMD:C_0603_1608Metric" H 1138 1000 50  0001 C CNN
F 3 "~" H 1100 1150 50  0001 C CNN
	1    1100 1150
	-1   0    0    1   
$EndComp
Text GLabel 2300 2300 2    50   Input ~ 0
MODE
Connection ~ 1100 5950
$Comp
L power:VCC #PWR06
U 1 1 5D9627D4
P 1100 5950
F 0 "#PWR06" H 1100 5800 50  0001 C CNN
F 1 "VCC" V 1118 6077 50  0000 L CNN
F 2 "" H 1100 5950 50  0001 C CNN
F 3 "" H 1100 5950 50  0001 C CNN
	1    1100 5950
	0    -1   -1   0   
$EndComp
$Comp
L power:VCC #PWR016
U 1 1 5D9617C8
P 2050 4650
F 0 "#PWR016" H 2050 4500 50  0001 C CNN
F 1 "VCC" V 2067 4778 50  0000 L CNN
F 2 "" H 2050 4650 50  0001 C CNN
F 3 "" H 2050 4650 50  0001 C CNN
	1    2050 4650
	0    1    1    0   
$EndComp
Wire Wire Line
	1850 4600 1850 4750
Wire Wire Line
	2650 6850 3050 6850
Text GLabel 3050 6950 2    50   Input ~ 0
MODE
Text GLabel 2650 7050 2    50   Input ~ 0
DTR
Wire Wire Line
	2650 6750 3050 6750
Wire Wire Line
	2050 4250 850  4250
Connection ~ 1950 7550
Wire Wire Line
	1850 7550 1950 7550
Connection ~ 1850 4600
$Comp
L Device:Crystal Y1
U 1 1 5D945468
P 1100 5350
F 0 "Y1" V 1100 5300 50  0000 L CNN
F 1 "Crystal" V 1145 5481 50  0000 L CNN
F 2 "ECS-80-18-30-JGN-TR:XTAL_ECS-80-18-30-JGN-TR" H 1100 5350 50  0001 C CNN
F 3 "~" H 1100 5350 50  0001 C CNN
	1    1100 5350
	0    1    1    0   
$EndComp
NoConn ~ 2300 1500
NoConn ~ 2300 2200
NoConn ~ 2300 2600
NoConn ~ 2300 2700
NoConn ~ 2300 2800
NoConn ~ 1100 1600
NoConn ~ 1100 3000
NoConn ~ 1100 2900
NoConn ~ 1100 2800
NoConn ~ 1100 2700
NoConn ~ 1100 2600
NoConn ~ 1100 2500
NoConn ~ 2300 3600
NoConn ~ 2650 6650
NoConn ~ 2650 6550
NoConn ~ 2650 6350
NoConn ~ 2650 6050
NoConn ~ 2650 5950
NoConn ~ 2650 5750
NoConn ~ 2650 5650
NoConn ~ 2650 5550
NoConn ~ 2650 5450
NoConn ~ 2650 5050
Wire Wire Line
	2400 2900 2300 2900
Wire Wire Line
	2400 2700 2400 2900
Wire Wire Line
	2700 2700 2400 2700
Wire Wire Line
	2700 2500 2700 2700
$Comp
L Device:R R5
U 1 1 5DF6AAC0
P 2950 2500
F 0 "R5" H 2800 2500 50  0000 L CNN
F 1 "1.2K" V 2950 2400 50  0000 L CNN
F 2 "Resistor_SMD:R_0603_1608Metric" V 2880 2500 50  0001 C CNN
F 3 "~" H 2950 2500 50  0001 C CNN
	1    2950 2500
	0    1    1    0   
$EndComp
Text Label 1150 5750 0    50   ~ 0
RD-
Text Label 1150 5650 0    50   ~ 0
RD+
$Comp
L power:GND #PWR015
U 1 1 5DB75CF6
P 2000 1050
F 0 "#PWR015" H 2000 800 50  0001 C CNN
F 1 "GND" V 2005 922 50  0000 R CNN
F 2 "" H 2000 1050 50  0001 C CNN
F 3 "" H 2000 1050 50  0001 C CNN
	1    2000 1050
	0    -1   -1   0   
$EndComp
$Comp
L power:GND #PWR014
U 1 1 5DB75058
P 2000 800
F 0 "#PWR014" H 2000 550 50  0001 C CNN
F 1 "GND" V 2005 672 50  0000 R CNN
F 2 "" H 2000 800 50  0001 C CNN
F 3 "" H 2000 800 50  0001 C CNN
	1    2000 800 
	0    -1   -1   0   
$EndComp
Wire Wire Line
	2700 2500 2800 2500
Text GLabel 2300 1300 2    50   Input ~ 0
IO0
Text GLabel 1100 1300 0    50   Input ~ 0
EN_ESP32
Text GLabel 2650 7150 2    50   Input ~ 0
RTS
Text GLabel 2650 7250 2    50   Input ~ 0
HWB
Wire Wire Line
	2050 4550 2050 4650
Wire Wire Line
	850  4250 850  5050
$Comp
L Device:R R3
U 1 1 5D7B820C
P 2050 4400
F 0 "R3" V 1950 4400 50  0000 C CNN
F 1 "10K" V 2050 4400 50  0000 C CNN
F 2 "Resistor_SMD:R_0603_1608Metric" V 1980 4400 50  0001 C CNN
F 3 "~" H 2050 4400 50  0001 C CNN
	1    2050 4400
	-1   0    0    1   
$EndComp
$Comp
L power:+3.3V #PWR010
U 1 1 5D79C390
P 1700 750
F 0 "#PWR010" H 1700 600 50  0001 C CNN
F 1 "+3.3V" H 1715 923 50  0000 C CNN
F 2 "" H 1700 750 50  0001 C CNN
F 3 "" H 1700 750 50  0001 C CNN
	1    1700 750 
	1    0    0    -1  
$EndComp
Text GLabel 3050 6750 2    50   Input ~ 0
TX0
Text GLabel 3050 6850 2    50   Input ~ 0
RX0
Wire Wire Line
	1700 800  1700 1050
Wire Wire Line
	1700 1050 1700 1100
Connection ~ 1700 1050
Connection ~ 1700 800 
$Comp
L Device:C C8
U 1 1 5D8F0D07
P 1850 800
F 0 "C8" V 1750 900 50  0000 C CNN
F 1 "1uF" H 1850 800 50  0000 C CNN
F 2 "Capacitor_SMD:C_0603_1608Metric" H 1888 650 50  0001 C CNN
F 3 "~" H 1850 800 50  0001 C CNN
	1    1850 800 
	0    1    1    0   
$EndComp
$Comp
L Device:C C9
U 1 1 5D8F00C8
P 1850 1050
F 0 "C9" V 1800 1150 50  0000 C CNN
F 1 "0.1uF" H 1850 1050 50  0000 C CNN
F 2 "Capacitor_SMD:C_0603_1608Metric" H 1888 900 50  0001 C CNN
F 3 "~" H 1850 1050 50  0001 C CNN
	1    1850 1050
	0    1    1    0   
$EndComp
Wire Wire Line
	800  2300 900  2300
Connection ~ 800  2300
Connection ~ 900  2000
Wire Wire Line
	650  2000 900  2000
Wire Wire Line
	650  2300 800  2300
$Comp
L Device:C C1
U 1 1 5D8BA836
P 650 2150
F 0 "C1" H 550 2250 50  0000 L CNN
F 1 "0.1uF" H 550 2150 50  0000 L CNN
F 2 "Capacitor_SMD:C_0603_1608Metric" H 688 2000 50  0001 C CNN
F 3 "~" H 650 2150 50  0001 C CNN
	1    650  2150
	1    0    0    -1  
$EndComp
$Comp
L Device:R R2
U 1 1 5D8B98BE
P 900 2150
F 0 "R2" H 950 2150 50  0000 L CNN
F 1 "100K" V 900 2050 50  0000 L CNN
F 2 "Resistor_SMD:R_0603_1608Metric" V 830 2150 50  0001 C CNN
F 3 "~" H 900 2150 50  0001 C CNN
	1    900  2150
	1    0    0    -1  
$EndComp
$Comp
L MCU_Microchip_ATmega:ATmega16U2-MU U2
U 1 1 5D79A148
P 1950 6150
F 0 "U2" H 1400 4800 50  0000 C CNN
F 1 "ATmega16U2-MU" V 1950 6100 50  0000 C CNN
F 2 "Package_DFN_QFN:QFN-32-1EP_5x5mm_P0.5mm_EP3.1x3.1mm" H 1950 6150 50  0001 C CIN
F 3 "http://ww1.microchip.com/downloads/en/DeviceDoc/doc7799.pdf" H 1950 6150 50  0001 C CNN
	1    1950 6150
	1    0    0    -1  
$EndComp
Text GLabel 2300 1600 2    50   Input ~ 0
RX0
Text GLabel 2300 1400 2    50   Input ~ 0
TX0
$Comp
L power:GND #PWR01
U 1 1 5D8A45E9
P 800 2300
F 0 "#PWR01" H 800 2050 50  0001 C CNN
F 1 "GND" H 805 2127 50  0000 C CNN
F 2 "" H 800 2300 50  0001 C CNN
F 3 "" H 800 2300 50  0001 C CNN
	1    800  2300
	1    0    0    -1  
$EndComp
$Comp
L power:+BATT #PWR04
U 1 1 5D8A3B9E
P 900 1600
F 0 "#PWR04" H 900 1450 50  0001 C CNN
F 1 "+BATT" H 915 1773 50  0000 C CNN
F 2 "" H 900 1600 50  0001 C CNN
F 3 "" H 900 1600 50  0001 C CNN
	1    900  1600
	1    0    0    -1  
$EndComp
$Comp
L Device:R R1
U 1 1 5D8A373B
P 900 1850
F 0 "R1" H 750 1850 50  0000 L CNN
F 1 "100K" V 900 1750 50  0000 L CNN
F 2 "Resistor_SMD:R_0603_1608Metric" V 830 1850 50  0001 C CNN
F 3 "~" H 900 1850 50  0001 C CNN
	1    900  1850
	1    0    0    -1  
$EndComp
Text GLabel 9300 2350 0    50   Input ~ 0
DM_HOST
Text GLabel 9300 2500 0    50   Input ~ 0
DP_HOST
Wire Wire Line
	1250 5750 1100 5750
Wire Wire Line
	1100 5650 1250 5650
$Comp
L power:GND #PWR023
U 1 1 5D7D27C7
P 3650 2500
F 0 "#PWR023" H 3650 2250 50  0001 C CNN
F 1 "GND" V 3655 2372 50  0000 R CNN
F 2 "" H 3650 2500 50  0001 C CNN
F 3 "" H 3650 2500 50  0001 C CNN
	1    3650 2500
	0    -1   -1   0   
$EndComp
$Comp
L Device:LED_ALT D1
U 1 1 5D7CE48D
P 3500 2500
F 0 "D1" H 3493 2245 50  0000 C CNN
F 1 "LED_STATUS" H 3493 2336 50  0000 C CNN
F 2 "LED_SMD:LED_0603_1608Metric" H 3500 2500 50  0001 C CNN
F 3 "~" H 3500 2500 50  0001 C CNN
	1    3500 2500
	-1   0    0    1   
$EndComp
$Comp
L power:GND #PWR013
U 1 1 5D7CAAA5
P 1950 7550
F 0 "#PWR013" H 1950 7300 50  0001 C CNN
F 1 "GND" H 1955 7377 50  0000 C CNN
F 2 "" H 1950 7550 50  0001 C CNN
F 3 "" H 1950 7550 50  0001 C CNN
	1    1950 7550
	1    0    0    -1  
$EndComp
$Comp
L power:GND #PWR07
U 1 1 5D7CA4B8
P 1100 6250
F 0 "#PWR07" H 1100 6000 50  0001 C CNN
F 1 "GND" H 1105 6077 50  0000 C CNN
F 2 "" H 1100 6250 50  0001 C CNN
F 3 "" H 1100 6250 50  0001 C CNN
	1    1100 6250
	1    0    0    -1  
$EndComp
Wire Wire Line
	1250 5950 1100 5950
$Comp
L Device:C C5
U 1 1 5D7C8109
P 1100 6100
F 0 "C5" H 985 6054 50  0000 R CNN
F 1 "1uF" H 985 6145 50  0000 R CNN
F 2 "Capacitor_SMD:C_0603_1608Metric" H 1138 5950 50  0001 C CNN
F 3 "~" H 1100 6100 50  0001 C CNN
	1    1100 6100
	-1   0    0    1   
$EndComp
Connection ~ 2050 4650
Wire Wire Line
	2050 4650 2050 4750
Wire Wire Line
	1950 4650 2050 4650
Wire Wire Line
	1950 4750 1950 4650
Wire Wire Line
	1850 4550 1850 4600
$Comp
L power:+5V #PWR012
U 1 1 5D7C1D33
P 1850 4550
F 0 "#PWR012" H 1850 4400 50  0001 C CNN
F 1 "+5V" H 1865 4723 50  0000 C CNN
F 2 "" H 1850 4550 50  0001 C CNN
F 3 "" H 1850 4550 50  0001 C CNN
	1    1850 4550
	1    0    0    -1  
$EndComp
$Comp
L power:GND #PWR03
U 1 1 5D7BCD7A
P 800 5500
F 0 "#PWR03" H 800 5250 50  0001 C CNN
F 1 "GND" V 805 5372 50  0000 R CNN
F 2 "" H 800 5500 50  0001 C CNN
F 3 "" H 800 5500 50  0001 C CNN
	1    800  5500
	0    1    1    0   
$EndComp
$Comp
L power:GND #PWR02
U 1 1 5D7BC877
P 800 5200
F 0 "#PWR02" H 800 4950 50  0001 C CNN
F 1 "GND" V 805 5072 50  0000 R CNN
F 2 "" H 800 5200 50  0001 C CNN
F 3 "" H 800 5200 50  0001 C CNN
	1    800  5200
	0    1    1    0   
$EndComp
$Comp
L Device:C C3
U 1 1 5D7BC3FB
P 950 5500
F 0 "C3" V 1000 5400 50  0000 C CNN
F 1 "22pF" H 950 5500 50  0000 C CNN
F 2 "Capacitor_SMD:C_0603_1608Metric" H 988 5350 50  0001 C CNN
F 3 "~" H 950 5500 50  0001 C CNN
	1    950  5500
	0    1    1    0   
$EndComp
$Comp
L Device:C C2
U 1 1 5D7BBCF4
P 950 5200
F 0 "C2" V 1000 5100 50  0000 C CNN
F 1 "22pF" H 950 5200 50  0000 C CNN
F 2 "Capacitor_SMD:C_0603_1608Metric" H 988 5050 50  0001 C CNN
F 3 "~" H 950 5200 50  0001 C CNN
	1    950  5200
	0    1    1    0   
$EndComp
Wire Wire Line
	1250 5450 1250 5500
Wire Wire Line
	1250 5250 1250 5200
$Comp
L power:GND #PWR011
U 1 1 5D7B8CF0
P 1700 3900
F 0 "#PWR011" H 1700 3650 50  0001 C CNN
F 1 "GND" H 1705 3727 50  0000 C CNN
F 2 "" H 1700 3900 50  0001 C CNN
F 3 "" H 1700 3900 50  0001 C CNN
	1    1700 3900
	1    0    0    -1  
$EndComp
Text GLabel 2300 2000 2    50   Input ~ 0
ISO_555
Wire Wire Line
	1700 750  1700 800 
Text GLabel 2300 1800 2    50   Input ~ 0
LATCH
Text GLabel 2300 2500 2    50   Input ~ 0
SENSE
Wire Wire Line
	5300 7300 5350 7300
Wire Notes Line
	7150 600  7150 1250
Wire Notes Line
	7150 1250 8450 1250
Text Notes 4550 800  0    90   ~ 18
USB
Text Notes 7200 1200 0    90   ~ 18
Battery
Text Notes 4800 7550 2    90   ~ 18
Power-Control
Text Notes 6450 3400 0    90   ~ 18
Battery-Charger
Text Notes 550  7750 0    90   ~ 18
ATMega16U2
Text Notes 3500 4100 0    90   ~ 18
ESP32
Text Notes 4500 5150 0    90   ~ 18
ESP32-AutoReset
Text Notes 10400 1600 0    90   ~ 18
MIDI-OUT
NoConn ~ 2300 3500
$Comp
L midi-biodata-esp32:AP7361C-U-DFN8-Regulator_Linear U3
U 1 1 5E4947E8
P 5350 6150
F 0 "U3" H 5350 6392 50  0000 C CNN
F 1 "AP7361C-U-DFN8" H 5350 6301 50  0000 C CNN
F 2 "Package_DFN_QFN:DFN-8-1EP_3x3mm_P0.65mm_EP1.55x2.4mm" H 5350 6375 50  0001 C CIN
F 3 "http://www.zlgmcu.com/Sipex/LDO/PDF/spx2920.pdf" H 5350 6100 50  0001 C CNN
	1    5350 6150
	1    0    0    -1  
$EndComp
Wire Wire Line
	5050 6300 4700 6300
Wire Wire Line
	1800 3900 1700 3900
Wire Wire Line
	5450 6450 5350 6450
Connection ~ 5350 6450
$Comp
L Device:R R6
U 1 1 5DFE3ADD
P 3050 7100
F 0 "R6" H 3120 7146 50  0000 L CNN
F 1 "12K" H 3120 7055 50  0000 L CNN
F 2 "Resistor_SMD:R_0603_1608Metric" V 2980 7100 50  0001 C CNN
F 3 "~" H 3050 7100 50  0001 C CNN
	1    3050 7100
	1    0    0    -1  
$EndComp
Wire Wire Line
	3050 6950 2650 6950
$Comp
L power:GND #PWR020
U 1 1 5DFEF259
P 3050 7250
F 0 "#PWR020" H 3050 7000 50  0001 C CNN
F 1 "GND" H 3055 7077 50  0000 C CNN
F 2 "" H 3050 7250 50  0001 C CNN
F 3 "" H 3050 7250 50  0001 C CNN
	1    3050 7250
	1    0    0    -1  
$EndComp
NoConn ~ 5500 2150
$Comp
L Device:C C19
U 1 1 5E236BA8
P 9100 900
F 0 "C19" H 9100 1000 50  0000 R CNN
F 1 "0.1uF" V 9200 900 50  0000 R CNN
F 2 "Capacitor_SMD:C_0603_1608Metric" H 9138 750 50  0001 C CNN
F 3 "~" H 9100 900 50  0001 C CNN
	1    9100 900 
	-1   0    0    1   
$EndComp
$Comp
L power:GND #PWR050
U 1 1 5E237669
P 9100 1050
F 0 "#PWR050" H 9100 800 50  0001 C CNN
F 1 "GND" H 9105 877 50  0000 C CNN
F 2 "" H 9100 1050 50  0001 C CNN
F 3 "" H 9100 1050 50  0001 C CNN
	1    9100 1050
	1    0    0    -1  
$EndComp
NoConn ~ 2300 2400
NoConn ~ 4600 1350
NoConn ~ 4600 1250
$Comp
L power:GND #PWR053
U 1 1 5DD67E3C
P 10200 900
F 0 "#PWR053" H 10200 650 50  0001 C CNN
F 1 "GND" H 10205 727 50  0000 C CNN
F 2 "" H 10200 900 50  0001 C CNN
F 3 "" H 10200 900 50  0001 C CNN
	1    10200 900 
	1    0    0    -1  
$EndComp
$Comp
L SJ-3523-SMT:SJ-3523-SMT J5
U 1 1 5DCC1D7F
P 10500 800
F 0 "J5" H 10270 754 50  0000 R CNN
F 1 "SJ-3523-SMT" H 10600 1050 50  0000 R CNN
F 2 "SJ-3523-SMT:CUI_SJ-3523-SMT" H 10500 800 50  0001 L BNN
F 3 "None" H 10500 800 50  0001 L BNN
F 4 "SJ-3523-SMT" H 10500 800 50  0001 L BNN "Feld4"
F 5 "3.5 mm Low Profile Surface Mount Stereo Jack, 3 Pin Right-Angle" H 10500 800 50  0001 L BNN "Feld5"
F 6 "None" H 10500 800 50  0001 L BNN "Feld6"
F 7 "CUI Devices" H 10500 800 50  0001 L BNN "Feld7"
F 8 "Unavailable" H 10500 800 50  0001 L BNN "Feld8"
	1    10500 800 
	-1   0    0    1   
$EndComp
Wire Wire Line
	9800 750  9800 700 
Wire Wire Line
	8000 1800 8100 1800
Wire Wire Line
	8000 2000 8100 2000
$Comp
L Device:C C6
U 1 1 5E170D25
P 1550 800
F 0 "C6" V 1450 900 50  0000 C CNN
F 1 "22uF" H 1550 800 50  0000 C CNN
F 2 "Capacitor_SMD:C_0805_2012Metric" H 1588 650 50  0001 C CNN
F 3 "~" H 1550 800 50  0001 C CNN
	1    1550 800 
	0    1    1    0   
$EndComp
$Comp
L power:GND #PWR08
U 1 1 5E1715A9
P 1400 800
F 0 "#PWR08" H 1400 550 50  0001 C CNN
F 1 "GND" V 1405 672 50  0000 R CNN
F 2 "" H 1400 800 50  0001 C CNN
F 3 "" H 1400 800 50  0001 C CNN
	1    1400 800 
	0    1    1    0   
$EndComp
Wire Notes Line
	500  500  4050 500 
$Comp
L Connector:Conn_01x03_Female J2
U 1 1 5DF254DA
P 3650 1350
F 0 "J2" H 3678 1376 50  0000 L CNN
F 1 "Conn_01x03_Female" V 3800 1100 50  0000 L CNN
F 2 "Connector_PinSocket_2.54mm:PinSocket_1x03_P2.54mm_Vertical" H 3650 1350 50  0001 C CNN
F 3 "~" H 3650 1350 50  0001 C CNN
	1    3650 1350
	1    0    0    -1  
$EndComp
$Comp
L power:+3.3V #PWR021
U 1 1 5DFACA27
P 3150 1050
F 0 "#PWR021" H 3150 900 50  0001 C CNN
F 1 "+3.3V" H 3150 1200 50  0000 C CNN
F 2 "" H 3150 1050 50  0001 C CNN
F 3 "" H 3150 1050 50  0001 C CNN
	1    3150 1050
	1    0    0    -1  
$EndComp
$Comp
L power:GND #PWR022
U 1 1 5DFAD6AD
P 3150 1350
F 0 "#PWR022" H 3150 1100 50  0001 C CNN
F 1 "GND" H 3150 1200 50  0000 C CNN
F 2 "" H 3150 1350 50  0001 C CNN
F 3 "" H 3150 1350 50  0001 C CNN
	1    3150 1350
	0    1    1    0   
$EndComp
Text GLabel 3450 1450 0    50   Input ~ 0
ISO_555
$Comp
L Connector:Conn_01x04_Female J1
U 1 1 5DFBE300
P 2700 3000
F 0 "J1" H 2672 2932 50  0000 R CNN
F 1 "Conn_01x04_Male" H 2672 3023 50  0000 R CNN
F 2 "Connector_PinSocket_2.54mm:PinSocket_1x04_P2.54mm_Vertical" H 2700 3000 50  0001 C CNN
F 3 "~" H 2700 3000 50  0001 C CNN
	1    2700 3000
	1    0    0    -1  
$EndComp
$Comp
L power:GND #PWR017
U 1 1 5DFDED4D
P 2500 2900
F 0 "#PWR017" H 2500 2650 50  0001 C CNN
F 1 "GND" H 2505 2727 50  0000 C CNN
F 2 "" H 2500 2900 50  0001 C CNN
F 3 "" H 2500 2900 50  0001 C CNN
	1    2500 2900
	-1   0    0    1   
$EndComp
$Comp
L Device:LED_ALT D4
U 1 1 5E00CA41
P 3650 3250
F 0 "D4" H 3643 2995 50  0000 C CNN
F 1 "LED_3" H 3350 3200 50  0000 C CNN
F 2 "LED_SMD:LED_1206_3216Metric" H 3650 3250 50  0001 C CNN
F 3 "~" H 3650 3250 50  0001 C CNN
	1    3650 3250
	-1   0    0    1   
$EndComp
$Comp
L Device:LED_ALT D6
U 1 1 5E00D291
P 3650 3600
F 0 "D6" H 3643 3345 50  0000 C CNN
F 1 "LED_5" H 3350 3550 50  0000 C CNN
F 2 "LED_SMD:LED_1206_3216Metric" H 3650 3600 50  0001 C CNN
F 3 "~" H 3650 3600 50  0001 C CNN
	1    3650 3600
	-1   0    0    1   
$EndComp
$Comp
L Device:LED_ALT D3
U 1 1 5E00C425
P 3650 3050
F 0 "D3" H 3643 2795 50  0000 C CNN
F 1 "LED_2" H 3350 3000 50  0000 C CNN
F 2 "LED_SMD:LED_1206_3216Metric" H 3650 3050 50  0001 C CNN
F 3 "~" H 3650 3050 50  0001 C CNN
	1    3650 3050
	-1   0    0    1   
$EndComp
$Comp
L Device:R_Pack04 RN1
U 1 1 5E010D03
P 2950 3400
F 0 "RN1" V 2533 3400 50  0000 C CNN
F 1 "4x150R" V 2624 3400 50  0000 C CNN
F 2 "Resistor_SMD:R_Array_Concave_4x0603" V 3225 3400 50  0001 C CNN
F 3 "~" H 2950 3400 50  0001 C CNN
	1    2950 3400
	0    1    1    0   
$EndComp
Wire Wire Line
	2300 3400 2750 3400
Text GLabel 2300 2100 2    50   Input ~ 0
LED_B
Text GLabel 2300 1900 2    50   Input ~ 0
LED_W
Connection ~ 1700 3900
$Comp
L midi-biodata-esp32:ESP32-WROOM-32D U1
U 1 1 5D7974CA
P 1700 2500
F 0 "U1" H 1250 1150 50  0000 C CNN
F 1 "ESP32-WROOM-32D" V 1700 2500 50  0000 C CNN
F 2 "RF_Module:ESP32-WROOM-32" H 1700 1000 50  0001 C CNN
F 3 "https://www.espressif.com/sites/default/files/documentation/esp32-wroom-32_datasheet_en.pdf" H 1400 2550 50  0001 C CNN
	1    1700 2500
	1    0    0    -1  
$EndComp
Text GLabel 2750 3200 0    50   Input ~ 0
LED_B
Wire Wire Line
	3150 3200 3300 3200
Wire Wire Line
	3300 3200 3300 2850
Wire Wire Line
	3300 2850 3500 2850
Wire Wire Line
	3150 3300 3350 3300
Wire Wire Line
	3350 3300 3350 3050
Wire Wire Line
	3350 3050 3500 3050
Wire Wire Line
	3150 3400 3400 3400
Wire Wire Line
	3400 3400 3400 3250
Wire Wire Line
	3400 3250 3500 3250
Wire Wire Line
	3150 3500 3450 3500
Wire Wire Line
	3450 3500 3450 3450
Wire Wire Line
	3450 3450 3500 3450
Text GLabel 2750 3700 0    50   Input ~ 0
LED_W
$Comp
L Device:R R4
U 1 1 5E05E85F
P 2900 3700
F 0 "R4" H 2750 3700 50  0000 L CNN
F 1 "150R" V 2900 3600 50  0000 L CNN
F 2 "Resistor_SMD:R_0603_1608Metric" V 2830 3700 50  0001 C CNN
F 3 "~" H 2900 3700 50  0001 C CNN
	1    2900 3700
	0    1    1    0   
$EndComp
Wire Wire Line
	3050 3700 3350 3700
Wire Wire Line
	3350 3700 3350 3600
Wire Wire Line
	3350 3600 3500 3600
$Comp
L Device:LED_ALT D5
U 1 1 5E00CEA3
P 3650 3450
F 0 "D5" H 3643 3195 50  0000 C CNN
F 1 "LED_4" H 3350 3400 50  0000 C CNN
F 2 "LED_SMD:LED_1206_3216Metric" H 3650 3450 50  0001 C CNN
F 3 "~" H 3650 3450 50  0001 C CNN
	1    3650 3450
	-1   0    0    1   
$EndComp
$Comp
L Device:LED_ALT D2
U 1 1 5E00B8E1
P 3650 2850
F 0 "D2" H 3643 2595 50  0000 C CNN
F 1 "LED_1" H 3350 2850 50  0000 C CNN
F 2 "LED_SMD:LED_1206_3216Metric" H 3650 2850 50  0001 C CNN
F 3 "~" H 3650 2850 50  0001 C CNN
	1    3650 2850
	-1   0    0    1   
$EndComp
Wire Wire Line
	2300 3200 2400 3200
Wire Wire Line
	2400 3200 2400 3300
Wire Wire Line
	2400 3300 2750 3300
Wire Wire Line
	2300 3300 2350 3300
Wire Wire Line
	2350 3300 2350 3500
Wire Wire Line
	2350 3500 2750 3500
Text GLabel 2900 4700 0    50   Input ~ 0
HWB
$Comp
L Mechanical:MountingHole H1
U 1 1 5E1B0684
P -1300 8700
F 0 "H1" H -1200 8746 50  0000 L CNN
F 1 "MountingHole" H -1200 8655 50  0000 L CNN
F 2 "MountingHole:MountingHole_3mm" H -1300 8700 50  0001 C CNN
F 3 "~" H -1300 8700 50  0001 C CNN
	1    -1300 8700
	1    0    0    -1  
$EndComp
$Comp
L Mechanical:MountingHole H2
U 1 1 5E1B2044
P -1300 9000
F 0 "H2" H -1200 9046 50  0000 L CNN
F 1 "MountingHole" H -1200 8955 50  0000 L CNN
F 2 "MountingHole:MountingHole_3mm" H -1300 9000 50  0001 C CNN
F 3 "~" H -1300 9000 50  0001 C CNN
	1    -1300 9000
	1    0    0    -1  
$EndComp
$Comp
L Mechanical:MountingHole H3
U 1 1 5E1F252F
P -1300 9300
F 0 "H3" H -1200 9346 50  0000 L CNN
F 1 "MountingHole" H -1200 9255 50  0000 L CNN
F 2 "MountingHole:MountingHole_3mm" H -1300 9300 50  0001 C CNN
F 3 "~" H -1300 9300 50  0001 C CNN
	1    -1300 9300
	1    0    0    -1  
$EndComp
$Comp
L Device:C C10
U 1 1 5E23A041
P 3150 1200
F 0 "C10" H 3050 1200 50  0000 R CNN
F 1 "0.1uF" H 3300 1200 50  0000 R CNN
F 2 "Capacitor_SMD:C_0603_1608Metric" H 3188 1050 50  0001 C CNN
F 3 "~" H 3150 1200 50  0001 C CNN
	1    3150 1200
	1    0    0    -1  
$EndComp
Wire Wire Line
	3150 1050 3350 1050
Wire Wire Line
	3350 1050 3350 1250
Wire Wire Line
	3350 1250 3450 1250
Wire Wire Line
	3150 1350 3450 1350
$Comp
L power:+3.3V #PWR018
U 1 1 5E27B887
P 2500 3200
F 0 "#PWR018" H 2500 3050 50  0001 C CNN
F 1 "+3.3V" H 2515 3373 50  0000 C CNN
F 2 "" H 2500 3200 50  0001 C CNN
F 3 "" H 2500 3200 50  0001 C CNN
	1    2500 3200
	-1   0    0    1   
$EndComp
Wire Wire Line
	2300 3000 2400 3000
Wire Wire Line
	2400 3000 2400 3100
Wire Wire Line
	2400 3100 2500 3100
Wire Wire Line
	2500 3000 2450 3000
Wire Wire Line
	2450 3000 2450 3050
Wire Wire Line
	2450 3050 2300 3050
Wire Wire Line
	2300 3050 2300 3100
Wire Wire Line
	3800 2850 3800 3050
Connection ~ 3800 3050
Wire Wire Line
	3800 3050 3800 3250
Connection ~ 3800 3250
Wire Wire Line
	3800 3250 3800 3450
Connection ~ 3800 3450
Wire Wire Line
	3800 3450 3800 3600
Wire Wire Line
	3800 2850 3800 2650
Wire Wire Line
	3800 2650 3650 2650
Wire Wire Line
	3650 2650 3650 2500
Connection ~ 3800 2850
Connection ~ 3650 2500
Connection ~ 3150 1350
$Comp
L Device:R R8
U 1 1 5E43E08A
P 5250 2950
F 0 "R8" H 5100 2950 50  0000 L CNN
F 1 "5,1K" V 5250 2850 50  0000 L CNN
F 2 "Resistor_SMD:R_0603_1608Metric" V 5180 2950 50  0001 C CNN
F 3 "~" H 5250 2950 50  0001 C CNN
	1    5250 2950
	0    -1   -1   0   
$EndComp
$Comp
L Device:R R9
U 1 1 5E4672F1
P 5250 2850
F 0 "R9" H 5100 2850 50  0000 L CNN
F 1 "5,1K" V 5250 2750 50  0000 L CNN
F 2 "Resistor_SMD:R_0603_1608Metric" V 5180 2850 50  0001 C CNN
F 3 "~" H 5250 2850 50  0001 C CNN
	1    5250 2850
	0    -1   -1   0   
$EndComp
Connection ~ 7750 3950
Wire Wire Line
	7750 3950 7750 4500
$Comp
L power:GND #PWR037
U 1 1 5E4C6FFA
P 7450 3950
F 0 "#PWR037" H 7450 3700 50  0001 C CNN
F 1 "GND" H 7455 3777 50  0000 C CNN
F 2 "" H 7450 3950 50  0001 C CNN
F 3 "" H 7450 3950 50  0001 C CNN
	1    7450 3950
	-1   0    0    1   
$EndComp
$Comp
L Device:R R15
U 1 1 5E4C6C06
P 7600 3950
F 0 "R15" V 7500 3950 50  0000 C CNN
F 1 "20K" V 7600 3950 50  0000 C CNN
F 2 "Resistor_SMD:R_0603_1608Metric" V 7530 3950 50  0001 C CNN
F 3 "~" H 7600 3950 50  0001 C CNN
	1    7600 3950
	0    -1   -1   0   
$EndComp
$Comp
L Device:R R16
U 1 1 5E4C5FB4
P 7750 3800
F 0 "R16" V 7650 3800 50  0000 C CNN
F 1 "20K" V 7750 3800 50  0000 C CNN
F 2 "Resistor_SMD:R_0603_1608Metric" V 7680 3800 50  0001 C CNN
F 3 "~" H 7750 3800 50  0001 C CNN
	1    7750 3800
	-1   0    0    1   
$EndComp
Wire Wire Line
	8300 4500 7750 4500
$Comp
L power:GND #PWR038
U 1 1 5E46699F
P 7500 4250
F 0 "#PWR038" H 7500 4000 50  0001 C CNN
F 1 "GND" H 7505 4077 50  0000 C CNN
F 2 "" H 7500 4250 50  0001 C CNN
F 3 "" H 7500 4250 50  0001 C CNN
	1    7500 4250
	-1   0    0    1   
$EndComp
Wire Wire Line
	8300 4550 8300 4600
Wire Wire Line
	7500 4550 8300 4550
$Comp
L Device:C C17
U 1 1 5E45B3D7
P 7500 4400
F 0 "C17" H 7550 4500 50  0000 L CNN
F 1 "1uF" H 7550 4300 50  0000 L CNN
F 2 "Capacitor_SMD:C_0603_1608Metric" H 7538 4250 50  0001 C CNN
F 3 "~" H 7500 4400 50  0001 C CNN
	1    7500 4400
	1    0    0    -1  
$EndComp
Wire Wire Line
	9800 5200 9900 5200
Wire Wire Line
	9800 4800 9800 5200
Wire Wire Line
	9700 4800 9800 4800
Wire Wire Line
	9900 4600 9900 5100
Wire Wire Line
	9700 4600 9900 4600
Wire Wire Line
	9500 6250 10650 6250
Wire Wire Line
	9700 4500 10650 4500
Wire Wire Line
	10650 4500 10650 6250
Wire Wire Line
	8200 6250 8450 6250
Connection ~ 8200 6250
$Comp
L power:+5VP #PWR047
U 1 1 5E3B4684
P 8200 6250
F 0 "#PWR047" H 8200 6100 50  0001 C CNN
F 1 "+5VP" H 8215 6423 50  0000 C CNN
F 2 "" H 8200 6250 50  0001 C CNN
F 3 "" H 8200 6250 50  0001 C CNN
	1    8200 6250
	1    0    0    -1  
$EndComp
Wire Wire Line
	9950 4000 9700 4000
Connection ~ 9950 4000
Connection ~ 9700 4500
Wire Wire Line
	9700 4400 9700 4500
Connection ~ 8300 5100
Wire Wire Line
	8300 5200 8300 5100
$Comp
L Device:C C22
U 1 1 5E36853A
P 10600 3850
F 0 "C22" H 10650 3950 50  0000 L CNN
F 1 "0.1uF" H 10650 3750 50  0000 L CNN
F 2 "Capacitor_SMD:C_0603_1608Metric" H 10638 3700 50  0001 C CNN
F 3 "~" H 10600 3850 50  0001 C CNN
	1    10600 3850
	1    0    0    -1  
$EndComp
Connection ~ 9500 6250
Wire Wire Line
	9500 6450 9500 6250
Wire Wire Line
	7450 6450 9500 6450
Wire Wire Line
	7450 6100 7450 6450
Wire Wire Line
	7550 5800 7450 5800
Wire Wire Line
	7550 5000 7550 5800
Wire Wire Line
	8300 5000 7550 5000
$Comp
L Device:C C16
U 1 1 5E353B96
P 7450 5950
F 0 "C16" H 7200 5950 50  0000 L CNN
F 1 "0.033uF" H 7400 5950 50  0000 L CNN
F 2 "Capacitor_SMD:C_0603_1608Metric" H 7488 5800 50  0001 C CNN
F 3 "~" H 7450 5950 50  0001 C CNN
	1    7450 5950
	1    0    0    -1  
$EndComp
Wire Wire Line
	9250 6250 9500 6250
Wire Wire Line
	7650 6250 8200 6250
Wire Wire Line
	7650 5100 7650 6250
Wire Wire Line
	8300 5100 7650 5100
$Comp
L Device:L L1
U 1 1 5E33EEF2
P 9100 6250
F 0 "L1" V 8919 6250 50  0000 C CNN
F 1 "1uH" V 9010 6250 50  0000 C CNN
F 2 "1239AS-H-1R0M_P2:INDC2520X120N" H 9100 6250 50  0001 C CNN
F 3 "~" H 9100 6250 50  0001 C CNN
	1    9100 6250
	0    1    1    0   
$EndComp
Wire Wire Line
	9700 5600 9700 5700
Connection ~ 9700 5600
Wire Wire Line
	9700 5500 9700 5600
Connection ~ 9700 5500
Wire Wire Line
	9700 5400 9700 5500
Connection ~ 9700 5400
Wire Wire Line
	9700 5300 9700 5400
$Comp
L power:GND #PWR051
U 1 1 5E2A6B67
P 9700 5700
F 0 "#PWR051" H 9700 5450 50  0001 C CNN
F 1 "GND" H 9705 5527 50  0000 C CNN
F 2 "" H 9700 5700 50  0001 C CNN
F 3 "" H 9700 5700 50  0001 C CNN
	1    9700 5700
	1    0    0    -1  
$EndComp
Wire Wire Line
	8050 5600 8300 5600
Wire Wire Line
	8050 5500 8300 5500
$Comp
L BQ24250RGER:BQ24250RGER U4
U 1 1 5E288444
P 9000 4800
F 0 "U4" H 9000 5867 50  0000 C CNN
F 1 "BQ24253RGER" H 9000 5776 50  0000 C CNN
F 2 "BQ24250RGER:QFN50P400X400X100-25N" H 9000 4800 50  0001 L BNN
F 3 "Texas Instruments" H 9000 4800 50  0001 L BNN
	1    9000 4800
	1    0    0    -1  
$EndComp
$Comp
L power:GND #PWR055
U 1 1 5DE3E34B
P 10350 3700
F 0 "#PWR055" H 10350 3450 50  0001 C CNN
F 1 "GND" H 10355 3527 50  0000 C CNN
F 2 "" H 10350 3700 50  0001 C CNN
F 3 "" H 10350 3700 50  0001 C CNN
	1    10350 3700
	-1   0    0    1   
$EndComp
$Comp
L Device:R R19
U 1 1 5DBCE7B7
P 8150 4400
F 0 "R19" V 8050 4400 50  0000 C CNN
F 1 "250R" V 8150 4400 50  0000 C CNN
F 2 "Resistor_SMD:R_0603_1608Metric" V 8080 4400 50  0001 C CNN
F 3 "~" H 8150 4400 50  0001 C CNN
	1    8150 4400
	0    1    1    0   
$EndComp
$Comp
L power:GND #PWR043
U 1 1 5DBCF7AB
P 8000 4400
F 0 "#PWR043" H 8000 4150 50  0001 C CNN
F 1 "GND" H 8005 4227 50  0000 C CNN
F 2 "" H 8000 4400 50  0001 C CNN
F 3 "" H 8000 4400 50  0001 C CNN
	1    8000 4400
	0    1    1    0   
$EndComp
$Comp
L power:+5V #PWR054
U 1 1 5DC82065
P 10200 4000
F 0 "#PWR054" H 10200 3850 50  0001 C CNN
F 1 "+5V" H 10200 4150 50  0000 C CNN
F 2 "" H 10200 4000 50  0001 C CNN
F 3 "" H 10200 4000 50  0001 C CNN
	1    10200 4000
	0    1    1    0   
$EndComp
$Comp
L Device:R R20
U 1 1 5DCAB2CE
P 8150 5300
F 0 "R20" V 8050 5300 50  0000 C CNN
F 1 "267R" V 8150 5300 50  0000 C CNN
F 2 "Resistor_SMD:R_0603_1608Metric" V 8080 5300 50  0001 C CNN
F 3 "~" H 8150 5300 50  0001 C CNN
	1    8150 5300
	0    1    1    0   
$EndComp
$Comp
L Device:C C20
U 1 1 5E3B49E4
P 9950 3850
F 0 "C20" H 9700 3850 50  0000 L CNN
F 1 "0.1uF" H 9900 3850 50  0000 L CNN
F 2 "Capacitor_SMD:C_0603_1608Metric" H 9988 3700 50  0001 C CNN
F 3 "~" H 9950 3850 50  0001 C CNN
	1    9950 3850
	1    0    0    -1  
$EndComp
Wire Wire Line
	10200 5100 10400 5100
Wire Wire Line
	10200 5200 10400 5200
$Comp
L power:GND #PWR046
U 1 1 5E394187
P 8100 5850
F 0 "#PWR046" H 8100 5600 50  0001 C CNN
F 1 "GND" H 8105 5677 50  0000 C CNN
F 2 "" H 8100 5850 50  0001 C CNN
F 3 "" H 8100 5850 50  0001 C CNN
	1    8100 5850
	0    1    1    0   
$EndComp
Connection ~ 8100 5550
$Comp
L Device:C C18
U 1 1 5E39359C
P 8100 5700
F 0 "C18" H 8250 5700 50  0000 C CNN
F 1 "10uF" H 8100 5700 50  0000 C CNN
F 2 "Capacitor_SMD:C_0805_2012Metric" H 8138 5550 50  0001 C CNN
F 3 "~" H 8100 5700 50  0001 C CNN
	1    8100 5700
	-1   0    0    1   
$EndComp
$Comp
L power:GND #PWR044
U 1 1 5DE8F3DE
P 8000 5300
F 0 "#PWR044" H 8000 5050 50  0001 C CNN
F 1 "GND" H 8005 5127 50  0000 C CNN
F 2 "" H 8000 5300 50  0001 C CNN
F 3 "" H 8000 5300 50  0001 C CNN
	1    8000 5300
	0    1    1    0   
$EndComp
$Comp
L Device:R R24
U 1 1 5DBECB2E
P 10050 5200
F 0 "R24" V 9950 5200 50  0000 C CNN
F 1 "1.2K" V 10050 5200 50  0000 C CNN
F 2 "Resistor_SMD:R_0603_1608Metric" V 9980 5200 50  0001 C CNN
F 3 "~" H 10050 5200 50  0001 C CNN
	1    10050 5200
	0    -1   -1   0   
$EndComp
$Comp
L Device:R R23
U 1 1 5DBE8EAF
P 10050 5100
F 0 "R23" V 10150 5100 50  0000 C CNN
F 1 "1.2K" V 10050 5100 50  0000 C CNN
F 2 "Resistor_SMD:R_0603_1608Metric" V 9980 5100 50  0001 C CNN
F 3 "~" H 10050 5100 50  0001 C CNN
	1    10050 5100
	0    -1   -1   0   
$EndComp
Wire Wire Line
	8050 5550 8050 5600
Connection ~ 8050 5550
Wire Wire Line
	8100 5550 8050 5550
Wire Wire Line
	8050 5500 8050 5550
$Comp
L power:+BATT #PWR045
U 1 1 5DBD06E2
P 8100 5550
F 0 "#PWR045" H 8100 5400 50  0001 C CNN
F 1 "+BATT" V 8050 5500 50  0000 L CNN
F 2 "" H 8100 5550 50  0001 C CNN
F 3 "" H 8100 5550 50  0001 C CNN
	1    8100 5550
	0    1    1    0   
$EndComp
$Comp
L Device:LED_ALT D12
U 1 1 5D7F0CDF
P 10400 5350
F 0 "D12" H 10400 5450 50  0000 C CNN
F 1 "LED_CHRG" H 10500 5250 50  0000 C CNN
F 2 "LED_SMD:LED_0603_1608Metric" H 10400 5350 50  0001 C CNN
F 3 "~" H 10400 5350 50  0001 C CNN
	1    10400 5350
	0    1    1    0   
$EndComp
$Comp
L Device:LED_ALT D11
U 1 1 5D7F0BE5
P 10400 4950
F 0 "D11" H 10400 4850 50  0000 C CNN
F 1 "LED_PG" H 10450 5050 50  0000 C CNN
F 2 "LED_SMD:LED_0603_1608Metric" H 10400 4950 50  0001 C CNN
F 3 "~" H 10400 4950 50  0001 C CNN
	1    10400 4950
	0    -1   -1   0   
$EndComp
$Comp
L Device:C C13
U 1 1 5D781640
P 4950 6000
F 0 "C13" H 4850 6100 50  0000 L CNN
F 1 "0.1uF" H 4950 5900 50  0000 L CNN
F 2 "Capacitor_SMD:C_0603_1608Metric" H 4988 5850 50  0001 C CNN
F 3 "~" H 4950 6000 50  0001 C CNN
	1    4950 6000
	1    0    0    -1  
$EndComp
Wire Wire Line
	4950 6150 5050 6150
Connection ~ 4950 6150
$Comp
L Device:C C12
U 1 1 5D7820D5
P 4750 6000
F 0 "C12" H 4650 6100 50  0000 L CNN
F 1 "10uF" H 4550 5900 50  0000 L CNN
F 2 "Capacitor_SMD:C_0805_2012Metric" H 4788 5850 50  0001 C CNN
F 3 "~" H 4750 6000 50  0001 C CNN
	1    4750 6000
	1    0    0    -1  
$EndComp
Wire Wire Line
	4750 6150 4950 6150
$Comp
L power:GND #PWR029
U 1 1 5D78A876
P 4950 5850
F 0 "#PWR029" H 4950 5600 50  0001 C CNN
F 1 "GND" H 4955 5677 50  0000 C CNN
F 2 "" H 4950 5850 50  0001 C CNN
F 3 "" H 4950 5850 50  0001 C CNN
	1    4950 5850
	-1   0    0    1   
$EndComp
$Comp
L power:GND #PWR028
U 1 1 5D78A45E
P 4750 5850
F 0 "#PWR028" H 4750 5600 50  0001 C CNN
F 1 "GND" H 4755 5677 50  0000 C CNN
F 2 "" H 4750 5850 50  0001 C CNN
F 3 "" H 4750 5850 50  0001 C CNN
	1    4750 5850
	-1   0    0    1   
$EndComp
$Comp
L Switch:SW_Push SW1
U 1 1 5D78D11A
P 4050 5900
F 0 "SW1" V 4050 5900 50  0000 R CNN
F 1 "SW_Push" H 4200 6100 50  0000 R CNN
F 2 "Button_Switch_THT:SW_Tactile_SPST_Angled_PTS645Vx39-2LFS" H 4050 6100 50  0001 C CNN
F 3 "~" H 4050 6100 50  0001 C CNN
	1    4050 5900
	0    -1   -1   0   
$EndComp
$Comp
L power:+5VP #PWR025
U 1 1 5E450147
P 4050 5700
F 0 "#PWR025" H 4050 5550 50  0001 C CNN
F 1 "+5VP" H 4150 5750 50  0000 C CNN
F 2 "" H 4050 5700 50  0001 C CNN
F 3 "" H 4050 5700 50  0001 C CNN
	1    4050 5700
	1    0    0    -1  
$EndComp
$Comp
L Device:R R7
U 1 1 5D79053E
P 4150 6900
F 0 "R7" H 4000 6900 50  0000 L CNN
F 1 "100K" V 4150 6800 50  0000 L CNN
F 2 "Resistor_SMD:R_0603_1608Metric" V 4080 6900 50  0001 C CNN
F 3 "~" H 4150 6900 50  0001 C CNN
	1    4150 6900
	1    0    0    -1  
$EndComp
Connection ~ 4150 6550
$Comp
L power:GND #PWR024
U 1 1 5D792E40
P 3850 7100
F 0 "#PWR024" H 3850 6850 50  0001 C CNN
F 1 "GND" H 3855 6927 50  0000 C CNN
F 2 "" H 3850 7100 50  0001 C CNN
F 3 "" H 3850 7100 50  0001 C CNN
	1    3850 7100
	1    0    0    -1  
$EndComp
$Comp
L Device:C C11
U 1 1 5DDCFCC4
P 4000 6550
F 0 "C11" H 3900 6650 50  0000 L CNN
F 1 "0.1uF" H 4000 6450 50  0000 L CNN
F 2 "Capacitor_SMD:C_0603_1608Metric" H 4038 6400 50  0001 C CNN
F 3 "~" H 4000 6550 50  0001 C CNN
	1    4000 6550
	0    1    1    0   
$EndComp
Wire Wire Line
	4150 7100 4150 7050
Wire Wire Line
	3850 7100 3850 6550
Connection ~ 3850 7100
Wire Wire Line
	3850 7100 4150 7100
Wire Wire Line
	5650 6150 5750 6150
$Comp
L power:VCCQ #PWR058
U 1 1 5EA3EFAD
P 10850 4300
F 0 "#PWR058" H 10850 4150 50  0001 C CNN
F 1 "VCCQ" H 10867 4473 50  0000 C CNN
F 2 "" H 10850 4300 50  0001 C CNN
F 3 "" H 10850 4300 50  0001 C CNN
	1    10850 4300
	1    0    0    -1  
$EndComp
$Comp
L power:VCCQ #PWR056
U 1 1 5EA412EC
P 10400 4800
F 0 "#PWR056" H 10400 4650 50  0001 C CNN
F 1 "VCCQ" H 10417 4973 50  0000 C CNN
F 2 "" H 10400 4800 50  0001 C CNN
F 3 "" H 10400 4800 50  0001 C CNN
	1    10400 4800
	1    0    0    -1  
$EndComp
$Comp
L power:VCCQ #PWR057
U 1 1 5EA41BAD
P 10400 5500
F 0 "#PWR057" H 10400 5350 50  0001 C CNN
F 1 "VCCQ" H 10418 5673 50  0000 C CNN
F 2 "" H 10400 5500 50  0001 C CNN
F 3 "" H 10400 5500 50  0001 C CNN
	1    10400 5500
	-1   0    0    1   
$EndComp
Wire Wire Line
	6000 2050 6200 2050
Wire Wire Line
	6000 1450 6000 1550
Connection ~ 6000 1450
Wire Wire Line
	6000 2550 6000 2450
Wire Wire Line
	6000 2350 6000 2450
Connection ~ 6000 2450
Wire Wire Line
	6000 1250 6000 1350
Wire Wire Line
	6000 1350 6000 1450
Connection ~ 6000 1350
Connection ~ 6000 1250
$Comp
L midi-biodata-esp32:105450-0101-105450-0101 J3
U 1 1 5D96BA0E
P 5300 1950
F 0 "J3" H 5300 2917 50  0000 C CNN
F 1 "105450-0101" H 5300 2826 50  0000 C CNN
F 2 "105450-0101:MOLEX_105450-0101" H 5300 1950 50  0001 L BNN
F 3 "https://www.digikey.de/product-detail/en/molex/1054500101/WM12856CT-ND/5843891?utm_source=snapeda&utm_medium=aggregator&utm_campaign=symbol" H 5300 1950 50  0001 L BNN
F 4 "1054500101" H 5300 1950 50  0001 L BNN "Feld4"
F 5 "USB Shielded I/O Receptacle; Type C; Right Angle; Surface Mount; Gold over Nickel" H 5300 1950 50  0001 L BNN "Feld5"
F 6 "WM12856CT-ND" H 5300 1950 50  0001 L BNN "Feld6"
F 7 "None" H 5300 1950 50  0001 L BNN "Feld7"
F 8 "Molex" H 5300 1950 50  0001 L BNN "Feld8"
	1    5300 1950
	1    0    0    -1  
$EndComp
$Comp
L power:VCCQ #PWR041
U 1 1 5EBBF28A
P 7750 3650
F 0 "#PWR041" H 7750 3500 50  0001 C CNN
F 1 "VCCQ" H 7767 3823 50  0000 C CNN
F 2 "" H 7750 3650 50  0001 C CNN
F 3 "" H 7750 3650 50  0001 C CNN
	1    7750 3650
	1    0    0    -1  
$EndComp
$Comp
L power:+3V3 #PWR027
U 1 1 5D8693A8
P 4700 4900
F 0 "#PWR027" H 4700 4750 50  0001 C CNN
F 1 "+3V3" H 4715 5073 50  0000 C CNN
F 2 "" H 4700 4900 50  0001 C CNN
F 3 "" H 4700 4900 50  0001 C CNN
	1    4700 4900
	0    -1   -1   0   
$EndComp
Wire Wire Line
	5000 4900 5300 4900
Wire Wire Line
	5300 4700 5300 4900
Wire Wire Line
	5000 3600 5300 3600
Wire Wire Line
	5300 3600 5300 3700
Wire Notes Line
	4400 3400 4400 5200
Wire Notes Line
	4400 5200 5750 5200
Wire Notes Line
	5750 5200 5750 3400
Wire Notes Line
	5750 3400 4400 3400
Wire Notes Line
	11150 6500 11150 3200
Wire Notes Line
	11150 3200 6400 3200
Wire Notes Line
	6400 3200 6400 6500
Wire Notes Line
	6400 6500 11150 6500
Wire Notes Line
	6350 7600 6350 5550
Wire Notes Line
	6350 5550 3700 5550
Wire Notes Line
	3700 5550 3700 7600
Wire Notes Line
	3700 7600 6350 7600
Wire Notes Line
	3600 7750 500  7750
Wire Notes Line
	500  500  500  7750
Wire Notes Line
	3600 7750 3600 4200
Wire Notes Line
	500  4200 4050 4200
Wire Wire Line
	9950 4000 10150 4000
Connection ~ 10150 4000
Wire Wire Line
	10150 4000 10200 4000
Wire Wire Line
	10150 3700 9950 3700
Wire Wire Line
	9700 4300 10600 4300
Wire Wire Line
	10600 4000 10600 4300
Connection ~ 10600 4300
Wire Wire Line
	10600 4300 10850 4300
Wire Wire Line
	10150 3700 10350 3700
Connection ~ 10150 3700
Connection ~ 10350 3700
Wire Wire Line
	10350 3700 10600 3700
$Comp
L Device:C C23
U 1 1 5ECF1450
P 8450 6100
F 0 "C23" V 8500 6000 50  0000 C CNN
F 1 "10uF" H 8450 6100 50  0000 C CNN
F 2 "Capacitor_SMD:C_0805_2012Metric" H 8488 5950 50  0001 C CNN
F 3 "~" H 8450 6100 50  0001 C CNN
	1    8450 6100
	-1   0    0    1   
$EndComp
Connection ~ 8450 6250
Wire Wire Line
	8450 6250 8950 6250
$Comp
L power:GND #PWR0101
U 1 1 5ECF220F
P 8450 5950
F 0 "#PWR0101" H 8450 5700 50  0001 C CNN
F 1 "GND" H 8455 5777 50  0000 C CNN
F 2 "" H 8450 5950 50  0001 C CNN
F 3 "" H 8450 5950 50  0001 C CNN
	1    8450 5950
	-1   0    0    1   
$EndComp
Wire Wire Line
	4600 6150 4750 6150
Connection ~ 4750 6150
Wire Wire Line
	4600 6150 4600 5700
Wire Wire Line
	4600 5700 4050 5700
Connection ~ 4050 5700
Connection ~ 4700 6550
Wire Wire Line
	4150 6550 4350 6550
Wire Wire Line
	4400 6550 4350 6550
Connection ~ 4350 6550
Wire Wire Line
	4350 6550 4350 7300
Wire Wire Line
	4150 6550 4150 6750
$Comp
L bq24392:bq24392 U5
U 1 1 5EE68AE9
P 9950 2400
F 0 "U5" H 9450 1900 50  0000 C CNN
F 1 "bq24392" H 10300 1900 50  0000 C CNN
F 2 "bq24392:QFN50P200X150X60-10N" H 9950 2400 50  0001 C CNN
F 3 "" H 9950 2400 50  0001 C CNN
	1    9950 2400
	1    0    0    -1  
$EndComp
$Comp
L power:+5V #PWR0103
U 1 1 5EE6A70B
P 10550 2150
F 0 "#PWR0103" H 10550 2000 50  0001 C CNN
F 1 "+5V" H 10550 2300 50  0000 C CNN
F 2 "" H 10550 2150 50  0001 C CNN
F 3 "" H 10550 2150 50  0001 C CNN
	1    10550 2150
	0    1    1    0   
$EndComp
Text GLabel 8050 4150 0    50   Input ~ 0
EN1
NoConn ~ 2650 6150
NoConn ~ 2650 6250
NoConn ~ 2650 5350
NoConn ~ 2650 5250
NoConn ~ 2650 5150
$Comp
L power:VCC #PWR0105
U 1 1 5EEA1A6A
P 9950 2950
F 0 "#PWR0105" H 9950 2800 50  0001 C CNN
F 1 "VCC" V 9968 3077 50  0000 L CNN
F 2 "" H 9950 2950 50  0001 C CNN
F 3 "" H 9950 2950 50  0001 C CNN
	1    9950 2950
	-1   0    0    1   
$EndComp
Text GLabel 10550 1950 2    50   Input ~ 0
EN1
NoConn ~ 9300 2200
Text GLabel 10550 2550 2    50   Input ~ 0
D+
$Comp
L power:GND #PWR0106
U 1 1 5EEBA685
P 10550 2750
F 0 "#PWR0106" H 10550 2500 50  0001 C CNN
F 1 "GND" H 10555 2577 50  0000 C CNN
F 2 "" H 10550 2750 50  0001 C CNN
F 3 "" H 10550 2750 50  0001 C CNN
	1    10550 2750
	1    0    0    -1  
$EndComp
Text GLabel 10550 2350 2    50   Input ~ 0
D-
Text GLabel 1100 5750 0    50   Input ~ 0
DM_HOST
Text GLabel 1100 5650 0    50   Input ~ 0
DP_HOST
Wire Wire Line
	9000 750  9100 750 
Connection ~ 9100 750 
Wire Wire Line
	9100 750  9200 750 
$Comp
L Device:R R27
U 1 1 5EF831E1
P 9300 2800
F 0 "R27" V 9400 2750 50  0000 L CNN
F 1 "10K" V 9300 2750 50  0000 L CNN
F 2 "Resistor_SMD:R_0603_1608Metric" V 9230 2800 50  0001 C CNN
F 3 "~" H 9300 2800 50  0001 C CNN
	1    9300 2800
	1    0    0    -1  
$EndComp
$Comp
L Device:R R28
U 1 1 5EF83538
P 10250 1800
F 0 "R28" V 10150 1650 50  0000 L CNN
F 1 "100K" V 10250 1700 50  0000 L CNN
F 2 "Resistor_SMD:R_0603_1608Metric" V 10180 1800 50  0001 C CNN
F 3 "~" H 10250 1800 50  0001 C CNN
	1    10250 1800
	0    1    1    0   
$EndComp
Wire Wire Line
	9300 2950 9950 2950
Connection ~ 9950 2950
$Comp
L power:VCC #PWR0104
U 1 1 5EFAF750
P 10100 1800
F 0 "#PWR0104" H 10100 1650 50  0001 C CNN
F 1 "VCC" V 10118 1927 50  0000 L CNN
F 2 "" H 10100 1800 50  0001 C CNN
F 3 "" H 10100 1800 50  0001 C CNN
	1    10100 1800
	0    -1   -1   0   
$EndComp
$Comp
L Diode:1N4148 D13
U 1 1 5EFB03CD
P 10100 1950
F 0 "D13" H 10200 2000 50  0000 C CNN
F 1 "1N4148" H 9900 1950 50  0000 C CNN
F 2 "Diode_SMD:D_SOD-523" H 10100 1775 50  0001 C CNN
F 3 "https://assets.nexperia.com/documents/data-sheet/1N4148_1N4448.pdf" H 10100 1950 50  0001 C CNN
	1    10100 1950
	1    0    0    -1  
$EndComp
Wire Wire Line
	10250 1950 10400 1950
Wire Wire Line
	10400 1800 10400 1950
Connection ~ 10400 1950
Wire Wire Line
	10400 1950 10550 1950
Text GLabel 9300 2650 0    50   Input ~ 0
CHARGE_ENABLE
Text GLabel 8300 4000 1    50   Input ~ 0
CHARGE_ENABLE
Wire Wire Line
	8050 4150 8050 4250
Wire Wire Line
	8050 4250 8250 4250
Wire Wire Line
	8250 4250 8250 4300
Wire Wire Line
	8250 4300 8300 4300
$Comp
L Device:R R30
U 1 1 5F061201
P 8000 4750
F 0 "R30" V 7900 4750 50  0000 C CNN
F 1 "267K" V 8000 4750 50  0000 C CNN
F 2 "Resistor_SMD:R_0603_1608Metric" V 7930 4750 50  0001 C CNN
F 3 "~" H 8000 4750 50  0001 C CNN
	1    8000 4750
	-1   0    0    1   
$EndComp
$Comp
L Device:R R29
U 1 1 5F06748B
P 7800 4750
F 0 "R29" V 7700 4750 50  0000 C CNN
F 1 "100K" V 7800 4750 50  0000 C CNN
F 2 "Resistor_SMD:R_0603_1608Metric" V 7730 4750 50  0001 C CNN
F 3 "~" H 7800 4750 50  0001 C CNN
	1    7800 4750
	-1   0    0    1   
$EndComp
Wire Wire Line
	7800 4900 8000 4900
Connection ~ 8000 4900
Wire Wire Line
	8000 4900 8300 4900
$Comp
L power:+5V #PWR0107
U 1 1 5F0731FA
P 8000 4600
F 0 "#PWR0107" H 8000 4450 50  0001 C CNN
F 1 "+5V" H 8000 4750 50  0000 C CNN
F 2 "" H 8000 4600 50  0001 C CNN
F 3 "" H 8000 4600 50  0001 C CNN
	1    8000 4600
	0    1    1    0   
$EndComp
$Comp
L power:GND #PWR0108
U 1 1 5F073804
P 7800 4600
F 0 "#PWR0108" H 7800 4350 50  0001 C CNN
F 1 "GND" H 7805 4427 50  0000 C CNN
F 2 "" H 7800 4600 50  0001 C CNN
F 3 "" H 7800 4600 50  0001 C CNN
	1    7800 4600
	0    -1   -1   0   
$EndComp
Wire Wire Line
	8300 4700 8300 4800
$Comp
L power:GND #PWR0109
U 1 1 5F081EBC
P 8300 4200
F 0 "#PWR0109" H 8300 3950 50  0001 C CNN
F 1 "GND" H 8305 4027 50  0000 C CNN
F 2 "" H 8300 4200 50  0001 C CNN
F 3 "" H 8300 4200 50  0001 C CNN
	1    8300 4200
	-1   0    0    1   
$EndComp
$Comp
L Connector_Generic:Conn_02x02_Top_Bottom J6
U 1 1 5F1054AE
P 3100 4700
F 0 "J6" H 3150 4917 50  0000 C CNN
F 1 "Conn_02x02_Top_Bottom" H 3150 4826 50  0000 C CNN
F 2 "Connector_PinHeader_1.27mm:PinHeader_2x02_P1.27mm_Vertical" H 3100 4700 50  0001 C CNN
F 3 "~" H 3100 4700 50  0001 C CNN
	1    3100 4700
	1    0    0    -1  
$EndComp
$Comp
L power:GND #PWR0110
U 1 1 5F106571
P 3450 4750
F 0 "#PWR0110" H 3450 4500 50  0001 C CNN
F 1 "GND" H 3455 4577 50  0000 C CNN
F 2 "" H 3450 4750 50  0001 C CNN
F 3 "" H 3450 4750 50  0001 C CNN
	1    3450 4750
	0    -1   -1   0   
$EndComp
Wire Wire Line
	850  5050 1250 5050
Wire Wire Line
	2050 4250 2600 4250
Wire Wire Line
	2600 4250 2600 4800
Wire Wire Line
	2600 4800 2900 4800
Connection ~ 2050 4250
Wire Wire Line
	3400 4700 3400 4750
Wire Wire Line
	3450 4750 3400 4750
Connection ~ 3400 4750
Wire Wire Line
	3400 4750 3400 4800
Wire Wire Line
	4350 6100 4350 6550
Wire Wire Line
	4050 6100 4350 6100
Wire Wire Line
	10050 700  10200 700 
Wire Wire Line
	10050 700  10050 1450
Wire Wire Line
	9800 750  9900 750 
Wire Wire Line
	9900 750  9900 800 
Wire Wire Line
	9900 800  10200 800 
Wire Wire Line
	9550 1450 9800 1450
Connection ~ 9800 1450
Wire Wire Line
	9800 1450 10050 1450
$Comp
L Device:C C24
U 1 1 5F252F65
P 10950 2300
F 0 "C24" H 10950 2400 50  0000 R CNN
F 1 "0.1uF" V 11050 2300 50  0000 R CNN
F 2 "Capacitor_SMD:C_0603_1608Metric" H 10988 2150 50  0001 C CNN
F 3 "~" H 10950 2300 50  0001 C CNN
	1    10950 2300
	-1   0    0    1   
$EndComp
Wire Wire Line
	10550 2150 10550 2050
Wire Wire Line
	10550 2050 10950 2050
Wire Wire Line
	10950 2050 10950 2150
Connection ~ 10550 2150
Wire Wire Line
	10950 2450 10950 2750
Wire Wire Line
	10950 2750 10550 2750
Connection ~ 10550 2750
$Comp
L power:GND #PWR0102
U 1 1 5EDECB95
P 5600 7500
F 0 "#PWR0102" H 5600 7250 50  0001 C CNN
F 1 "GND" H 5605 7327 50  0000 C CNN
F 2 "" H 5600 7500 50  0001 C CNN
F 3 "" H 5600 7500 50  0001 C CNN
	1    5600 7500
	0    -1   -1   0   
$EndComp
$Comp
L Device:R R26
U 1 1 5EDAA8F3
P 5450 7500
F 0 "R26" V 5550 7450 50  0000 L CNN
F 1 "20K" V 5450 7450 50  0000 L CNN
F 2 "Resistor_SMD:R_0603_1608Metric" V 5380 7500 50  0001 C CNN
F 3 "~" H 5450 7500 50  0001 C CNN
	1    5450 7500
	0    -1   -1   0   
$EndComp
Wire Wire Line
	5300 7500 5300 7300
Connection ~ 5300 7300
Connection ~ 3150 1050
$Comp
L Device:R R25
U 1 1 5F30CDF5
P 8100 3850
F 0 "R25" V 8000 3850 50  0000 C CNN
F 1 "0R" V 8100 3850 50  0000 C CNN
F 2 "Resistor_SMD:R_0603_1608Metric" V 8030 3850 50  0001 C CNN
F 3 "~" H 8100 3850 50  0001 C CNN
	1    8100 3850
	-1   0    0    1   
$EndComp
Wire Wire Line
	8100 4000 8300 4000
$Comp
L power:GND #PWR0111
U 1 1 5F31A6AE
P 8100 3700
F 0 "#PWR0111" H 8100 3450 50  0001 C CNN
F 1 "GND" H 8105 3527 50  0000 C CNN
F 2 "" H 8100 3700 50  0001 C CNN
F 3 "" H 8100 3700 50  0001 C CNN
	1    8100 3700
	-1   0    0    1   
$EndComp
$Comp
L power:GND #PWR0112
U 1 1 5F3655F5
P 5400 2900
F 0 "#PWR0112" H 5400 2650 50  0001 C CNN
F 1 "GND" H 5400 2750 50  0000 C CNN
F 2 "" H 5400 2900 50  0001 C CNN
F 3 "" H 5400 2900 50  0001 C CNN
	1    5400 2900
	0    -1   -1   0   
$EndComp
Wire Wire Line
	5400 2950 5400 2900
Connection ~ 5400 2900
Wire Wire Line
	5400 2900 5400 2850
Wire Wire Line
	4600 1750 4550 1750
Wire Wire Line
	4550 1750 4550 2850
Wire Wire Line
	4550 2850 5100 2850
Wire Wire Line
	4600 1650 4500 1650
Wire Wire Line
	4500 1650 4500 2950
Wire Wire Line
	4500 2950 5100 2950
$EndSCHEMATC
