(export (version D)
  (design
    (source C:\Users\Manuel\Nextcloud\Projekte\kicad\midi-biodata-esp32\midi-biodata-esp32_rev6\midi-biodata-esp32_rev6.sch)
    (date "04.02.2020 18:50:47")
    (tool "Eeschema (5.1.4)-1")
    (sheet (number 1) (name /) (tstamps /)
      (title_block
        (title PlantWave)
        (company "13-37.org electronics")
        (rev 6)
        (date 2019-10-02)
        (source midi-biodata-esp32_rev6.sch)
        (comment (number 1) (value ""))
        (comment (number 2) (value ""))
        (comment (number 3) (value ""))
        (comment (number 4) (value "")))))
  (components
    (comp (ref C14)
      (value 10uF)
      (footprint Capacitor_SMD:C_0805_2012Metric)
      (datasheet ~)
      (libsource (lib Device) (part C) (description "Unpolarized capacitor"))
      (sheetpath (names /) (tstamps /))
      (tstamp 5D7821DB))
    (comp (ref C15)
      (value 0.1uF)
      (footprint Capacitor_SMD:C_0603_1608Metric)
      (datasheet ~)
      (libsource (lib Device) (part C) (description "Unpolarized capacitor"))
      (sheetpath (names /) (tstamps /))
      (tstamp 5D782780))
    (comp (ref D7)
      (value 1N4148)
      (footprint Diode_SMD:D_SOD-523)
      (datasheet https://assets.nexperia.com/documents/data-sheet/1N4148_1N4448.pdf)
      (libsource (lib Diode) (part 1N4148) (description "100V 0.15A standard switching diode, DO-35"))
      (sheetpath (names /) (tstamps /))
      (tstamp 5D78E4D4))
    (comp (ref D8)
      (value 1N4148)
      (footprint Diode_SMD:D_SOD-523)
      (datasheet https://assets.nexperia.com/documents/data-sheet/1N4148_1N4448.pdf)
      (libsource (lib Diode) (part 1N4148) (description "100V 0.15A standard switching diode, DO-35"))
      (sheetpath (names /) (tstamps /))
      (tstamp 5D793CA5))
    (comp (ref R14)
      (value _10K)
      (footprint Resistor_SMD:R_0603_1608Metric)
      (datasheet ~)
      (libsource (lib Device) (part R) (description Resistor))
      (sheetpath (names /) (tstamps /))
      (tstamp 5D79545A))
    (comp (ref Q2)
      (value S8050)
      (footprint midi-biodata-esp32_rev2:SOT-23-S8050)
      (datasheet http://www.unisonic.com.tw/datasheet/S8050.pdf)
      (libsource (lib Transistor_BJT) (part S8050) (description "0.7A Ic, 20V Vce, Low Voltage High Current NPN Transistor, TO-92"))
      (sheetpath (names /) (tstamps /))
      (tstamp 5D81EE68))
    (comp (ref Q1)
      (value S8050)
      (footprint midi-biodata-esp32_rev2:SOT-23-S8050)
      (datasheet http://www.unisonic.com.tw/datasheet/S8050.pdf)
      (libsource (lib Transistor_BJT) (part S8050) (description "0.7A Ic, 20V Vce, Low Voltage High Current NPN Transistor, TO-92"))
      (sheetpath (names /) (tstamps /))
      (tstamp 5D8386F6))
    (comp (ref R12)
      (value 12K)
      (footprint Resistor_SMD:R_0603_1608Metric)
      (datasheet ~)
      (libsource (lib Device) (part R) (description Resistor))
      (sheetpath (names /) (tstamps /))
      (tstamp 5D852021))
    (comp (ref R11)
      (value 12K)
      (footprint Resistor_SMD:R_0603_1608Metric)
      (datasheet ~)
      (libsource (lib Device) (part R) (description Resistor))
      (sheetpath (names /) (tstamps /))
      (tstamp 5D852185))
    (comp (ref R10)
      (value 12K)
      (footprint Resistor_SMD:R_0603_1608Metric)
      (datasheet ~)
      (libsource (lib Device) (part R) (description Resistor))
      (sheetpath (names /) (tstamps /))
      (tstamp 5D8630E4))
    (comp (ref R13)
      (value 12K)
      (footprint Resistor_SMD:R_0603_1608Metric)
      (datasheet ~)
      (libsource (lib Device) (part R) (description Resistor))
      (sheetpath (names /) (tstamps /))
      (tstamp 5D8632CF))
    (comp (ref J4)
      (value Conn_01x02_Male)
      (footprint Connector_JST:JST_PH_S2B-PH-K_1x02_P2.00mm_Horizontal)
      (datasheet ~)
      (libsource (lib Connector) (part Conn_01x02_Male) (description "Generic connector, single row, 01x02, script generated (kicad-library-utils/schlib/autogen/connector/)"))
      (sheetpath (names /) (tstamps /))
      (tstamp 5E12EF4F))
    (comp (ref FL1)
      (value 744231091)
      (footprint 744231091:FL_744231091)
      (datasheet Unavailable)
      (fields
        (field (name Feld4) None)
        (field (name Feld5) 744231091)
        (field (name Feld6) "Ferrite SMD [Würth Elektronik] 744231091 Ferrite SMD")
        (field (name Feld7) "Wurth Electronics")
        (field (name Feld8) "Horizontal-4 Würth Elektronik"))
      (libsource (lib 744231091) (part 744231091) (description ""))
      (sheetpath (names /) (tstamps /))
      (tstamp 5DAFFEE8))
    (comp (ref D9)
      (value WE-TVS_82400102)
      (footprint WE-TVS_82400102:WE-TVS_SOT23-6L)
      (datasheet Unavailable)
      (fields
        (field (name Feld4) None)
        (field (name Feld5) 82400102)
        (field (name Feld6) "TVS Diode Array WE-TVS 2-Ch+VDD 5V SOT23")
        (field (name Feld7) "Wurth Electronics")
        (field (name Feld8) "SOT-23 Würth Elektronik"))
      (libsource (lib WE-TVS_82400102) (part WE-TVS_82400102) (description ""))
      (sheetpath (names /) (tstamps /))
      (tstamp 5DA96F70))
    (comp (ref FB1)
      (value Ferrite_Bead)
      (footprint Diode_SMD:D_0603_1608Metric)
      (datasheet ~)
      (libsource (lib Device) (part Ferrite_Bead) (description "Ferrite bead"))
      (sheetpath (names /) (tstamps /))
      (tstamp 5DA8EC71))
    (comp (ref C21)
      (value 10uF)
      (footprint Capacitor_SMD:C_0805_2012Metric)
      (datasheet ~)
      (libsource (lib Device) (part C) (description "Unpolarized capacitor"))
      (sheetpath (names /) (tstamps /))
      (tstamp 5D94D4E9))
    (comp (ref R17)
      (value 22R)
      (footprint Resistor_SMD:R_0603_1608Metric)
      (datasheet ~)
      (libsource (lib Device) (part R_Small) (description "Resistor, small symbol"))
      (sheetpath (names /) (tstamps /))
      (tstamp 5D7E0921))
    (comp (ref R18)
      (value 22R)
      (footprint Resistor_SMD:R_0603_1608Metric)
      (datasheet ~)
      (libsource (lib Device) (part R_Small) (description "Resistor, small symbol"))
      (sheetpath (names /) (tstamps /))
      (tstamp 5D7DFDD4))
    (comp (ref C7)
      (value 0.1uF)
      (footprint Capacitor_SMD:C_0603_1608Metric)
      (datasheet ~)
      (libsource (lib Device) (part C) (description "Unpolarized capacitor"))
      (sheetpath (names /) (tstamps /))
      (tstamp 5DCAEE9D))
    (comp (ref D10)
      (value D_TVS_x2_AAC)
      (footprint Package_TO_SOT_SMD:SOT-23)
      (datasheet ~)
      (libsource (lib Device) (part D_TVS_x2_AAC) (description "Bidirectional dual transient-voltage-suppression diode, center on pin 3"))
      (sheetpath (names /) (tstamps /))
      (tstamp 5DD88053))
    (comp (ref FB2)
      (value Ferrite_Bead)
      (footprint Diode_SMD:D_0603_1608Metric)
      (datasheet ~)
      (libsource (lib Device) (part Ferrite_Bead) (description "Ferrite bead"))
      (sheetpath (names /) (tstamps /))
      (tstamp 5DD6B825))
    (comp (ref FB3)
      (value Ferrite_Bead)
      (footprint Diode_SMD:D_0603_1608Metric)
      (datasheet ~)
      (libsource (lib Device) (part Ferrite_Bead) (description "Ferrite bead"))
      (sheetpath (names /) (tstamps /))
      (tstamp 5DD6A72F))
    (comp (ref R21)
      (value 10R)
      (footprint Resistor_SMD:R_0603_1608Metric)
      (datasheet ~)
      (libsource (lib Device) (part R) (description Resistor))
      (sheetpath (names /) (tstamps /))
      (tstamp 5DD68DEC))
    (comp (ref R22)
      (value 33R)
      (footprint Resistor_SMD:R_0603_1608Metric)
      (datasheet ~)
      (libsource (lib Device) (part R) (description Resistor))
      (sheetpath (names /) (tstamps /))
      (tstamp 5DD66583))
    (comp (ref C4)
      (value 0.1uF)
      (footprint Capacitor_SMD:C_0603_1608Metric)
      (datasheet ~)
      (libsource (lib Device) (part C) (description "Unpolarized capacitor"))
      (sheetpath (names /) (tstamps /))
      (tstamp 5D9C0962))
    (comp (ref Y1)
      (value Crystal)
      (footprint ECS-80-18-30-JGN-TR:XTAL_ECS-80-18-30-JGN-TR)
      (datasheet ~)
      (libsource (lib Device) (part Crystal) (description "Two pin crystal"))
      (sheetpath (names /) (tstamps /))
      (tstamp 5D945468))
    (comp (ref R5)
      (value 1.2K)
      (footprint Resistor_SMD:R_0603_1608Metric)
      (datasheet ~)
      (libsource (lib Device) (part R) (description Resistor))
      (sheetpath (names /) (tstamps /))
      (tstamp 5DF6AAC0))
    (comp (ref R3)
      (value 10K)
      (footprint Resistor_SMD:R_0603_1608Metric)
      (datasheet ~)
      (libsource (lib Device) (part R) (description Resistor))
      (sheetpath (names /) (tstamps /))
      (tstamp 5D7B820C))
    (comp (ref C8)
      (value 1uF)
      (footprint Capacitor_SMD:C_0603_1608Metric)
      (datasheet ~)
      (libsource (lib Device) (part C) (description "Unpolarized capacitor"))
      (sheetpath (names /) (tstamps /))
      (tstamp 5D8F0D07))
    (comp (ref C9)
      (value 0.1uF)
      (footprint Capacitor_SMD:C_0603_1608Metric)
      (datasheet ~)
      (libsource (lib Device) (part C) (description "Unpolarized capacitor"))
      (sheetpath (names /) (tstamps /))
      (tstamp 5D8F00C8))
    (comp (ref C1)
      (value 0.1uF)
      (footprint Capacitor_SMD:C_0603_1608Metric)
      (datasheet ~)
      (libsource (lib Device) (part C) (description "Unpolarized capacitor"))
      (sheetpath (names /) (tstamps /))
      (tstamp 5D8BA836))
    (comp (ref R2)
      (value 100K)
      (footprint Resistor_SMD:R_0603_1608Metric)
      (datasheet ~)
      (libsource (lib Device) (part R) (description Resistor))
      (sheetpath (names /) (tstamps /))
      (tstamp 5D8B98BE))
    (comp (ref U2)
      (value ATmega16U2-MU)
      (footprint Package_DFN_QFN:QFN-32-1EP_5x5mm_P0.5mm_EP3.1x3.1mm)
      (datasheet http://ww1.microchip.com/downloads/en/DeviceDoc/doc7799.pdf)
      (libsource (lib MCU_Microchip_ATmega) (part ATmega16U2-MU) (description "16MHz, 16kB Flash, 512B SRAM, 512B EEPROM, QFN-32"))
      (sheetpath (names /) (tstamps /))
      (tstamp 5D79A148))
    (comp (ref R1)
      (value 100K)
      (footprint Resistor_SMD:R_0603_1608Metric)
      (datasheet ~)
      (libsource (lib Device) (part R) (description Resistor))
      (sheetpath (names /) (tstamps /))
      (tstamp 5D8A373B))
    (comp (ref D1)
      (value LED_STATUS)
      (footprint LED_SMD:LED_0603_1608Metric)
      (datasheet ~)
      (libsource (lib Device) (part LED_ALT) (description "Light emitting diode, filled shape"))
      (sheetpath (names /) (tstamps /))
      (tstamp 5D7CE48D))
    (comp (ref C5)
      (value 1uF)
      (footprint Capacitor_SMD:C_0603_1608Metric)
      (datasheet ~)
      (libsource (lib Device) (part C) (description "Unpolarized capacitor"))
      (sheetpath (names /) (tstamps /))
      (tstamp 5D7C8109))
    (comp (ref C3)
      (value 22pF)
      (footprint Capacitor_SMD:C_0603_1608Metric)
      (datasheet ~)
      (libsource (lib Device) (part C) (description "Unpolarized capacitor"))
      (sheetpath (names /) (tstamps /))
      (tstamp 5D7BC3FB))
    (comp (ref C2)
      (value 22pF)
      (footprint Capacitor_SMD:C_0603_1608Metric)
      (datasheet ~)
      (libsource (lib Device) (part C) (description "Unpolarized capacitor"))
      (sheetpath (names /) (tstamps /))
      (tstamp 5D7BBCF4))
    (comp (ref U3)
      (value AP7361C-U-DFN8)
      (footprint Package_DFN_QFN:DFN-8-1EP_3x3mm_P0.65mm_EP1.55x2.4mm)
      (datasheet http://www.zlgmcu.com/Sipex/LDO/PDF/spx2920.pdf)
      (libsource (lib midi-biodata-esp32) (part AP7361C-U-DFN8-Regulator_Linear) (description ""))
      (sheetpath (names /) (tstamps /))
      (tstamp 5E4947E8))
    (comp (ref R6)
      (value 12K)
      (footprint Resistor_SMD:R_0603_1608Metric)
      (datasheet ~)
      (libsource (lib Device) (part R) (description Resistor))
      (sheetpath (names /) (tstamps /))
      (tstamp 5DFE3ADD))
    (comp (ref C19)
      (value 0.1uF)
      (footprint Capacitor_SMD:C_0603_1608Metric)
      (datasheet ~)
      (libsource (lib Device) (part C) (description "Unpolarized capacitor"))
      (sheetpath (names /) (tstamps /))
      (tstamp 5E236BA8))
    (comp (ref J5)
      (value SJ-3523-SMT)
      (footprint SJ-3523-SMT:CUI_SJ-3523-SMT)
      (datasheet None)
      (fields
        (field (name Feld4) SJ-3523-SMT)
        (field (name Feld5) "3.5 mm Low Profile Surface Mount Stereo Jack, 3 Pin Right-Angle")
        (field (name Feld6) None)
        (field (name Feld7) "CUI Devices")
        (field (name Feld8) Unavailable))
      (libsource (lib SJ-3523-SMT) (part SJ-3523-SMT) (description ""))
      (sheetpath (names /) (tstamps /))
      (tstamp 5DCC1D7F))
    (comp (ref C6)
      (value 22uF)
      (footprint Capacitor_SMD:C_0805_2012Metric)
      (datasheet ~)
      (libsource (lib Device) (part C) (description "Unpolarized capacitor"))
      (sheetpath (names /) (tstamps /))
      (tstamp 5E170D25))
    (comp (ref J2)
      (value Conn_01x03_Female)
      (footprint Connector_PinSocket_2.54mm:PinSocket_1x03_P2.54mm_Vertical)
      (datasheet ~)
      (libsource (lib Connector) (part Conn_01x03_Female) (description "Generic connector, single row, 01x03, script generated (kicad-library-utils/schlib/autogen/connector/)"))
      (sheetpath (names /) (tstamps /))
      (tstamp 5DF254DA))
    (comp (ref J1)
      (value Conn_01x04_Male)
      (footprint Connector_PinSocket_2.54mm:PinSocket_1x04_P2.54mm_Vertical)
      (datasheet ~)
      (libsource (lib Connector) (part Conn_01x04_Female) (description "Generic connector, single row, 01x04, script generated (kicad-library-utils/schlib/autogen/connector/)"))
      (sheetpath (names /) (tstamps /))
      (tstamp 5DFBE300))
    (comp (ref D4)
      (value LED_3)
      (footprint LED_SMD:LED_1206_3216Metric)
      (datasheet ~)
      (libsource (lib Device) (part LED_ALT) (description "Light emitting diode, filled shape"))
      (sheetpath (names /) (tstamps /))
      (tstamp 5E00CA41))
    (comp (ref D6)
      (value LED_5)
      (footprint LED_SMD:LED_1206_3216Metric)
      (datasheet ~)
      (libsource (lib Device) (part LED_ALT) (description "Light emitting diode, filled shape"))
      (sheetpath (names /) (tstamps /))
      (tstamp 5E00D291))
    (comp (ref D3)
      (value LED_2)
      (footprint LED_SMD:LED_1206_3216Metric)
      (datasheet ~)
      (libsource (lib Device) (part LED_ALT) (description "Light emitting diode, filled shape"))
      (sheetpath (names /) (tstamps /))
      (tstamp 5E00C425))
    (comp (ref RN1)
      (value 4x150R)
      (footprint Resistor_SMD:R_Array_Concave_4x0603)
      (datasheet ~)
      (libsource (lib Device) (part R_Pack04) (description "4 resistor network, parallel topology, DIP package"))
      (sheetpath (names /) (tstamps /))
      (tstamp 5E010D03))
    (comp (ref U1)
      (value ESP32-WROOM-32D)
      (footprint RF_Module:ESP32-WROOM-32)
      (datasheet https://www.espressif.com/sites/default/files/documentation/esp32-wroom-32_datasheet_en.pdf)
      (libsource (lib midi-biodata-esp32) (part ESP32-WROOM-32D) (description "RF Module, ESP32-D0WD SoC, Wi-Fi 802.11b/g/n, Bluetooth, BLE, 32-bit, 2.7-3.6V, onboard antenna, SMD"))
      (sheetpath (names /) (tstamps /))
      (tstamp 5D7974CA))
    (comp (ref R4)
      (value 150R)
      (footprint Resistor_SMD:R_0603_1608Metric)
      (datasheet ~)
      (libsource (lib Device) (part R) (description Resistor))
      (sheetpath (names /) (tstamps /))
      (tstamp 5E05E85F))
    (comp (ref D5)
      (value LED_4)
      (footprint LED_SMD:LED_1206_3216Metric)
      (datasheet ~)
      (libsource (lib Device) (part LED_ALT) (description "Light emitting diode, filled shape"))
      (sheetpath (names /) (tstamps /))
      (tstamp 5E00CEA3))
    (comp (ref D2)
      (value LED_1)
      (footprint LED_SMD:LED_1206_3216Metric)
      (datasheet ~)
      (libsource (lib Device) (part LED_ALT) (description "Light emitting diode, filled shape"))
      (sheetpath (names /) (tstamps /))
      (tstamp 5E00B8E1))
    (comp (ref H1)
      (value MountingHole)
      (footprint MountingHole:MountingHole_3mm)
      (datasheet ~)
      (libsource (lib Mechanical) (part MountingHole) (description "Mounting Hole without connection"))
      (sheetpath (names /) (tstamps /))
      (tstamp 5E1B0684))
    (comp (ref H2)
      (value MountingHole)
      (footprint MountingHole:MountingHole_3mm)
      (datasheet ~)
      (libsource (lib Mechanical) (part MountingHole) (description "Mounting Hole without connection"))
      (sheetpath (names /) (tstamps /))
      (tstamp 5E1B2044))
    (comp (ref H3)
      (value MountingHole)
      (footprint MountingHole:MountingHole_3mm)
      (datasheet ~)
      (libsource (lib Mechanical) (part MountingHole) (description "Mounting Hole without connection"))
      (sheetpath (names /) (tstamps /))
      (tstamp 5E1F252F))
    (comp (ref C10)
      (value 0.1uF)
      (footprint Capacitor_SMD:C_0603_1608Metric)
      (datasheet ~)
      (libsource (lib Device) (part C) (description "Unpolarized capacitor"))
      (sheetpath (names /) (tstamps /))
      (tstamp 5E23A041))
    (comp (ref R8)
      (value 5,1K)
      (footprint Resistor_SMD:R_0603_1608Metric)
      (datasheet ~)
      (libsource (lib Device) (part R) (description Resistor))
      (sheetpath (names /) (tstamps /))
      (tstamp 5E43E08A))
    (comp (ref R9)
      (value 5,1K)
      (footprint Resistor_SMD:R_0603_1608Metric)
      (datasheet ~)
      (libsource (lib Device) (part R) (description Resistor))
      (sheetpath (names /) (tstamps /))
      (tstamp 5E4672F1))
    (comp (ref R15)
      (value 20K)
      (footprint Resistor_SMD:R_0603_1608Metric)
      (datasheet ~)
      (libsource (lib Device) (part R) (description Resistor))
      (sheetpath (names /) (tstamps /))
      (tstamp 5E4C6C06))
    (comp (ref R16)
      (value 20K)
      (footprint Resistor_SMD:R_0603_1608Metric)
      (datasheet ~)
      (libsource (lib Device) (part R) (description Resistor))
      (sheetpath (names /) (tstamps /))
      (tstamp 5E4C5FB4))
    (comp (ref C17)
      (value 1uF)
      (footprint Capacitor_SMD:C_0603_1608Metric)
      (datasheet ~)
      (libsource (lib Device) (part C) (description "Unpolarized capacitor"))
      (sheetpath (names /) (tstamps /))
      (tstamp 5E45B3D7))
    (comp (ref C22)
      (value 0.1uF)
      (footprint Capacitor_SMD:C_0603_1608Metric)
      (datasheet ~)
      (libsource (lib Device) (part C) (description "Unpolarized capacitor"))
      (sheetpath (names /) (tstamps /))
      (tstamp 5E36853A))
    (comp (ref C16)
      (value 0.033uF)
      (footprint Capacitor_SMD:C_0603_1608Metric)
      (datasheet ~)
      (libsource (lib Device) (part C) (description "Unpolarized capacitor"))
      (sheetpath (names /) (tstamps /))
      (tstamp 5E353B96))
    (comp (ref L1)
      (value 1uH)
      (footprint 1239AS-H-1R0M_P2:INDC2520X120N)
      (datasheet ~)
      (libsource (lib Device) (part L) (description Inductor))
      (sheetpath (names /) (tstamps /))
      (tstamp 5E33EEF2))
    (comp (ref U4)
      (value BQ24253RGER)
      (footprint BQ24250RGER:QFN50P400X400X100-25N)
      (datasheet "Texas Instruments")
      (libsource (lib BQ24250RGER) (part BQ24250RGER) (description ""))
      (sheetpath (names /) (tstamps /))
      (tstamp 5E288444))
    (comp (ref R19)
      (value 250R)
      (footprint Resistor_SMD:R_0603_1608Metric)
      (datasheet ~)
      (libsource (lib Device) (part R) (description Resistor))
      (sheetpath (names /) (tstamps /))
      (tstamp 5DBCE7B7))
    (comp (ref R20)
      (value 267R)
      (footprint Resistor_SMD:R_0603_1608Metric)
      (datasheet ~)
      (libsource (lib Device) (part R) (description Resistor))
      (sheetpath (names /) (tstamps /))
      (tstamp 5DCAB2CE))
    (comp (ref C20)
      (value 0.1uF)
      (footprint Capacitor_SMD:C_0603_1608Metric)
      (datasheet ~)
      (libsource (lib Device) (part C) (description "Unpolarized capacitor"))
      (sheetpath (names /) (tstamps /))
      (tstamp 5E3B49E4))
    (comp (ref C18)
      (value 10uF)
      (footprint Capacitor_SMD:C_0805_2012Metric)
      (datasheet ~)
      (libsource (lib Device) (part C) (description "Unpolarized capacitor"))
      (sheetpath (names /) (tstamps /))
      (tstamp 5E39359C))
    (comp (ref R24)
      (value 1.2K)
      (footprint Resistor_SMD:R_0603_1608Metric)
      (datasheet ~)
      (libsource (lib Device) (part R) (description Resistor))
      (sheetpath (names /) (tstamps /))
      (tstamp 5DBECB2E))
    (comp (ref R23)
      (value 1.2K)
      (footprint Resistor_SMD:R_0603_1608Metric)
      (datasheet ~)
      (libsource (lib Device) (part R) (description Resistor))
      (sheetpath (names /) (tstamps /))
      (tstamp 5DBE8EAF))
    (comp (ref D12)
      (value LED_CHRG)
      (footprint LED_SMD:LED_0603_1608Metric)
      (datasheet ~)
      (libsource (lib Device) (part LED_ALT) (description "Light emitting diode, filled shape"))
      (sheetpath (names /) (tstamps /))
      (tstamp 5D7F0CDF))
    (comp (ref D11)
      (value LED_PG)
      (footprint LED_SMD:LED_0603_1608Metric)
      (datasheet ~)
      (libsource (lib Device) (part LED_ALT) (description "Light emitting diode, filled shape"))
      (sheetpath (names /) (tstamps /))
      (tstamp 5D7F0BE5))
    (comp (ref C13)
      (value 0.1uF)
      (footprint Capacitor_SMD:C_0603_1608Metric)
      (datasheet ~)
      (libsource (lib Device) (part C) (description "Unpolarized capacitor"))
      (sheetpath (names /) (tstamps /))
      (tstamp 5D781640))
    (comp (ref C12)
      (value 10uF)
      (footprint Capacitor_SMD:C_0805_2012Metric)
      (datasheet ~)
      (libsource (lib Device) (part C) (description "Unpolarized capacitor"))
      (sheetpath (names /) (tstamps /))
      (tstamp 5D7820D5))
    (comp (ref SW1)
      (value SW_Push)
      (footprint Button_Switch_THT:SW_Tactile_SPST_Angled_PTS645Vx39-2LFS)
      (datasheet ~)
      (libsource (lib Switch) (part SW_Push) (description "Push button switch, generic, two pins"))
      (sheetpath (names /) (tstamps /))
      (tstamp 5D78D11A))
    (comp (ref R7)
      (value _100K)
      (footprint Resistor_SMD:R_0603_1608Metric)
      (datasheet ~)
      (libsource (lib Device) (part R) (description Resistor))
      (sheetpath (names /) (tstamps /))
      (tstamp 5D79053E))
    (comp (ref C11)
      (value _0.1uF)
      (footprint Capacitor_SMD:C_0603_1608Metric)
      (datasheet ~)
      (libsource (lib Device) (part C) (description "Unpolarized capacitor"))
      (sheetpath (names /) (tstamps /))
      (tstamp 5DDCFCC4))
    (comp (ref J3)
      (value 105450-0101)
      (footprint 105450-0101:MOLEX_105450-0101)
      (datasheet https://www.digikey.de/product-detail/en/molex/1054500101/WM12856CT-ND/5843891?utm_source=snapeda&utm_medium=aggregator&utm_campaign=symbol)
      (fields
        (field (name Feld4) 1054500101)
        (field (name Feld5) "USB Shielded I/O Receptacle; Type C; Right Angle; Surface Mount; Gold over Nickel")
        (field (name Feld6) WM12856CT-ND)
        (field (name Feld7) None)
        (field (name Feld8) Molex))
      (libsource (lib midi-biodata-esp32) (part 105450-0101-105450-0101) (description ""))
      (sheetpath (names /) (tstamps /))
      (tstamp 5D96BA0E))
    (comp (ref C23)
      (value 10uF)
      (footprint Capacitor_SMD:C_0805_2012Metric)
      (datasheet ~)
      (libsource (lib Device) (part C) (description "Unpolarized capacitor"))
      (sheetpath (names /) (tstamps /))
      (tstamp 5ECF1450))
    (comp (ref U5)
      (value bq24392)
      (footprint bq24392:QFN50P200X150X60-10N)
      (libsource (lib bq24392) (part bq24392) (description ""))
      (sheetpath (names /) (tstamps /))
      (tstamp 5EE68AE9))
    (comp (ref R27)
      (value 10K)
      (footprint Resistor_SMD:R_0603_1608Metric)
      (datasheet ~)
      (libsource (lib Device) (part R) (description Resistor))
      (sheetpath (names /) (tstamps /))
      (tstamp 5EF831E1))
    (comp (ref R28)
      (value 100K)
      (footprint Resistor_SMD:R_0603_1608Metric)
      (datasheet ~)
      (libsource (lib Device) (part R) (description Resistor))
      (sheetpath (names /) (tstamps /))
      (tstamp 5EF83538))
    (comp (ref D13)
      (value 1N4148)
      (footprint Diode_SMD:D_SOD-523)
      (datasheet https://assets.nexperia.com/documents/data-sheet/1N4148_1N4448.pdf)
      (libsource (lib Diode) (part 1N4148) (description "100V 0.15A standard switching diode, DO-35"))
      (sheetpath (names /) (tstamps /))
      (tstamp 5EFB03CD))
    (comp (ref R30)
      (value 267K)
      (footprint Resistor_SMD:R_0603_1608Metric)
      (datasheet ~)
      (libsource (lib Device) (part R) (description Resistor))
      (sheetpath (names /) (tstamps /))
      (tstamp 5F061201))
    (comp (ref R29)
      (value 100K)
      (footprint Resistor_SMD:R_0603_1608Metric)
      (datasheet ~)
      (libsource (lib Device) (part R) (description Resistor))
      (sheetpath (names /) (tstamps /))
      (tstamp 5F06748B))
    (comp (ref J6)
      (value Conn_02x02_Top_Bottom)
      (footprint Connector_PinHeader_1.27mm:PinHeader_2x02_P1.27mm_Vertical)
      (datasheet ~)
      (libsource (lib Connector_Generic) (part Conn_02x02_Top_Bottom) (description "Generic connector, double row, 02x02, top/bottom pin numbering scheme (row 1: 1...pins_per_row, row2: pins_per_row+1 ... num_pins), script generated (kicad-library-utils/schlib/autogen/connector/)"))
      (sheetpath (names /) (tstamps /))
      (tstamp 5F1054AE))
    (comp (ref C24)
      (value 0.1uF)
      (footprint Capacitor_SMD:C_0603_1608Metric)
      (datasheet ~)
      (libsource (lib Device) (part C) (description "Unpolarized capacitor"))
      (sheetpath (names /) (tstamps /))
      (tstamp 5F252F65))
    (comp (ref R26)
      (value 20K)
      (footprint Resistor_SMD:R_0603_1608Metric)
      (datasheet ~)
      (libsource (lib Device) (part R) (description Resistor))
      (sheetpath (names /) (tstamps /))
      (tstamp 5EDAA8F3))
    (comp (ref R25)
      (value 0R)
      (footprint Resistor_SMD:R_0603_1608Metric)
      (datasheet ~)
      (libsource (lib Device) (part R) (description Resistor))
      (sheetpath (names /) (tstamps /))
      (tstamp 5F30CDF5)))
  (libparts
    (libpart (lib 744231091) (part 744231091)
      (fields
        (field (name Reference) FL)
        (field (name Value) 744231091)
        (field (name Footprint) FL_744231091)
        (field (name Datasheet) Unavailable)
        (field (name Feld4) None)
        (field (name Feld5) 744231091)
        (field (name Feld6) "Ferrite SMD [Würth Elektronik] 744231091 Ferrite SMD")
        (field (name Feld7) "Wurth Electronics")
        (field (name Feld8) "Horizontal-4 Würth Elektronik"))
      (pins
        (pin (num 1) (name 1) (type passive))
        (pin (num 2) (name 2) (type passive))
        (pin (num 3) (name 3) (type passive))
        (pin (num 4) (name 4) (type passive))))
    (libpart (lib BQ24250RGER) (part BQ24250RGER)
      (fields
        (field (name Reference) U)
        (field (name Value) BQ24250RGER)
        (field (name Footprint) QFN50P400X400X100-25N)
        (field (name Datasheet) "Texas Instruments"))
      (pins
        (pin (num 1) (name CE) (type input))
        (pin (num 2) (name EN1) (type input))
        (pin (num 3) (name EN2) (type input))
        (pin (num 4) (name AGND) (type power_in))
        (pin (num 5) (name SDA) (type BiDi))
        (pin (num 6) (name SCL) (type input))
        (pin (num 7) (name STAT) (type output))
        (pin (num 8) (name INT) (type output))
        (pin (num 9) (name TS) (type input))
        (pin (num 10) (name ISET) (type input))
        (pin (num 11) (name BAT) (type BiDi))
        (pin (num 12) (name BAT@1) (type BiDi))
        (pin (num 13) (name SYS) (type input))
        (pin (num 14) (name SYS@1) (type input))
        (pin (num 15) (name PGND) (type power_in))
        (pin (num 16) (name PGND@1) (type power_in))
        (pin (num 17) (name SW) (type output))
        (pin (num 18) (name SW@1) (type output))
        (pin (num 19) (name IN) (type power_in))
        (pin (num 20) (name PMID) (type input))
        (pin (num 21) (name BOOT) (type input))
        (pin (num 22) (name ILIM) (type input))
        (pin (num 23) (name VDPM) (type input))
        (pin (num 24) (name LDO) (type output))
        (pin (num 25) (name THERMALPAD) (type power_in))))
    (libpart (lib Connector) (part Conn_01x02_Male)
      (description "Generic connector, single row, 01x02, script generated (kicad-library-utils/schlib/autogen/connector/)")
      (docs ~)
      (footprints
        (fp Connector*:*_1x??_*))
      (fields
        (field (name Reference) J)
        (field (name Value) Conn_01x02_Male))
      (pins
        (pin (num 1) (name Pin_1) (type passive))
        (pin (num 2) (name Pin_2) (type passive))))
    (libpart (lib Connector) (part Conn_01x03_Female)
      (description "Generic connector, single row, 01x03, script generated (kicad-library-utils/schlib/autogen/connector/)")
      (docs ~)
      (footprints
        (fp Connector*:*_1x??_*))
      (fields
        (field (name Reference) J)
        (field (name Value) Conn_01x03_Female))
      (pins
        (pin (num 1) (name Pin_1) (type passive))
        (pin (num 2) (name Pin_2) (type passive))
        (pin (num 3) (name Pin_3) (type passive))))
    (libpart (lib Connector) (part Conn_01x04_Female)
      (description "Generic connector, single row, 01x04, script generated (kicad-library-utils/schlib/autogen/connector/)")
      (docs ~)
      (footprints
        (fp Connector*:*_1x??_*))
      (fields
        (field (name Reference) J)
        (field (name Value) Conn_01x04_Female))
      (pins
        (pin (num 1) (name Pin_1) (type passive))
        (pin (num 2) (name Pin_2) (type passive))
        (pin (num 3) (name Pin_3) (type passive))
        (pin (num 4) (name Pin_4) (type passive))))
    (libpart (lib Connector_Generic) (part Conn_02x02_Top_Bottom)
      (description "Generic connector, double row, 02x02, top/bottom pin numbering scheme (row 1: 1...pins_per_row, row2: pins_per_row+1 ... num_pins), script generated (kicad-library-utils/schlib/autogen/connector/)")
      (docs ~)
      (footprints
        (fp Connector*:*_2x??_*))
      (fields
        (field (name Reference) J)
        (field (name Value) Conn_02x02_Top_Bottom))
      (pins
        (pin (num 1) (name Pin_1) (type passive))
        (pin (num 2) (name Pin_2) (type passive))
        (pin (num 3) (name Pin_3) (type passive))
        (pin (num 4) (name Pin_4) (type passive))))
    (libpart (lib Device) (part C)
      (description "Unpolarized capacitor")
      (docs ~)
      (footprints
        (fp C_*))
      (fields
        (field (name Reference) C)
        (field (name Value) C))
      (pins
        (pin (num 1) (name ~) (type passive))
        (pin (num 2) (name ~) (type passive))))
    (libpart (lib Device) (part Crystal)
      (description "Two pin crystal")
      (docs ~)
      (footprints
        (fp Crystal*))
      (fields
        (field (name Reference) Y)
        (field (name Value) Crystal))
      (pins
        (pin (num 1) (name 1) (type passive))
        (pin (num 2) (name 2) (type passive))))
    (libpart (lib Device) (part D_TVS_x2_AAC)
      (description "Bidirectional dual transient-voltage-suppression diode, center on pin 3")
      (docs ~)
      (fields
        (field (name Reference) D)
        (field (name Value) D_TVS_x2_AAC))
      (pins
        (pin (num 1) (name A1) (type passive))
        (pin (num 2) (name A2) (type passive))
        (pin (num 3) (name common) (type input))))
    (libpart (lib Device) (part Ferrite_Bead)
      (description "Ferrite bead")
      (docs ~)
      (footprints
        (fp Inductor_*)
        (fp L_*)
        (fp *Ferrite*))
      (fields
        (field (name Reference) FB)
        (field (name Value) Ferrite_Bead))
      (pins
        (pin (num 1) (name ~) (type passive))
        (pin (num 2) (name ~) (type passive))))
    (libpart (lib Device) (part L)
      (description Inductor)
      (docs ~)
      (footprints
        (fp Choke_*)
        (fp *Coil*)
        (fp Inductor_*)
        (fp L_*))
      (fields
        (field (name Reference) L)
        (field (name Value) L))
      (pins
        (pin (num 1) (name 1) (type passive))
        (pin (num 2) (name 2) (type passive))))
    (libpart (lib Device) (part LED_ALT)
      (description "Light emitting diode, filled shape")
      (docs ~)
      (footprints
        (fp LED*)
        (fp LED_SMD:*)
        (fp LED_THT:*))
      (fields
        (field (name Reference) D)
        (field (name Value) LED_ALT))
      (pins
        (pin (num 1) (name K) (type passive))
        (pin (num 2) (name A) (type passive))))
    (libpart (lib Device) (part R)
      (description Resistor)
      (docs ~)
      (footprints
        (fp R_*))
      (fields
        (field (name Reference) R)
        (field (name Value) R))
      (pins
        (pin (num 1) (name ~) (type passive))
        (pin (num 2) (name ~) (type passive))))
    (libpart (lib Device) (part R_Pack04)
      (description "4 resistor network, parallel topology, DIP package")
      (docs ~)
      (footprints
        (fp DIP*)
        (fp SOIC*))
      (fields
        (field (name Reference) RN)
        (field (name Value) R_Pack04))
      (pins
        (pin (num 1) (name R1.1) (type passive))
        (pin (num 2) (name R2.1) (type passive))
        (pin (num 3) (name R3.1) (type passive))
        (pin (num 4) (name R4.1) (type passive))
        (pin (num 5) (name R4.2) (type passive))
        (pin (num 6) (name R3.2) (type passive))
        (pin (num 7) (name R2.2) (type passive))
        (pin (num 8) (name R1.2) (type passive))))
    (libpart (lib Device) (part R_Small)
      (description "Resistor, small symbol")
      (docs ~)
      (footprints
        (fp R_*))
      (fields
        (field (name Reference) R)
        (field (name Value) R_Small))
      (pins
        (pin (num 1) (name ~) (type passive))
        (pin (num 2) (name ~) (type passive))))
    (libpart (lib Diode) (part 1N4148)
      (aliases
        (alias 1N4448)
        (alias 1N4149)
        (alias 1N4151)
        (alias 1N914)
        (alias BA243)
        (alias BA244)
        (alias BA282)
        (alias BA283)
        (alias BAV17)
        (alias BAV18)
        (alias BAV19)
        (alias BAV20)
        (alias BAV21)
        (alias BAW75)
        (alias BAW76)
        (alias BAY93))
      (description "100V 0.15A standard switching diode, DO-35")
      (docs https://assets.nexperia.com/documents/data-sheet/1N4148_1N4448.pdf)
      (footprints
        (fp D*DO?35*))
      (fields
        (field (name Reference) D)
        (field (name Value) 1N4148)
        (field (name Footprint) Diode_THT:D_DO-35_SOD27_P7.62mm_Horizontal))
      (pins
        (pin (num 1) (name K) (type passive))
        (pin (num 2) (name A) (type passive))))
    (libpart (lib MCU_Microchip_ATmega) (part ATmega8U2-MU)
      (aliases
        (alias ATmega16U2-MU)
        (alias ATmega32U2-MU))
      (description "16MHz, 8kB Flash, 512B SRAM, 512B EEPROM, QFN-32")
      (docs http://ww1.microchip.com/downloads/en/DeviceDoc/doc7799.pdf)
      (footprints
        (fp QFN*1EP*5x5mm*P0.5mm*))
      (fields
        (field (name Reference) U)
        (field (name Value) ATmega8U2-MU)
        (field (name Footprint) Package_DFN_QFN:QFN-32-1EP_5x5mm_P0.5mm_EP3.1x3.1mm))
      (pins
        (pin (num 1) (name XTAL1) (type input))
        (pin (num 2) (name PC0/XTAL2) (type 3state))
        (pin (num 3) (name GND) (type power_in))
        (pin (num 4) (name VCC) (type power_in))
        (pin (num 5) (name PC2) (type 3state))
        (pin (num 6) (name PD0) (type 3state))
        (pin (num 7) (name PD1) (type 3state))
        (pin (num 8) (name PD2) (type 3state))
        (pin (num 9) (name PD3) (type 3state))
        (pin (num 10) (name PD4) (type 3state))
        (pin (num 11) (name PD5) (type 3state))
        (pin (num 12) (name PD6) (type 3state))
        (pin (num 13) (name ~HWB~/PD7) (type 3state))
        (pin (num 14) (name PB0) (type 3state))
        (pin (num 15) (name PB1) (type 3state))
        (pin (num 16) (name PB2) (type 3state))
        (pin (num 17) (name PB3) (type 3state))
        (pin (num 18) (name PB4) (type 3state))
        (pin (num 19) (name PB5) (type 3state))
        (pin (num 20) (name PB6) (type 3state))
        (pin (num 21) (name PB7) (type 3state))
        (pin (num 22) (name PC7) (type 3state))
        (pin (num 23) (name PC6) (type 3state))
        (pin (num 24) (name PC1/~RESET) (type 3state))
        (pin (num 25) (name PC5) (type 3state))
        (pin (num 26) (name PC4) (type 3state))
        (pin (num 27) (name UCAP) (type passive))
        (pin (num 28) (name UGND) (type power_in))
        (pin (num 29) (name D+) (type BiDi))
        (pin (num 30) (name D-) (type BiDi))
        (pin (num 31) (name UVCC) (type power_in))
        (pin (num 32) (name AVCC) (type power_in))
        (pin (num 33) (name GND) (type passive))))
    (libpart (lib Mechanical) (part MountingHole)
      (description "Mounting Hole without connection")
      (docs ~)
      (footprints
        (fp MountingHole*))
      (fields
        (field (name Reference) H)
        (field (name Value) MountingHole)))
    (libpart (lib SJ-3523-SMT) (part SJ-3523-SMT)
      (fields
        (field (name Reference) J)
        (field (name Value) SJ-3523-SMT)
        (field (name Footprint) CUI_SJ-3523-SMT)
        (field (name Datasheet) None)
        (field (name Feld4) SJ-3523-SMT)
        (field (name Feld5) "3.5 mm Low Profile Surface Mount Stereo Jack, 3 Pin Right-Angle")
        (field (name Feld6) None)
        (field (name Feld7) "CUI Devices")
        (field (name Feld8) Unavailable))
      (pins
        (pin (num 1) (name 1) (type passive))
        (pin (num 2) (name 2) (type passive))
        (pin (num 3) (name 3) (type passive))))
    (libpart (lib Switch) (part SW_Push)
      (description "Push button switch, generic, two pins")
      (docs ~)
      (fields
        (field (name Reference) SW)
        (field (name Value) SW_Push))
      (pins
        (pin (num 1) (name 1) (type passive))
        (pin (num 2) (name 2) (type passive))))
    (libpart (lib Transistor_BJT) (part S8050)
      (description "0.7A Ic, 20V Vce, Low Voltage High Current NPN Transistor, TO-92")
      (docs http://www.unisonic.com.tw/datasheet/S8050.pdf)
      (footprints
        (fp TO?92*))
      (fields
        (field (name Reference) Q)
        (field (name Value) S8050)
        (field (name Footprint) Package_TO_SOT_THT:TO-92_Inline))
      (pins
        (pin (num 1) (name E) (type passive))
        (pin (num 2) (name B) (type input))
        (pin (num 3) (name C) (type passive))))
    (libpart (lib WE-TVS_82400102) (part WE-TVS_82400102)
      (fields
        (field (name Reference) D)
        (field (name Value) WE-TVS_82400102)
        (field (name Footprint) WE-TVS_SOT23-6L)
        (field (name Datasheet) Unavailable)
        (field (name Feld4) None)
        (field (name Feld5) 82400102)
        (field (name Feld6) "TVS Diode Array WE-TVS 2-Ch+VDD 5V SOT23")
        (field (name Feld7) "Wurth Electronics")
        (field (name Feld8) "SOT-23 Würth Elektronik"))
      (pins
        (pin (num 1) (name I/O1) (type BiDi))
        (pin (num 2) (name GND) (type power_in))
        (pin (num 3) (name I/O2) (type BiDi))
        (pin (num 4) (name I/O2-1) (type BiDi))
        (pin (num 5) (name VDD) (type power_in))
        (pin (num 6) (name I/O1-1) (type BiDi))))
    (libpart (lib bq24392) (part bq24392)
      (fields
        (field (name Reference) U)
        (field (name Value) bq24392))
      (pins
        (pin (num 1) (name SW_OPEN) (type output))
        (pin (num 2) (name DM_HOST) (type BiDi))
        (pin (num 3) (name DP_HOST) (type BiDi))
        (pin (num 4) (name CHG_AL_N) (type input))
        (pin (num 5) (name GOOD_BAT) (type output))
        (pin (num 6) (name GND) (type power_out))
        (pin (num 7) (name DP_CON) (type BiDi))
        (pin (num 8) (name DM_CON) (type BiDi))
        (pin (num 9) (name VBUS) (type input))
        (pin (num 10) (name CHG_DET) (type output))))
    (libpart (lib midi-biodata-esp32) (part 105450-0101-105450-0101)
      (fields
        (field (name Reference) J)
        (field (name Value) 105450-0101-105450-0101)
        (field (name Footprint) MOLEX_105450-0101)
        (field (name Datasheet) https://www.digikey.de/product-detail/en/molex/1054500101/WM12856CT-ND/5843891?utm_source=snapeda&utm_medium=aggregator&utm_campaign=symbol)
        (field (name Feld4) 1054500101)
        (field (name Feld5) "USB Shielded I/O Receptacle; Type C; Right Angle; Surface Mount; Gold over Nickel")
        (field (name Feld6) WM12856CT-ND)
        (field (name Feld7) None)
        (field (name Feld8) Molex))
      (pins
        (pin (num A1) (name GND1) (type passive))
        (pin (num A2) (name TX1+) (type passive))
        (pin (num A3) (name TX1-) (type passive))
        (pin (num A4) (name VBUS1) (type passive))
        (pin (num A5) (name CC1) (type passive))
        (pin (num A6) (name D1+) (type passive))
        (pin (num A7) (name D1-) (type passive))
        (pin (num A8) (name SBU1) (type passive))
        (pin (num A9) (name VBUS2) (type passive))
        (pin (num A10) (name RX2-) (type passive))
        (pin (num A11) (name RX2+) (type passive))
        (pin (num A12) (name GND2) (type passive))
        (pin (num B1) (name GND3) (type passive))
        (pin (num B2) (name TX2+) (type passive))
        (pin (num B3) (name TX2-) (type passive))
        (pin (num B4) (name VBUS3) (type passive))
        (pin (num B5) (name CC2) (type passive))
        (pin (num B6) (name D2+) (type passive))
        (pin (num B7) (name D2-) (type passive))
        (pin (num B8) (name SBU2) (type passive))
        (pin (num B9) (name VBUS4) (type passive))
        (pin (num B10) (name RX1-) (type passive))
        (pin (num B11) (name RX1+) (type passive))
        (pin (num B12) (name GND4) (type passive))
        (pin (num S1) (name SHIELD) (type passive))
        (pin (num S2) (name SHIELD) (type passive))
        (pin (num S3) (name SHIELD) (type passive))
        (pin (num S4) (name SHIELD) (type passive))))
    (libpart (lib midi-biodata-esp32) (part AP7361C-U-DFN8-Regulator_Linear)
      (footprints
        (fp SOT?223*))
      (fields
        (field (name Reference) U)
        (field (name Value) AP7361C-U-DFN8-Regulator_Linear)
        (field (name Footprint) Package_TO_SOT_SMD:SOT-223-3_TabPin2))
      (pins
        (pin (num 1) (name VO) (type power_out))
        (pin (num 4) (name GND) (type power_in))
        (pin (num 5) (name EN) (type input))
        (pin (num 8) (name VI) (type power_in))
        (pin (num 9) (name GND) (type power_in))))
    (libpart (lib midi-biodata-esp32) (part ESP32-WROOM-32)
      (aliases
        (alias ESP32-WROOM-32D))
      (description "RF Module, ESP32-D0WDQ6 SoC, Wi-Fi 802.11b/g/n, Bluetooth, BLE, 32-bit, 2.7-3.6V, onboard antenna, SMD")
      (docs https://www.espressif.com/sites/default/files/documentation/esp32-wroom-32_datasheet_en.pdf)
      (footprints
        (fp ESP32?WROOM?32*))
      (fields
        (field (name Reference) U)
        (field (name Value) ESP32-WROOM-32)
        (field (name Footprint) RF_Module:ESP32-WROOM-32))
      (pins
        (pin (num 1) (name GND) (type power_in))
        (pin (num 2) (name VDD) (type power_in))
        (pin (num 3) (name EN) (type input))
        (pin (num 4) (name SENSOR_VP) (type input))
        (pin (num 5) (name SENSOR_VN) (type input))
        (pin (num 6) (name IO34) (type input))
        (pin (num 7) (name IO35) (type input))
        (pin (num 8) (name IO32) (type BiDi))
        (pin (num 9) (name IO33) (type BiDi))
        (pin (num 10) (name IO25) (type BiDi))
        (pin (num 11) (name IO26) (type BiDi))
        (pin (num 12) (name IO27) (type BiDi))
        (pin (num 13) (name IO14) (type BiDi))
        (pin (num 14) (name IO12) (type BiDi))
        (pin (num 15) (name GND) (type passive))
        (pin (num 16) (name IO13) (type BiDi))
        (pin (num 17) (name SHD/SD2) (type BiDi))
        (pin (num 18) (name SWP/SD3) (type BiDi))
        (pin (num 19) (name SCS/CMD) (type BiDi))
        (pin (num 20) (name SCK/CLK) (type BiDi))
        (pin (num 21) (name SDO/SD0) (type BiDi))
        (pin (num 22) (name SDI/SD1) (type BiDi))
        (pin (num 23) (name IO15) (type BiDi))
        (pin (num 24) (name IO2) (type BiDi))
        (pin (num 25) (name IO0) (type BiDi))
        (pin (num 26) (name IO4) (type BiDi))
        (pin (num 27) (name IO16) (type BiDi))
        (pin (num 28) (name IO17) (type BiDi))
        (pin (num 29) (name IO5) (type BiDi))
        (pin (num 30) (name IO18) (type BiDi))
        (pin (num 31) (name IO19) (type BiDi))
        (pin (num 32) (name NC) (type NotConnected))
        (pin (num 33) (name IO21) (type BiDi))
        (pin (num 34) (name RXD0/IO3) (type BiDi))
        (pin (num 35) (name TXD0/IO1) (type BiDi))
        (pin (num 36) (name IO22) (type BiDi))
        (pin (num 37) (name IO23) (type BiDi))
        (pin (num 38) (name GND) (type passive))
        (pin (num 39) (name GND) (type power_in)))))
  (libraries
    (library (logical 744231091)
      (uri C:\Users\Manuel\Nextcloud\Projekte\kicad\midi-biodata-esp32\midi-biodata-esp32_rev6/libs/744231091/744231091.lib))
    (library (logical BQ24250RGER)
      (uri C:\Users\Manuel\Nextcloud\Projekte\kicad\midi-biodata-esp32\midi-biodata-esp32_rev6/libs/BQ24250RGER/BQ24250RGER.lib))
    (library (logical Connector)
      (uri "C:\\Program Files\\KiCad\\share\\kicad\\library/Connector.lib"))
    (library (logical Connector_Generic)
      (uri "C:\\Program Files\\KiCad\\share\\kicad\\library/Connector_Generic.lib"))
    (library (logical Device)
      (uri "C:\\Program Files\\KiCad\\share\\kicad\\library/Device.lib"))
    (library (logical Diode)
      (uri "C:\\Program Files\\KiCad\\share\\kicad\\library/Diode.lib"))
    (library (logical MCU_Microchip_ATmega)
      (uri "C:\\Program Files\\KiCad\\share\\kicad\\library/MCU_Microchip_ATmega.lib"))
    (library (logical Mechanical)
      (uri "C:\\Program Files\\KiCad\\share\\kicad\\library/Mechanical.lib"))
    (library (logical SJ-3523-SMT)
      (uri C:\Users\Manuel\Nextcloud\Projekte\kicad\midi-biodata-esp32\midi-biodata-esp32_rev6/libs/SJ-3523-SMT/SJ-3523-SMT.lib))
    (library (logical Switch)
      (uri "C:\\Program Files\\KiCad\\share\\kicad\\library/Switch.lib"))
    (library (logical Transistor_BJT)
      (uri "C:\\Program Files\\KiCad\\share\\kicad\\library/Transistor_BJT.lib"))
    (library (logical WE-TVS_82400102)
      (uri C:\Users\Manuel\Nextcloud\Projekte\kicad\midi-biodata-esp32\midi-biodata-esp32_rev6/libs/WE-TVS_82400102/WE-TVS_82400102.lib))
    (library (logical bq24392)
      (uri C:\Users\Manuel\Nextcloud\Projekte\kicad\midi-biodata-esp32\midi-biodata-esp32_rev6/libs/bq24392.lib))
    (library (logical midi-biodata-esp32)
      (uri C:\Users\Manuel\Nextcloud\Projekte\kicad\midi-biodata-esp32\midi-biodata-esp32_rev6/libs/midi-biodata-esp32.lib)))
  (nets
    (net (code 1) (name "Net-(C17-Pad2)")
      (node (ref U4) (pin 20))
      (node (ref C17) (pin 2)))
    (net (code 2) (name "Net-(U4-Pad2)")
      (node (ref U4) (pin 2))
      (node (ref U4) (pin 3)))
    (net (code 3) (name "Net-(R20-Pad1)")
      (node (ref R20) (pin 1))
      (node (ref U4) (pin 22)))
    (net (code 4) (name +BATT)
      (node (ref C18) (pin 2))
      (node (ref U4) (pin 12))
      (node (ref U4) (pin 11))
      (node (ref R1) (pin 1))
      (node (ref J4) (pin 1)))
    (net (code 5) (name "Net-(R19-Pad1)")
      (node (ref U4) (pin 10))
      (node (ref R19) (pin 1)))
    (net (code 6) (name "Net-(C16-Pad1)")
      (node (ref C16) (pin 1))
      (node (ref U4) (pin 21)))
    (net (code 7) (name "Net-(D12-Pad1)")
      (node (ref D12) (pin 1))
      (node (ref R24) (pin 2)))
    (net (code 8) (name "Net-(D11-Pad1)")
      (node (ref D11) (pin 1))
      (node (ref R23) (pin 2)))
    (net (code 9) (name +5VP)
      (node (ref C12) (pin 2))
      (node (ref SW1) (pin 2))
      (node (ref U3) (pin 8))
      (node (ref C23) (pin 1))
      (node (ref L1) (pin 2))
      (node (ref U4) (pin 13))
      (node (ref U4) (pin 14))
      (node (ref C13) (pin 2)))
    (net (code 10) (name GND)
      (node (ref U1) (pin 38))
      (node (ref J6) (pin 4))
      (node (ref C7) (pin 1))
      (node (ref D10) (pin 3))
      (node (ref J6) (pin 3))
      (node (ref C23) (pin 2))
      (node (ref C24) (pin 1))
      (node (ref R29) (pin 2))
      (node (ref J3) (pin B1))
      (node (ref J3) (pin B12))
      (node (ref J3) (pin A12))
      (node (ref C11) (pin 2))
      (node (ref U5) (pin 6))
      (node (ref J3) (pin A1))
      (node (ref R25) (pin 2))
      (node (ref R26) (pin 2))
      (node (ref D3) (pin 1))
      (node (ref C9) (pin 1))
      (node (ref C8) (pin 1))
      (node (ref U2) (pin 28))
      (node (ref R2) (pin 2))
      (node (ref C1) (pin 2))
      (node (ref U1) (pin 1))
      (node (ref D6) (pin 1))
      (node (ref D4) (pin 1))
      (node (ref U1) (pin 15))
      (node (ref C19) (pin 1))
      (node (ref U2) (pin 33))
      (node (ref U2) (pin 3))
      (node (ref C2) (pin 2))
      (node (ref C3) (pin 2))
      (node (ref R6) (pin 2))
      (node (ref D1) (pin 1))
      (node (ref C5) (pin 1))
      (node (ref C14) (pin 1))
      (node (ref J4) (pin 2))
      (node (ref D9) (pin 2))
      (node (ref C15) (pin 1))
      (node (ref C4) (pin 2))
      (node (ref C21) (pin 2))
      (node (ref J2) (pin 2))
      (node (ref U3) (pin 9))
      (node (ref U3) (pin 4))
      (node (ref J1) (pin 1))
      (node (ref C6) (pin 2))
      (node (ref J5) (pin 1))
      (node (ref R8) (pin 2))
      (node (ref D2) (pin 1))
      (node (ref D5) (pin 1))
      (node (ref C13) (pin 1))
      (node (ref U4) (pin 25))
      (node (ref C12) (pin 1))
      (node (ref R9) (pin 2))
      (node (ref C22) (pin 1))
      (node (ref R15) (pin 1))
      (node (ref U4) (pin 16))
      (node (ref R7) (pin 2))
      (node (ref R19) (pin 2))
      (node (ref C17) (pin 1))
      (node (ref C20) (pin 1))
      (node (ref U4) (pin 4))
      (node (ref R20) (pin 2))
      (node (ref U1) (pin 39))
      (node (ref U4) (pin 6))
      (node (ref U4) (pin 15))
      (node (ref C10) (pin 2))
      (node (ref C18) (pin 1)))
    (net (code 11) (name +5V)
      (node (ref U5) (pin 9))
      (node (ref C24) (pin 2))
      (node (ref C20) (pin 2))
      (node (ref C7) (pin 2))
      (node (ref R30) (pin 2))
      (node (ref U4) (pin 19))
      (node (ref U2) (pin 31))
      (node (ref C21) (pin 1))
      (node (ref FB1) (pin 1)))
    (net (code 12) (name "Net-(R24-Pad1)")
      (node (ref R24) (pin 1))
      (node (ref U4) (pin 7)))
    (net (code 13) (name "Net-(R23-Pad1)")
      (node (ref R23) (pin 1))
      (node (ref U4) (pin 8)))
    (net (code 14) (name "Net-(RN1-Pad2)")
      (node (ref RN1) (pin 2))
      (node (ref U1) (pin 12)))
    (net (code 15) (name "Net-(RN1-Pad4)")
      (node (ref U1) (pin 8))
      (node (ref RN1) (pin 4)))
    (net (code 16) (name +3V3)
      (node (ref R10) (pin 2))
      (node (ref U3) (pin 1))
      (node (ref R13) (pin 1))
      (node (ref C6) (pin 1))
      (node (ref C10) (pin 1))
      (node (ref J2) (pin 1))
      (node (ref R22) (pin 2))
      (node (ref C15) (pin 2))
      (node (ref C14) (pin 2))
      (node (ref J1) (pin 4))
      (node (ref C8) (pin 2))
      (node (ref C9) (pin 2))
      (node (ref U1) (pin 2))
      (node (ref C19) (pin 2)))
    (net (code 17) (name "Net-(J1-Pad3)")
      (node (ref J1) (pin 3))
      (node (ref U1) (pin 10)))
    (net (code 18) (name "Net-(J1-Pad2)")
      (node (ref U1) (pin 11))
      (node (ref J1) (pin 2)))
    (net (code 19) (name "Net-(D3-Pad2)")
      (node (ref RN1) (pin 7))
      (node (ref D3) (pin 2)))
    (net (code 20) (name "Net-(U1-Pad5)")
      (node (ref U1) (pin 5)))
    (net (code 21) (name "Net-(U1-Pad6)")
      (node (ref U1) (pin 6)))
    (net (code 22) (name "Net-(U1-Pad7)")
      (node (ref U1) (pin 7)))
    (net (code 23) (name "Net-(D2-Pad2)")
      (node (ref D2) (pin 2))
      (node (ref RN1) (pin 8)))
    (net (code 24) (name "Net-(D4-Pad2)")
      (node (ref RN1) (pin 6))
      (node (ref D4) (pin 2)))
    (net (code 25) (name "Net-(D5-Pad2)")
      (node (ref RN1) (pin 5))
      (node (ref D5) (pin 2)))
    (net (code 26) (name "Net-(D6-Pad2)")
      (node (ref D6) (pin 2))
      (node (ref R4) (pin 1)))
    (net (code 27) (name LED_W)
      (node (ref R4) (pin 2))
      (node (ref U1) (pin 14)))
    (net (code 28) (name "Net-(C16-Pad2)")
      (node (ref L1) (pin 1))
      (node (ref U4) (pin 17))
      (node (ref C16) (pin 2))
      (node (ref U4) (pin 18)))
    (net (code 29) (name "Net-(R15-Pad2)")
      (node (ref R16) (pin 1))
      (node (ref R15) (pin 2))
      (node (ref U4) (pin 9)))
    (net (code 30) (name VCCQ)
      (node (ref R16) (pin 2))
      (node (ref U4) (pin 24))
      (node (ref C22) (pin 2))
      (node (ref D12) (pin 2))
      (node (ref D11) (pin 2)))
    (net (code 31) (name "Net-(R29-Pad1)")
      (node (ref U4) (pin 23))
      (node (ref R30) (pin 1))
      (node (ref R29) (pin 1)))
    (net (code 32) (name HWB)
      (node (ref U2) (pin 13))
      (node (ref J6) (pin 1)))
    (net (code 33) (name "Net-(U5-Pad1)")
      (node (ref U5) (pin 1)))
    (net (code 34) (name CHARGE_ENABLE)
      (node (ref U4) (pin 1))
      (node (ref R25) (pin 1))
      (node (ref U5) (pin 4))
      (node (ref R27) (pin 1)))
    (net (code 35) (name VCC)
      (node (ref C5) (pin 2))
      (node (ref U5) (pin 5))
      (node (ref U2) (pin 32))
      (node (ref U2) (pin 4))
      (node (ref U2) (pin 27))
      (node (ref R3) (pin 1))
      (node (ref R27) (pin 2))
      (node (ref R28) (pin 2)))
    (net (code 36) (name "Net-(D13-Pad1)")
      (node (ref D13) (pin 1))
      (node (ref U5) (pin 10)))
    (net (code 37) (name EN1)
      (node (ref R28) (pin 1))
      (node (ref D13) (pin 2))
      (node (ref U4) (pin 5)))
    (net (code 38) (name "Net-(J3-PadB5)")
      (node (ref J3) (pin B5))
      (node (ref R9) (pin 1)))
    (net (code 39) (name "Net-(J3-PadA5)")
      (node (ref J3) (pin A5))
      (node (ref R8) (pin 1)))
    (net (code 40) (name "Net-(J6-Pad2)")
      (node (ref J6) (pin 2))
      (node (ref R3) (pin 2))
      (node (ref U2) (pin 24)))
    (net (code 41) (name "Net-(U2-Pad15)")
      (node (ref U2) (pin 15)))
    (net (code 42) (name "Net-(D10-Pad1)")
      (node (ref FB3) (pin 1))
      (node (ref J5) (pin 3))
      (node (ref D10) (pin 1)))
    (net (code 43) (name "Net-(D10-Pad2)")
      (node (ref J5) (pin 2))
      (node (ref FB2) (pin 2))
      (node (ref D10) (pin 2)))
    (net (code 44) (name "Net-(J3-PadB3)")
      (node (ref J3) (pin B3)))
    (net (code 45) (name "Net-(J3-PadA2)")
      (node (ref J3) (pin A2)))
    (net (code 46) (name "Net-(J3-PadA3)")
      (node (ref J3) (pin A3)))
    (net (code 47) (name "Net-(J3-PadA8)")
      (node (ref J3) (pin A8)))
    (net (code 48) (name "Net-(J3-PadB10)")
      (node (ref J3) (pin B10)))
    (net (code 49) (name "Net-(J3-PadB11)")
      (node (ref J3) (pin B11)))
    (net (code 50) (name "Net-(J3-PadB2)")
      (node (ref J3) (pin B2)))
    (net (code 51) (name "Net-(J3-PadB8)")
      (node (ref J3) (pin B8)))
    (net (code 52) (name "Net-(J3-PadS1)")
      (node (ref J3) (pin S1)))
    (net (code 53) (name "Net-(J3-PadS2)")
      (node (ref J3) (pin S2)))
    (net (code 54) (name "Net-(J3-PadS3)")
      (node (ref J3) (pin S3)))
    (net (code 55) (name "Net-(J3-PadS4)")
      (node (ref J3) (pin S4)))
    (net (code 56) (name "Net-(J3-PadA10)")
      (node (ref J3) (pin A10)))
    (net (code 57) (name "Net-(J3-PadA11)")
      (node (ref J3) (pin A11)))
    (net (code 58) (name D+)
      (node (ref U5) (pin 7))
      (node (ref R17) (pin 1)))
    (net (code 59) (name D-)
      (node (ref U5) (pin 8))
      (node (ref R18) (pin 1)))
    (net (code 60) (name "Net-(U2-Pad25)")
      (node (ref U2) (pin 25)))
    (net (code 61) (name "Net-(U2-Pad23)")
      (node (ref U2) (pin 23)))
    (net (code 62) (name "Net-(U2-Pad17)")
      (node (ref U2) (pin 17)))
    (net (code 63) (name "Net-(U2-Pad16)")
      (node (ref U2) (pin 16)))
    (net (code 64) (name EN_ESP32)
      (node (ref C4) (pin 1))
      (node (ref R13) (pin 2))
      (node (ref U1) (pin 3))
      (node (ref Q2) (pin 3)))
    (net (code 65) (name IO0)
      (node (ref U1) (pin 25))
      (node (ref R10) (pin 1))
      (node (ref Q1) (pin 3)))
    (net (code 66) (name "Net-(FB3-Pad2)")
      (node (ref R22) (pin 1))
      (node (ref FB3) (pin 2)))
    (net (code 67) (name "Net-(FB2-Pad1)")
      (node (ref FB2) (pin 1))
      (node (ref R21) (pin 1)))
    (net (code 68) (name TX0)
      (node (ref R21) (pin 2))
      (node (ref U2) (pin 8))
      (node (ref U1) (pin 35)))
    (net (code 69) (name "Net-(D1-Pad2)")
      (node (ref R5) (pin 1))
      (node (ref D1) (pin 2)))
    (net (code 70) (name "Net-(U1-Pad26)")
      (node (ref U1) (pin 26)))
    (net (code 71) (name /FLD+)
      (node (ref FL1) (pin 2))
      (node (ref R17) (pin 2)))
    (net (code 72) (name /FLD-)
      (node (ref R18) (pin 2))
      (node (ref FL1) (pin 3)))
    (net (code 73) (name "Net-(U2-Pad19)")
      (node (ref U2) (pin 19)))
    (net (code 74) (name "Net-(U1-Pad18)")
      (node (ref U1) (pin 18)))
    (net (code 75) (name "Net-(U1-Pad17)")
      (node (ref U1) (pin 17)))
    (net (code 76) (name "Net-(U1-Pad22)")
      (node (ref U1) (pin 22)))
    (net (code 77) (name "Net-(U1-Pad21)")
      (node (ref U1) (pin 21)))
    (net (code 78) (name "Net-(U2-Pad7)")
      (node (ref U2) (pin 7)))
    (net (code 79) (name "Net-(U2-Pad6)")
      (node (ref U2) (pin 6)))
    (net (code 80) (name "Net-(U2-Pad22)")
      (node (ref U2) (pin 22)))
    (net (code 81) (name "Net-(U2-Pad26)")
      (node (ref U2) (pin 26)))
    (net (code 82) (name "Net-(U2-Pad5)")
      (node (ref U2) (pin 5)))
    (net (code 83) (name "Net-(U2-Pad21)")
      (node (ref U2) (pin 21)))
    (net (code 84) (name "Net-(U2-Pad20)")
      (node (ref U2) (pin 20)))
    (net (code 85) (name "Net-(U1-Pad20)")
      (node (ref U1) (pin 20)))
    (net (code 86) (name "Net-(U2-Pad18)")
      (node (ref U2) (pin 18)))
    (net (code 87) (name "Net-(U2-Pad14)")
      (node (ref U2) (pin 14)))
    (net (code 88) (name "Net-(R5-Pad2)")
      (node (ref R5) (pin 2))
      (node (ref U1) (pin 37)))
    (net (code 89) (name RX0)
      (node (ref U1) (pin 34))
      (node (ref U2) (pin 9)))
    (net (code 90) (name "Net-(U1-Pad24)")
      (node (ref U1) (pin 24)))
    (net (code 91) (name "Net-(U1-Pad23)")
      (node (ref U1) (pin 23)))
    (net (code 92) (name "Net-(U1-Pad31)")
      (node (ref U1) (pin 31)))
    (net (code 93) (name "Net-(U1-Pad33)")
      (node (ref U1) (pin 33)))
    (net (code 94) (name "Net-(U1-Pad36)")
      (node (ref U1) (pin 36)))
    (net (code 95) (name "Net-(U1-Pad19)")
      (node (ref U1) (pin 19)))
    (net (code 96) (name "Net-(Q2-Pad2)")
      (node (ref Q2) (pin 2))
      (node (ref R12) (pin 2)))
    (net (code 97) (name "Net-(Q1-Pad2)")
      (node (ref R11) (pin 2))
      (node (ref Q1) (pin 2)))
    (net (code 98) (name RTS)
      (node (ref R11) (pin 1))
      (node (ref Q2) (pin 1))
      (node (ref U2) (pin 12)))
    (net (code 99) (name /EN_PWR)
      (node (ref U3) (pin 5))
      (node (ref D8) (pin 1))
      (node (ref D7) (pin 1)))
    (net (code 100) (name LATCH)
      (node (ref U1) (pin 29))
      (node (ref D8) (pin 2)))
    (net (code 101) (name "Net-(C11-Pad1)")
      (node (ref C11) (pin 1))
      (node (ref R14) (pin 2))
      (node (ref R7) (pin 1))
      (node (ref D7) (pin 2))
      (node (ref SW1) (pin 1)))
    (net (code 102) (name SENSE)
      (node (ref U1) (pin 30))
      (node (ref R26) (pin 1))
      (node (ref R14) (pin 1)))
    (net (code 103) (name VBUS)
      (node (ref FB1) (pin 2))
      (node (ref J3) (pin A9))
      (node (ref J3) (pin B9))
      (node (ref J3) (pin B4))
      (node (ref J3) (pin A4))
      (node (ref D9) (pin 5)))
    (net (code 104) (name /TVSD-)
      (node (ref FL1) (pin 4))
      (node (ref D9) (pin 1)))
    (net (code 105) (name /TVSD+)
      (node (ref D9) (pin 3))
      (node (ref FL1) (pin 1)))
    (net (code 106) (name /UD-)
      (node (ref J3) (pin A7))
      (node (ref D9) (pin 6))
      (node (ref J3) (pin B7)))
    (net (code 107) (name /UD+)
      (node (ref D9) (pin 4))
      (node (ref J3) (pin A6))
      (node (ref J3) (pin B6)))
    (net (code 108) (name "Net-(U1-Pad28)")
      (node (ref U1) (pin 28)))
    (net (code 109) (name ISO_555)
      (node (ref J2) (pin 3))
      (node (ref U1) (pin 16)))
    (net (code 111) (name MODE)
      (node (ref U2) (pin 10))
      (node (ref R6) (pin 1))
      (node (ref U1) (pin 27)))
    (net (code 112) (name "Net-(U1-Pad32)")
      (node (ref U1) (pin 32)))
    (net (code 113) (name LED_B)
      (node (ref U1) (pin 13))
      (node (ref RN1) (pin 1)))
    (net (code 114) (name "Net-(RN1-Pad3)")
      (node (ref U1) (pin 9))
      (node (ref RN1) (pin 3)))
    (net (code 115) (name "Net-(C1-Pad1)")
      (node (ref C1) (pin 1))
      (node (ref R2) (pin 1))
      (node (ref R1) (pin 2))
      (node (ref U1) (pin 4)))
    (net (code 116) (name "Net-(C2-Pad1)")
      (node (ref Y1) (pin 1))
      (node (ref C2) (pin 1))
      (node (ref U2) (pin 1)))
    (net (code 117) (name DTR)
      (node (ref U2) (pin 11))
      (node (ref R12) (pin 1))
      (node (ref Q1) (pin 1)))
    (net (code 118) (name "Net-(C3-Pad1)")
      (node (ref Y1) (pin 2))
      (node (ref C3) (pin 1))
      (node (ref U2) (pin 2)))
    (net (code 119) (name DP_HOST)
      (node (ref U5) (pin 3))
      (node (ref U2) (pin 29)))
    (net (code 120) (name DM_HOST)
      (node (ref U2) (pin 30))
      (node (ref U5) (pin 2)))))