PCBNEW-LibModule-V1  
# encoding utf-8
Units mm
$INDEX
CUI_MJ-2523-SMT
$EndINDEX
$MODULE CUI_MJ-2523-SMT
Po 0 0 0 15 00000000 00000000 ~~
Li CUI_MJ-2523-SMT
Cd 
Sc 00000000
At SMD
Op 0 0 0
.SolderMask 0
.SolderPaste 0
T0 -5.21297 -3.63707 1.00057 1.00057 0 0.05 N V 21 "CUI_MJ-2523-SMT"
T1 -4.22609 6.11659 1.00026 1.00026 0 0.05 N V 21 "VAL**"
DS -6 -2.5 -6 2 0.127 27
DS -6 2 -6 2.5 0.127 27
DS -6 2.5 6 2.5 0.127 27
DS 6 2.5 6 -2.5 0.127 27
DS 6 -2.5 -6 -2.5 0.127 27
DS -6 -2.5 -7.5 -2.5 0.127 27
DS -7.5 -2.5 -7.5 2 0.127 27
DS -7.5 2 -6 2 0.127 27
DS -7.5 -2.5 -6 -2.5 0.127 21
DS -6 -2.5 -6 2 0.127 21
DS -6 2 -7.5 2 0.127 21
DS -7.5 2 -7.5 -2.5 0.127 21
DS -6 -2.5 3.9 -2.5 0.127 21
DS 6 -1.9 6 1.9 0.127 21
DS 4 2.5 -2.9 2.5 0.127 21
DS -5.7 2.5 -6 2.5 0.127 21
DS -6 2.5 -6 2 0.127 21
DS -7.75 -2.75 3.95 -2.75 0.05 26
DS 3.95 -2.75 3.95 -4.95 0.05 26
DS 3.95 -4.95 6.85 -4.95 0.05 26
DS 6.85 4.95 3.95 4.95 0.05 26
DS 3.95 4.95 3.95 2.75 0.05 26
DS 3.95 2.75 -2.85 2.75 0.05 26
DS -2.85 2.75 -2.85 4.95 0.05 26
DS -2.85 4.95 -5.75 4.95 0.05 26
DS -5.75 4.95 -5.75 2.75 0.05 26
DS -5.75 2.75 -6.25 2.75 0.05 26
DS -6.25 2.75 -6.25 2.25 0.05 26
DS -6.25 2.25 -7.75 2.25 0.05 26
DS -7.75 2.25 -7.75 -2.75 0.05 26
DS 6.85 -4.95 6.85 -1.95 0.05 26
DS 6.85 -1.95 6.25 -1.95 0.05 26
DS 6.25 -1.95 6.25 1.95 0.05 26
DS 6.25 1.95 6.85 1.95 0.05 26
DS 6.85 1.95 6.85 4.95 0.05 26
DC -6.25 3.5 -6.05 3.5 0.4 21
DC -4.5 4 -4.3 4 0.4 27
$PAD
Sh "1" R 2.8 2.4 0 0 900
At SMD N 00888000
.SolderMask 0
.SolderPaste 0
Ne 0 ""
Po -4.3 3.3
$EndPAD
$PAD
Sh "2" R 2.5 2.4 0 0 900
At SMD N 00888000
.SolderMask 0
.SolderPaste 0
Ne 0 ""
Po 5.4 3.45
$EndPAD
$PAD
Sh "4" R 2.5 2.4 0 0 900
At SMD N 00888000
.SolderMask 0
.SolderPaste 0
Ne 0 ""
Po 5.4 -3.45
$EndPAD
$PAD
Sh "Hole" C 1 1 0 0 0
Dr 1 0 0
At HOLE N 00E0FFFF
Po -3 0
$EndPAD
$PAD
Sh "Hole" C 1 1 0 0 0
Dr 1 0 0
At HOLE N 00E0FFFF
Po 3 0
$EndPAD
$EndMODULE CUI_MJ-2523-SMT
